0.023991
0.023991
0.023991
0.023991
0.023991
0.023991
0.023991
0.023991
0.023991
0.023991
0.023991
0.023991
0.023991
0.023991
0.023991
0.023991
0.023991
0.023991
0.023991
0.023991
0.023991
0.023991
0.023991
0.023991
0.023991
0.0239909
0.0239909
0.0239909
0.0239909
0.0239909
0.0239909
0.0239909
0.0239909
0.0239909
0.0239909
0.0239909
0.0239909
0.0239908
0.0239908
0.0239908
0.0239908
0.0239908
0.0239908
0.0239908
0.0239907
0.0239907
0.0239907
0.0239907
0.0239907
0.0239907
0.0239906
0.0239906
0.0239906
0.0239906
0.0239906
0.0239905
0.0239905
0.0239905
0.0239904
0.0239904
0.0239904
0.0239904
0.0239903
0.0239903
0.0239903
0.0239902
0.0239902
0.0239902
0.0239901
0.0239901
0.0239901
0.02399
0.02399
0.0239899
0.0239899
0.0239899
0.0239898
0.0239898
0.0239897
0.0239897
0.0239896
0.0239896
0.0239895
0.0239895
0.0239894
0.0239894
0.0239893
0.0239893
0.0239892
0.0239892
0.0239891
0.0239891
0.023989
0.023989
0.0239889
0.0239889
0.0239888
0.0239888
0.0239887
0.0239887
0.0239886
0.0239886
0.0239886
0.0239885
0.0239885
0.0239885
0.0239885
0.0239885
0.0239885
0.0239885
0.0239886
0.0239887
0.0239887
0.0239888
0.023989
0.0239891
0.0239893
0.0239896
0.0239898
0.0239902
0.0239906
0.0239911
0.0239916
0.0239923
0.023993
0.0239939
0.0239949
0.0239961
0.0239975
0.0239991
0.024001
0.0240031
0.0240056
0.0240084
0.0240117
0.0240154
0.0240198
0.0240248
0.0240305
0.0240371
0.0240447
0.0240534
0.0240634
0.0240749
0.0240881
0.0241032
0.0241206
0.0241406
0.0241635
0.0241898
0.02422
0.0242547
0.0242945
0.0243401
0.0243926
0.0244527
0.0245218
0.024601
0.024692
0.0247964
0.0249164
0.0250541
0.0252122
0.0253939
0.0256026
0.0258425
0.0261182
0.0264351
0.0267997
0.027219
0.0277017
0.0282572
0.0288971
0.0296342
0.0304838
0.0314632
0.0325925
0.033895
0.0353969
0.0371285
0.0391236
0.0414203
0.0440604
0.0470899
0.0505585
0.0545215
0.0590441
0.0642168
0.0702015
0.0773665
0.086668
0.100589
0.12467
0.167543
0.236503
0.333437
0.456262
0.602209
0.768846
0.953686
1.15398
1.36671
1.58869
1.81658
2.04698
2.2764
2.5013
2.71807
2.92302
3.11244
3.28263
3.43015
3.55207
3.64627
3.71177
3.74872
3.75836
3.74262
3.70372
3.64387
3.56496
3.46852
3.35566
3.22709
3.08316
2.92384
2.74887
2.55807
2.35194
2.13249
1.90419
1.67417
1.45138
1.24433
1.05886
0.897199
0.758786
0.641527
0.542807
0.459997
0.390675
0.332698
0.284214
0.243647
0.209667
0.181162
0.157206
0.137032
0.120003
0.105593
0.0933677
0.0829674
0.0740949
0.0665039
0.0599902
0.0543843
0.049545
0.0453547
0.0417152
0.0385442
0.0357727
0.0333428
0.0312055
0.0293196
0.0276502
0.0261675
0.0248465
0.0236656
0.0226065
0.0216535
0.020793
0.0200137
0.0193053
0.0186595
0.0180687
0.0175264
0.0170271
0.016566
0.0161387
0.0157416
0.0153714
0.0150253
0.0147008
0.0143957
0.0141081
0.0138364
0.0135789
0.0133345
0.0131019
0.0128801
0.0126681
0.0124652
0.0122706
0.0120837
0.0119039
0.0117307
0.0115636
0.0114022
0.0112461
0.011095
0.0109487
0.0108067
0.010669
0.0105352
0.0104052
0.0102787
0.0101557
0.0100359
0.00991929
0.00980566
0.00969493
0.00958697
0.00948171
0.00937904
0.00927889
0.00918118
0.00908584
0.00899279
0.00890199
0.00881337
0.00872688
0.00864246
0.00856007
0.00847967
0.0084012
0.00832463
0.00824991
0.00817702
0.00810591
0.00803654
0.0079689
0.00790293
0.00783862
0.00777593
0.00771484
0.00765531
0.00759731
0.00754083
0.00748583
0.00743229
0.00738019
0.00732949
0.00728019
0.00723224
0.00718564
0.00714035
0.00709637
0.00705365
0.0070122
0.00697198
0.00693297
0.00689515
0.00685851
0.00682303
0.00678869
0.00675546
0.00672333
0.00669229
0.00666232
0.00663339
0.00660549
0.00657861
0.00655273
0.00652783
0.0065039
0.00648092
0.00645888
0.00643776
0.00641755
0.00639823
0.00637979
0.00636221
0.00634549
0.0063296
0.00631454
0.00630029
0.00628684
0.00627417
0.00626228
0.00625115
0.00624077
0.00623114
0.00622222
0.00621403
0.00620654
0.00619974
0.00619362
0.00618818
0.0061834
0.00617928
0.00617579
0.00617294
0.00617071
0.00616909
0.00616808
0.00616766
0.00616783
0.00616857
0.00616988
0.00617175
0.00617418
0.00617714
0.00618064
0.00618466
0.0061892
0.00619426
0.00619981
0.00620586
0.0062124
0.00621941
0.0062269
0.00623486
0.00624327
0.00625213
0.00626144
0.00627119
0.00628136
0.00629196
0.00630298
0.0063144
0.00632624
0.00633847
0.00635109
0.0063641
0.00637749
0.00639125
0.00640537
0.00641987
0.00643471
0.00644991
0.00646545
0.00648133
0.00649754
0.00651407
0.00653093
0.00654811
0.0065656
0.00658339
0.00660148
0.00661987
0.00663855
0.00665752
0.00667676
0.00669627
0.00671606
0.00673611
0.00675642
0.00677699
0.0067978
0.00681886
0.00684016
0.00686169
0.00688346
0.00690545
0.00692766
0.00695009
0.00697273
0.00699557
0.00701862
0.00704186
0.0070653
0.00708893
0.00711274
0.00713674
0.0071609
0.00718524
0.00720975
0.00723442
0.00725924
0.00728422
0.00730935
0.00733463
0.00736005
0.0073856
0.00741129
0.00743711
0.00746305
0.00748911
0.00751529
0.00754158
0.00756798
0.00759449
0.00762109
0.00764779
0.00767458
0.00770147
0.00772843
0.00775548
0.00778261
0.00780981
0.00783707
0.00786441
0.0078918
0.00791926
0.00794677
0.00797433
0.00800194
0.00802959
0.00805728
0.00808501
0.00811277
0.00814056
0.00816837
0.00819621
0.00822407
0.00825195
0.00827983
0.00830773
0.00833563
0.00836354
0.00839144
0.00841934
0.00844724
0.00847512
0.00850299
0.00853084
0.00855867
0.00858648
0.00861426
0.00864202
0.00866974
0.00869743
0.00872507
0.00875268
0.00878024
0.00880776
0.00883522
0.00886264
0.00889
0.0089173
0.00894454
0.00897172
0.00899883
0.00902588
0.00905285
0.00907975
0.00910657
0.00913332
0.00915998
0.00918656
0.00921306
0.00923946
0.00926578
0.009292
0.00931813
0.00934416
0.00937009
0.00939592
0.00942165
0.00944727
0.00947278
0.00949819
0.00952348
0.00954866
0.00957372
0.00959866
0.00962349
0.0096482
0.00967278
0.00969724
0.00972158
0.00974578
0.00976986
0.00979381
0.00981763
0.00984131
0.00986486
0.00988827
0.00991154
0.00993468
0.00995767
0.00998052
0.0100032
0.0100258
0.0100482
0.0100705
0.0100926
0.0101146
0.0101364
0.0101581
0.0101796
0.010201
0.0102222
0.0102433
0.0102642
0.0102849
0.0103055
0.0103259
0.0103462
0.0103663
0.0103863
0.0104061
0.0104257
0.0104452
0.0104645
0.0104837
0.0105027
0.0105215
0.0105401
0.0105586
0.010577
0.0105951
0.0106131
0.010631
0.0106486
0.0106661
0.0106835
0.0107007
0.0107177
0.0107345
0.0107512
0.0107677
0.010784
0.0108002
0.0108162
0.0108321
0.0108478
0.0108633
0.0108786
0.0108938
0.0109088
0.0109237
0.0109384
0.0109529
0.0109673
0.0109815
0.0109955
0.0110094
0.0110231
0.0110367
0.0110501
0.0110633
0.0110764
0.0110893
0.0111021
0.0111147
0.0111271
0.0111394
0.0111515
0.0111635
0.0111753
0.011187
0.0111985
0.0112098
0.011221
0.0112321
0.011243
0.0112537
0.0112643
0.0112748
0.0112851
0.0112953
0.0113053
0.0113151
0.0113249
0.0113344
0.0113439
0.0113532
0.0113623
0.0113713
0.0113802
0.011389
0.0113976
0.011406
0.0114144
0.0114226
0.0114306
0.0114385
0.0114463
0.011454
0.0114616
0.011469
0.0114763
0.0114834
0.0114904
0.0114974
0.0115041
0.0115108
0.0115174
0.0115238
0.0115301
0.0115363
0.0115424
0.0115483
0.0115542
0.0115599
0.0115655
0.011571
0.0115764
0.0115817
0.0115869
0.011592
0.0115969
0.0116018
0.0116066
0.0116112
0.0116158
0.0116202
0.0116246
0.0116289
0.011633
0.0116371
0.0116411
0.011645
0.0116487
0.0116524
0.0116561
0.0116596
0.011663
0.0116663
0.0116696
0.0116728
0.0116759
0.0116789
0.0116818
0.0116846
0.0116874
0.0116901
0.0116927
0.0116952
0.0116977
0.0117001
0.0117024
0.0117046
0.0117068
0.0117089
0.0117109
0.0117129
0.0117148
0.0117166
0.0117184
0.0117201
0.0117217
0.0117233
0.0117248
0.0117262
0.0117276
0.0117289
0.0117302
0.0117314
0.0117326
0.0117337
0.0117348
0.0117358
0.0117367
0.0117376
0.0117384
0.0117392
0.01174
0.0117407
0.0117414
0.011742
0.0117425
0.011743
0.0117435
0.011744
0.0117443
0.0117447
0.011745
0.0117453
0.0117455
0.0117457
0.0117459
0.011746
0.0117461
0.0117461
0.0117461
0.0117461
0.0117461
0.011746
0.0117459
0.0117457
0.0117456
0.0117454
0.0117451
0.0117449
0.0117446
0.0117443
0.011744
0.0117436
0.0117432
0.0117428
0.0117424
0.0117419
0.0117414
0.0117409
0.0117404
0.0117399
0.0117393
0.0117387
0.0117381
0.0117375
0.0117369
0.0117362
0.0117356
0.0117349
0.0117342
0.0117335
0.0117327
0.011732
0.0117312
0.0117305
0.0117297
0.0117289
0.0117281
0.0117272
0.0117264
0.0117256
0.0117247
0.0117239
0.011723
0.0117221
0.0117212
0.0117204
0.0117195
0.0117186
0.0117176
0.0117167
0.0117158
0.0117149
0.0117139
0.011713
0.011712
0.0117111
0.0117101
0.0117092
0.0117082
0.0117073
0.0117063
0.0117053
0.0117044
0.0117034
0.0117024
0.0117014
0.0117005
0.0116995
0.0116985
0.0116975
0.0116966
0.0116956
0.0116946
0.0116937
0.0116927
0.0116917
0.0116907
0.0116898
0.0116888
0.0116879
0.0116869
0.0116859
0.011685
0.011684
0.0116831
0.0116822
0.0116812
0.0116803
0.0116793
0.0116784
0.0116775
0.0116766
0.0116757
0.0116748
0.0116739
0.011673
0.0116721
0.0116712
0.0116703
0.0116694
0.0116686
0.0116677
0.0116668
0.011666
0.0116651
0.0116643
0.0116635
0.0116626
0.0116618
0.011661
0.0116602
0.0116594
0.0116586
0.0116578
0.0116571
0.0116563
0.0116555
0.0116548
0.011654
0.0116533
0.0116526
0.0116518
0.0116511
0.0116504
0.0116497
0.011649
0.0116483
0.0116477
0.011647
0.0116463
0.0116457
0.0116451
0.0116444
0.0116438
0.0116432
0.0116426
0.011642
0.0116414
0.0116408
0.0116402
0.0116397
0.0116391
0.0116386
0.011638
0.0116375
0.011637
0.0116364
0.0116359
0.0116354
0.011635
0.0116345
0.011634
0.0116335
0.0116331
0.0116326
0.0116322
0.0116318
0.0116314
0.0116309
0.0116305
0.0116302
0.0116298
0.0116294
0.011629
0.0116287
0.0116283
0.011628
0.0116276
0.0116273
0.011627
0.0116267
0.0116264
0.0116261
0.0116258
0.0116255
0.0116253
0.011625
0.0116248
0.0116245
0.0116243
0.011624
0.0116238
0.0116236
0.0116234
0.0116232
0.011623
0.0116229
0.0116227
0.0116225
0.0116224
0.0116222
0.0116221
0.0116219
0.0116218
0.0116217
0.0116216
0.0116215
0.0116214
0.0116213
0.0116212
0.0116211
0.0116211
0.011621
0.0116209
0.0116209
0.0116209
0.0116208
0.0116208
0.0116208
0.0116208
0.0116208
0.0116208
0.0116208
0.0116208
0.0116208
0.0116208
0.0116209
0.0116209
0.011621
0.011621
0.0116211
0.0116211
0.0116212
0.0116213
0.0116214
0.0116215
0.0116216
0.0116217
0.0116218
0.0116219
0.011622
0.0116221
0.0116222
0.0116224
0.0116225
0.0116227
0.0116228
0.011623
0.0116231
0.0116233
0.0116235
0.0116236
0.0116238
0.011624
0.0116242
0.0116244
0.0116246
0.0116248
0.011625
0.0116252
0.0116254
0.0116257
0.0116259
0.0116261
0.0116264
0.0116266
0.0116268
0.0116271
0.0116273
0.0116276
0.0116279
0.0116281
0.0116284
0.0116287
0.0116289
0.0116292
0.0116295
0.0116298
0.0116301
0.0116304
0.0116307
0.011631
0.0116313
0.0116316
0.0116319
0.0116322
0.0116326
0.0116329
0.0116332
0.0116335
0.0116339
0.0116342
0.0116345
0.0116349
0.0116352
0.0116356
0.0116359
0.0116363
0.0116366
0.011637
0.0116373
0.0116377
0.0116381
0.0116384
0.0116388
0.0116392
0.0116395
0.0116399
0.0116403
0.0116407
0.0116411
0.0116414
0.0116418
0.0116422
0.0116426
0.011643
0.0116434
0.0116438
0.0116442
0.0116446
0.011645
0.0116454
0.0116458
0.0116462
0.0116466
0.011647
0.0116474
0.0116478
0.0116483
0.0116487
0.0116491
0.0116495
0.0116499
0.0116504
0.0116508
0.0116512
0.0116516
0.011652
0.0116525
0.0116529
0.0116533
0.0116538
0.0116542
0.0116546
0.0116551
0.0116555
0.0116559
0.0116564
0.0116568
0.0116572
0.0116577
0.0116581
0.0116586
0.011659
0.0116594
0.0116599
0.0116603
0.0116608
0.0116612
0.0116616
0.0116621
0.0116625
0.011663
0.0116634
0.0116639
0.0116643
0.0116648
0.0116652
0.0116656
0.0116661
0.0116665
0.011667
0.0116674
0.0116679
0.0116683
0.0116688
0.0116692
0.0116697
0.0116701
0.0116706
0.011671
0.0116715
0.0116719
0.0116724
0.0116728
0.0116733
0.0116737
0.0116742
0.0116746
0.011675
0.0116755
0.0116759
0.0116764
0.0116768
0.0116773
0.0116777
0.0116782
0.0116786
0.0116791
0.0116795
0.0116799
0.0116804
0.0116808
0.0116813
0.0116817
0.0116822
0.0116826
0.011683
0.0116835
0.0116839
0.0116844
0.0116848
0.0116852
0.0116857
0.0116861
0.0116866
0.011687
0.0116874
0.0116879
0.0116883
0.0116887
0.0116892
0.0116896
0.01169
0.0116905
0.0116909
0.0116913
0.0116918
0.0116922
0.0116926
0.0116931
0.0116935
0.0116939
0.0116943
0.0116948
0.0116952
0.0116956
0.011696
0.0116965
0.0116969
0.0116973
0.0116977
0.0116981
0.0116986
0.011699
0.0116994
0.0116998
0.0117002
0.0117006
0.0117011
0.0117015
0.0117019
0.0117023
0.0117027
0.0117031
0.0117035
0.0117039
0.0117043
0.0117047
0.0117051
0.0117055
0.011706
0.0117064
0.0117068
0.0117072
0.0117076
0.011708
0.0117084
0.0117088
0.0117091
0.0117095
0.0117099
0.0117103
0.0117107
0.0117111
0.0117115
0.0117119
0.0117123
0.0117127
0.0117131
0.0117135
0.0117138
0.0117142
0.0117146
0.011715
0.0117154
0.0117158
0.0117161
0.0117165
0.0117169
0.0117173
0.0117176
0.011718
0.0117184
0.0117188
0.0117191
0.0117195
0.0117199
0.0117203
0.0117206
0.011721
0.0117214
0.0117217
0.0117221
0.0117225
0.0117228
0.0117232
0.0117235
0.0117239
0.0117243
0.0117246
0.011725
0.0117253
0.0117257
0.011726
0.0117264
0.0117268
0.0117271
0.0117275
0.0117278
0.0117282
0.0117285
0.0117289
0.0117292
0.0117295
0.0117299
0.0117302
0.0117306
0.0117309
0.0117313
0.0117316
0.0117319
0.0117323
0.0117326
0.011733
0.0117333
0.0117336
0.011734
0.0117343
0.0117346
0.011735
0.0117353
0.0117356
0.0117359
0.0117363
0.0117366
0.0117369
0.0117373
0.0117376
0.0117379
0.0117382
0.0117386
0.0117389
0.0117392
0.0117395
0.0117398
0.0117401
0.0117405
0.0117408
0.0117411
0.0117414
0.0117417
0.011742
0.0117424
0.0117427
0.011743
0.0117433
0.0117436
0.0117439
0.0117442
0.0117445
0.0117448
0.0117451
0.0117454
0.0117457
0.011746
0.0117463
0.0117466
0.0117469
0.0117472
0.0117475
0.0117478
0.0117481
0.0117484
0.0117487
0.011749
0.0117493
0.0117496
0.0117499
0.0117502
0.0117505
0.0117508
0.0117511
0.0117513
0.0117516
0.0117519
0.0117522
0.0117525
0.0117528
0.0117531
0.0117533
0.0117536
0.0117539
0.0117542
0.0117545
0.0117548
0.011755
0.0117553
0.0117556
0.0117559
0.0117561
0.0117564
0.0117567
0.011757
0.0117572
0.0117575
0.0117578
0.0117581
0.0117583
0.0117586
0.0117589
0.0117591
0.0117594
0.0117597
0.0117599
0.0117602
0.0117605
0.0117607
0.011761
0.0117613
0.0117615
0.0117618
0.0117621
0.0117623
0.0117626
0.0117628
0.0117631
0.0117634
0.0117636
0.0117639
0.0117641
0.0117644
0.0117647
0.0117649
0.0117652
0.0117654
0.0117657
0.0117659
0.0117662
0.0117664
0.0117667
0.0117669
0.0117672
0.0117674
0.0117677
0.0117679
0.0117682
0.0117684
0.0117687
0.0117689
0.0117692
0.0117694
0.0117697
0.0117699
0.0117701
0.0117704
0.0117706
0.0117709
0.0117711
0.0117713
0.0117716
0.0117718
0.0117721
0.0117723
0.0117725
0.0117728
0.011773
0.0117733
0.0117735
0.0117737
0.011774
0.0117742
0.0117744
0.0117747
0.0117749
0.0117751
0.0117754
0.0117756
0.0117758
0.0117761
0.0117763
0.0117765
0.0117767
0.011777
0.0117772
0.0117774
0.0117777
0.0117779
0.0117781
0.0117783
0.0117786
0.0117788
0.011779
0.0117792
0.0117795
0.0117797
0.0117799
0.0117801
0.0117803
0.0117806
0.0117808
0.011781
0.0117812
0.0117814
0.0117817
0.0117819
0.0117821
0.0117823
0.0117825
0.0117828
0.011783
0.0117832
0.0117834
0.0117836
0.0117838
0.011784
0.0117843
0.0117845
0.0117847
0.0117849
0.0117851
0.0117853
0.0117855
0.0117857
0.0117859
0.0117862
0.0117864
0.0117866
0.0117868
0.011787
0.0117872
0.0117874
0.0117876
0.0117878
0.011788
0.0117882
0.0117884
0.0117886
0.0117888
0.011789
0.0117892
0.0117895
0.0117897
0.0117899
0.0117901
0.0117903
0.0117905
0.0117907
0.0117909
0.0117911
0.0117913
0.0117915
0.0117917
0.0117919
0.0117921
0.0117923
0.0117924
0.0117926
0.0117928
0.011793
0.0117932
0.0117934
0.0117936
0.0117938
0.011794
0.0117942
0.0117944
0.0117946
0.0117948
0.011795
0.0117952
0.0117954
0.0117956
0.0117957
0.0117959
0.0117961
0.0117963
0.0117965
0.0117967
0.0117969
0.0117971
0.0117973
0.0117974
0.0117976
0.0117978
0.011798
0.0117982
0.0117984
0.0117986
0.0117987
0.0117989
0.0117991
0.0117993
0.0117995
0.0117997
0.0117998
0.0118
0.0118002
0.0118004
0.0118006
0.0118008
0.0118009
0.0118011
0.0118013
0.0118015
0.0118017
0.0118018
0.011802
0.0118022
0.0118024
0.0118025
0.0118027
0.0118029
0.0118031
0.0118033
0.0118034
0.0118036
0.0118038
0.011804
0.0118041
0.0118043
0.0118045
0.0118046
0.0118048
0.011805
0.0118052
0.0118053
0.0118055
0.0118057
0.0118059
0.011806
0.0118062
0.0118064
0.0118065
0.0118067
0.0118069
0.011807
0.0118072
0.0118074
0.0118075
0.0118077
0.0118079
0.011808
0.0118082
0.0118084
0.0118085
0.0118087
0.0118089
0.011809
0.0118092
0.0118094
0.0118095
0.0118097
0.0118099
0.01181
0.0118102
0.0118103
0.0118105
0.0118107
0.0118108
0.011811
0.0118112
0.0118113
0.0118115
0.0118116
0.0118118
0.011812
0.0118121
0.0118123
0.0118124
0.0118126
0.0118127
0.0118129
0.0118131
0.0118132
0.0118134
0.0118135
0.0118137
0.0118138
0.011814
0.0118141
0.0118143
0.0118145
0.0118146
0.0118148
0.0118149
0.0118151
0.0118152
0.0118154
0.0118155
0.0118157
0.0118158
0.011816
0.0118161
0.0118163
0.0118164
0.0118166
0.0118167
0.0118169
0.011817
0.0118172
0.0118173
0.0118175
0.0118176
0.0118178
0.0118179
0.0118181
0.0118182
0.0118184
0.0118185
0.0118186
0.0118188
0.0118189
0.0118191
0.0118192
0.0118194
0.0118195
0.0118197
0.0118198
0.0118199
0.0118201
0.0118202
0.0118204
0.0118205
0.0118206
0.0118208
0.0118209
0.0118211
0.0118212
0.0118213
0.0118215
0.0118216
0.0118218
0.0118219
0.011822
0.0118222
0.0118223
0.0118225
0.0118226
0.0118227
0.0118229
0.011823
0.0118231
0.0118233
0.0118234
0.0118235
0.0118237
0.0118238
0.0118239
0.0118241
0.0118242
0.0118243
0.0118245
0.0118246
0.0118247
0.0118249
0.011825
0.0118251
0.0118253
0.0118254
0.0118255
0.0118257
0.0118258
0.0118259
0.0118261
0.0118262
0.0118263
0.0118264
0.0118266
0.0118267
0.0118268
0.011827
0.0118271
0.0118272
0.0118273
0.0118275
0.0118276
0.0118277
0.0118278
0.011828
0.0118281
0.0118282
0.0118283
0.0118285
0.0118286
0.0118287
0.0118288
0.011829
0.0118291
0.0118292
0.0118293
0.0118294
0.0118296
0.0118297
0.0118298
0.0118299
0.01183
0.0118302
0.0118303
0.0118304
0.0118305
0.0118306
0.0118308
0.0118309
0.011831
0.0118311
0.0118312
0.0118313
0.0118315
0.0118316
0.0118317
0.0118318
0.0118319
0.011832
0.0118322
0.0118323
0.0118324
0.0118325
0.0118326
0.0118327
0.0118328
0.011833
0.0118331
0.0118332
0.0118333
0.0118334
0.0118335
0.0118336
0.0118337
0.0118339
0.011834
0.0118341
0.0118342
0.0118343
0.0118344
0.0118345
0.0118346
0.0118347
0.0118348
0.011835
0.0118351
0.0118352
0.0118353
0.0118354
0.0118355
0.0118356
0.0118357
0.0118358
0.0118359
0.011836
0.0118361
0.0118362
0.0118363
0.0118364
0.0118366
0.0118367
0.0118368
0.0118369
0.011837
0.0118371
0.0118372
0.0118373
0.0118374
0.0118375
0.0118376
0.0118377
0.0118378
0.0118379
0.011838
0.0118381
0.0118382
0.0118383
0.0118384
0.0118385
0.0118386
0.0118387
0.0118388
0.0118389
0.011839
0.0118391
0.0118392
0.0118393
0.0118394
0.0118395
0.0118396
0.0118397
0.0118398
0.0118399
0.01184
0.01184
0.0118401
0.0118402
0.0118403
0.0118404
0.0118405
0.0118406
0.0118407
0.0118408
0.0118409
0.011841
0.0118411
0.0118412
0.0118413
0.0118414
0.0118414
0.0118415
0.0118416
0.0118417
0.0118418
0.0118419
0.011842
0.0118421
0.0118422
0.0118423
0.0118423
0.0118424
0.0118425
0.0118426
0.0118427
0.0118428
0.0118429
0.011843
0.0118431
0.0118431
0.0118432
0.0118433
0.0118434
0.0118435
0.0118436
0.0118437
0.0118437
0.0118438
0.0118439
0.011844
0.0118441
0.0118442
0.0118442
0.0118443
0.0118444
0.0118445
0.0118446
0.0118447
0.0118447
0.0118448
0.0118449
0.011845
0.0118451
0.0118451
0.0118452
0.0118453
0.0118454
0.0118455
0.0118455
0.0118456
0.0118457
0.0118458
0.0118459
0.0118459
0.011846
0.0118461
0.0118462
0.0118463
0.0118463
0.0118464
0.0118465
0.0118466
0.0118466
0.0118467
0.0118468
0.0118469
0.0118469
0.011847
0.0118471
0.0118472
0.0118472
0.0118473
0.0118474
0.0118475
0.0118475
0.0118476
0.0118477
0.0118478
0.0118478
0.0118479
0.011848
0.011848
0.0118481
0.0118482
0.0118483
0.0118483
0.0118484
0.0118485
0.0118485
0.0118486
0.0118487
0.0118488
0.0118488
0.0118489
0.011849
0.011849
0.0118491
0.0118492
0.0118492
0.0118493
0.0118494
0.0118494
0.0118495
0.0118496
0.0118496
0.0118497
0.0118498
0.0118498
0.0118499
0.01185
0.01185
0.0118501
0.0118502
0.0118502
0.0118503
0.0118504
0.0118504
0.0118505
0.0118505
0.0118506
0.0118507
0.0118507
0.0118508
0.0118509
0.0118509
0.011851
0.011851
0.0118511
0.0118512
0.0118512
0.0118513
0.0118514
0.0118514
0.0118515
0.0118515
0.0118516
0.0118517
0.0118517
0.0118518
0.0118518
0.0118519
0.0118519
0.011852
0.0118521
0.0118521
0.0118522
0.0118522
0.0118523
0.0118523
0.0118524
0.0118525
0.0118525
0.0118526
0.0118526
0.0118527
0.0118527
0.0118528
0.0118528
0.0118529
0.011853
0.011853
0.0118531
0.0118531
0.0118532
0.0118532
0.0118533
0.0118533
0.0118534
0.0118534
0.0118535
0.0118535
0.0118536
0.0118536
0.0118537
0.0118537
0.0118538
0.0118539
0.0118539
0.011854
0.011854
0.0118541
0.0118541
0.0118542
0.0118542
0.0118543
0.0118543
0.0118543
0.0118544
0.0118544
0.0118545
0.0118545
0.0118546
0.0118546
0.0118547
0.0118547
0.0118548
0.0118548
0.0118549
0.0118549
0.011855
0.011855
0.0118551
0.0118551
0.0118551
0.0118552
0.0118552
0.0118553
0.0118553
0.0118554
0.0118554
0.0118555
0.0118555
0.0118555
0.0118556
0.0118556
0.0118557
0.0118557
0.0118558
0.0118558
0.0118558
0.0118559
0.0118559
0.011856
0.011856
0.011856
0.0118561
0.0118561
0.0118562
0.0118562
0.0118562
0.0118563
0.0118563
0.0118564
0.0118564
0.0118564
0.0118565
0.0118565
0.0118566
0.0118566
0.0118566
0.0118567
0.0118567
0.0118568
0.0118568
0.0118568
0.0118569
0.0118569
0.0118569
0.011857
0.011857
0.011857
0.0118571
0.0118571
0.0118571
0.0118572
0.0118572
0.0118573
0.0118573
0.0118573
0.0118574
0.0118574
0.0118574
0.0118575
0.0118575
0.0118575
0.0118576
0.0118576
0.0118576
0.0118577
0.0118577
0.0118577
0.0118577
0.0118578
0.0118578
0.0118578
0.0118579
0.0118579
0.0118579
0.011858
0.011858
0.011858
0.0118581
0.0118581
0.0118581
0.0118581
0.0118582
0.0118582
0.0118582
0.0118583
0.0118583
0.0118583
0.0118583
0.0118584
0.0118584
0.0118584
0.0118585
0.0118585
0.0118585
0.0118585
0.0118586
0.0118586
0.0118586
0.0118586
0.0118587
0.0118587
0.0118587
0.0118587
0.0118588
0.0118588
0.0118588
0.0118588
0.0118589
0.0118589
0.0118589
0.0118589
0.011859
0.011859
0.011859
0.011859
0.011859
0.0118591
0.0118591
0.0118591
0.0118591
0.0118592
0.0118592
0.0118592
0.0118592
0.0118592
0.0118593
0.0118593
0.0118593
0.0118593
0.0118593
0.0118594
0.0118594
0.0118594
0.0118594
0.0118594
0.0118595
0.0118595
0.0118595
0.0118595
0.0118595
0.0118596
0.0118596
0.0118596
0.0118596
0.0118596
0.0118596
0.0118597
0.0118597
0.0118597
0.0118597
0.0118597
0.0118597
0.0118598
0.0118598
0.0118598
0.0118598
0.0118598
0.0118598
0.0118599
0.0118599
0.0118599
0.0118599
0.0118599
0.0118599
0.0118599
0.01186
0.01186
0.01186
0.01186
0.01186
0.01186
0.01186
0.01186
0.0118601
0.0118601
0.0118601
0.0118601
0.0118601
0.0118601
0.0118601
0.0118601
0.0118602
0.0118602
0.0118602
0.0118602
0.0118602
0.0118602
0.0118602
0.0118602
0.0118602
0.0118602
0.0118603
0.0118603
0.0118603
0.0118603
0.0118603
0.0118603
0.0118603
0.0118603
0.0118603
0.0118603
0.0118603
0.0118603
0.0118604
0.0118604
0.0118604
0.0118604
0.0118604
0.0118604
0.0118604
0.0118604
0.0118604
0.0118604
0.0118604
0.0118604
0.0118604
0.0118604
0.0118604
0.0118604
0.0118604
0.0118604
0.0118605
0.0118605
0.0118605
0.0118605
0.0118605
0.0118605
0.0118605
0.0118605
0.0118605
0.0118605
0.0118605
0.0118605
0.0118605
0.0118605
0.0118605
0.0118605
0.0118605
0.0118605
0.0118605
0.0118605
0.0118605
0.0118605
0.0118605
0.0118605
0.0118605
0.0118605
0.0118605
0.0118605
0.0118605
0.0118605
0.0118605
0.0118605
0.0118605
0.0118605
0.0118605
0.0118605
0.0118605
0.0118605
0.0118605
0.0118605
0.0118605
0.0118605
0.0118605
0.0118605
0.0118605
0.0118605
0.0118605
0.0118605
0.0118605
0.0118605
0.0118605
0.0118605
0.0118605
0.0118604
0.0118604
0.0118604
0.0118604
0.0118604
0.0118604
0.0118604
0.0118604
0.0118604
0.0118604
0.0118604
0.0118604
0.0118604
0.0118604
0.0118604
0.0118604
0.0118604
0.0118604
0.0118603
0.0118603
0.0118603
0.0118603
0.0118603
0.0118603
0.0118603
0.0118603
0.0118603
0.0118603
0.0118603
0.0118603
0.0118602
0.0118602
0.0118602
0.0118602
0.0118602
0.0118602
0.0118602
0.0118602
0.0118602
0.0118602
0.0118602
0.0118601
0.0118601
0.0118601
0.0118601
0.0118601
0.0118601
0.0118601
0.0118601
0.0118601
0.01186
0.01186
0.01186
0.01186
0.01186
0.01186
0.01186
0.01186
0.0118599
0.0118599
0.0118599
0.0118599
0.0118599
0.0118599
0.0118599
0.0118598
0.0118598
0.0118598
0.0118598
0.0118598
0.0118598
0.0118598
0.0118597
0.0118597
0.0118597
0.0118597
0.0118597
0.0118597
0.0118596
0.0118596
0.0118596
0.0118596
0.0118596
0.0118596
0.0118595
0.0118595
0.0118595
0.0118595
0.0118595
0.0118595
0.0118594
0.0118594
0.0118594
0.0118594
0.0118594
0.0118594
0.0118593
0.0118593
0.0118593
0.0118593
0.0118593
0.0118592
0.0118592
0.0118592
0.0118592
0.0118592
0.0118591
0.0118591
0.0118591
0.0118591
0.0118591
0.011859
0.011859
0.011859
0.011859
0.011859
0.0118589
0.0118589
0.0118589
0.0118589
0.0118588
0.0118588
0.0118588
0.0118588
0.0118588
0.0118587
0.0118587
0.0118587
0.0118587
0.0118586
0.0118586
0.0118586
0.0118586
0.0118585
0.0118585
0.0118585
0.0118585
0.0118584
0.0118584
0.0118584
0.0118584
0.0118583
0.0118583
0.0118583
0.0118583
0.0118582
0.0118582
0.0118582
0.0118582
0.0118581
0.0118581
0.0118581
0.0118581
0.011858
0.011858
0.011858
0.011858
0.0118579
0.0118579
0.0118579
0.0118579
0.0118578
0.0118578
0.0118578
0.0118577
0.0118577
0.0118577
0.0118577
0.0118576
0.0118576
0.0118576
0.0118575
0.0118575
0.0118575
0.0118575
0.0118574
0.0118574
0.0118574
0.0118573
0.0118573
0.0118573
0.0118572
0.0118572
0.0118572
0.0118572
0.0118571
0.0118571
0.0118571
0.011857
0.011857
0.011857
0.0118569
0.0118569
0.0118569
0.0118568
0.0118568
0.0118568
0.0118567
0.0118567
0.0118567
0.0118566
0.0118566
0.0118566
0.0118565
0.0118565
0.0118565
0.0118564
0.0118564
0.0118564
0.0118563
0.0118563
0.0118563
0.0118562
0.0118562
0.0118562
0.0118561
0.0118561
0.0118561
0.011856
0.011856
0.011856
0.0118559
0.0118559
0.0118559
0.0118558
0.0118558
0.0118558
0.0118557
0.0118557
0.0118556
0.0118556
0.0118556
0.0118555
0.0118555
0.0118555
0.0118554
0.0118554
0.0118553
0.0118553
0.0118553
0.0118552
0.0118552
0.0118552
0.0118551
0.0118551
0.011855
0.011855
0.011855
0.0118549
0.0118549
0.0118548
0.0118548
0.0118548
0.0118547
0.0118547
0.0118547
0.0118546
0.0118546
0.0118545
0.0118545
0.0118545
0.0118544
0.0118544
0.0118543
0.0118543
0.0118543
0.0118542
0.0118542
0.0118541
0.0118541
0.011854
0.011854
0.011854
0.0118539
0.0118539
0.0118538
0.0118538
0.0118538
0.0118537
0.0118537
0.0118536
0.0118536
0.0118535
0.0118535
0.0118535
0.0118534
0.0118534
0.0118533
0.0118533
0.0118532
0.0118532
0.0118531
0.0118531
0.0118531
0.011853
0.011853
0.0118529
0.0118529
0.0118528
0.0118528
0.0118527
0.0118527
0.0118527
0.0118526
0.0118526
0.0118525
0.0118525
0.0118524
0.0118524
0.0118523
0.0118523
0.0118522
0.0118522
0.0118522
0.0118521
0.0118521
0.011852
0.011852
0.0118519
0.0118519
0.0118518
0.0118518
0.0118517
0.0118517
0.0118516
0.0118516
0.0118515
0.0118515
0.0118514
0.0118514
0.0118513
0.0118513
0.0118513
0.0118512
0.0118512
0.0118511
0.0118511
0.011851
0.011851
0.0118509
0.0118509
0.0118508
0.0118508
0.0118507
0.0118507
0.0118506
0.0118506
0.0118505
0.0118505
0.0118504
0.0118504
0.0118503
0.0118503
0.0118502
0.0118502
0.0118501
0.0118501
0.01185
0.0118499
0.0118499
0.0118498
0.0118498
0.0118497
0.0118497
0.0118496
0.0118496
0.0118495
0.0118495
0.0118494
0.0118494
0.0118493
0.0118493
0.0118492
0.0118492
0.0118491
0.0118491
0.011849
0.011849
0.0118489
0.0118488
0.0118488
0.0118487
0.0118487
0.0118486
0.0118486
0.0118485
0.0118485
0.0118484
0.0118484
0.0118483
0.0118482
0.0118482
0.0118481
0.0118481
0.011848
0.011848
0.0118479
0.0118479
0.0118478
0.0118477
0.0118477
0.0118476
0.0118476
0.0118475
0.0118475
0.0118474
0.0118474
0.0118473
0.0118472
0.0118472
0.0118471
0.0118471
0.011847
0.011847
0.0118469
0.0118468
0.0118468
0.0118467
0.0118467
0.0118466
0.0118465
0.0118465
0.0118464
0.0118464
0.0118463
0.0118463
0.0118462
0.0118461
0.0118461
0.011846
0.011846
0.0118459
0.0118458
0.0118458
0.0118457
0.0118457
0.0118456
0.0118455
0.0118455
0.0118454
0.0118454
0.0118453
0.0118452
0.0118452
0.0118451
0.0118451
0.011845
0.0118449
0.0118449
0.0118448
0.0118448
0.0118447
0.0118446
0.0118446
0.0118445
0.0118445
0.0118444
0.0118443
0.0118443
0.0118442
0.0118441
0.0118441
0.011844
0.011844
0.0118439
0.0118438
0.0118438
0.0118437
0.0118436
0.0118436
0.0118435
0.0118435
0.0118434
0.0118433
0.0118433
0.0118432
0.0118431
0.0118431
0.011843
0.0118429
0.0118429
0.0118428
0.0118428
0.0118427
0.0118426
0.0118426
0.0118425
0.0118424
0.0118424
0.0118423
0.0118422
0.0118422
0.0118421
0.011842
0.011842
0.0118419
0.0118418
0.0118418
0.0118417
0.0118417
0.0118416
0.0118415
0.0118415
0.0118414
0.0118413
0.0118413
0.0118412
0.0118411
0.0118411
0.011841
0.0118409
0.0118409
0.0118408
0.0118407
0.0118407
0.0118406
0.0118405
0.0118405
0.0118404
0.0118403
0.0118402
0.0118402
0.0118401
0.01184
0.01184
0.0118399
0.0118398
0.0118398
0.0118397
0.0118396
0.0118396
0.0118395
0.0118394
0.0118394
0.0118393
0.0118392
0.0118392
0.0118391
0.011839
0.0118389
0.0118389
0.0118388
0.0118387
0.0118387
0.0118386
0.0118385
0.0118385
0.0118384
0.0118383
0.0118382
0.0118382
0.0118381
0.011838
0.011838
0.0118379
0.0118378
0.0118377
0.0118377
0.0118376
0.0118375
0.0118375
0.0118374
0.0118373
0.0118373
0.0118372
0.0118371
0.011837
0.011837
0.0118369
0.0118368
0.0118367
0.0118367
0.0118366
0.0118365
0.0118365
0.0118364
0.0118363
0.0118362
0.0118362
0.0118361
0.011836
0.0118359
0.0118359
0.0118358
0.0118357
0.0118357
0.0118356
0.0118355
0.0118354
0.0118354
0.0118353
0.0118352
0.0118351
0.0118351
0.011835
0.0118349
0.0118348
0.0118348
0.0118347
0.0118346
0.0118345
0.0118345
0.0118344
0.0118343
0.0118342
0.0118342
0.0118341
0.011834
0.0118339
0.0118339
0.0118338
0.0118337
0.0118336
0.0118336
0.0118335
0.0118334
0.0118333
0.0118333
0.0118332
0.0118331
0.011833
0.0118329
0.0118329
0.0118328
0.0118327
0.0118326
0.0118326
0.0118325
0.0118324
0.0118323
0.0118323
0.0118322
0.0118321
0.011832
0.0118319
0.0118319
0.0118318
0.0118317
0.0118316
0.0118316
0.0118315
0.0118314
0.0118313
0.0118312
0.0118312
0.0118311
0.011831
0.0118309
0.0118309
0.0118308
0.0118307
0.0118306
0.0118305
0.0118305
0.0118304
0.0118303
0.0118302
0.0118301
0.0118301
0.01183
0.0118299
0.0118298
0.0118297
0.0118297
0.0118296
0.0118295
0.0118294
0.0118293
0.0118293
0.0118292
0.0118291
0.011829
0.0118289
0.0118289
0.0118288
0.0118287
0.0118286
0.0118285
0.0118285
0.0118284
0.0118283
0.0118282
0.0118281
0.011828
0.011828
0.0118279
0.0118278
0.0118277
0.0118276
0.0118276
0.0118275
0.0118274
0.0118273
0.0118272
0.0118271
0.0118271
0.011827
0.0118269
0.0118268
0.0118267
0.0118266
0.0118266
0.0118265
0.0118264
0.0118263
0.0118262
0.0118261
0.0118261
0.011826
0.0118259
0.0118258
0.0118257
0.0118256
0.0118256
0.0118255
0.0118254
0.0118253
0.0118252
0.0118251
0.0118251
0.011825
0.0118249
0.0118248
0.0118247
0.0118246
0.0118246
0.0118245
0.0118244
0.0118243
0.0118242
0.0118241
0.011824
0.011824
0.0118239
0.0118238
0.0118237
0.0118236
0.0118235
0.0118235
0.0118234
0.0118233
0.0118232
0.0118231
0.011823
0.0118229
0.0118229
0.0118228
0.0118227
0.0118226
0.0118225
0.0118224
0.0118223
0.0118223
0.0118222
0.0118221
0.011822
0.0118219
0.0118218
0.0118218
0.0118217
0.0118216
0.0118215
0.0118214
0.0118213
0.0118212
0.0118212
0.0118211
0.011821
0.0118209
0.0118208
0.0118207
0.0118206
0.0118206
0.0118205
0.0118204
0.0118203
0.0118202
0.0118201
0.01182
0.01182
0.0118199
0.0118198
0.0118197
0.0118196
0.0118195
0.0118194
0.0118193
0.0118193
0.0118192
0.0118191
0.011819
0.0118189
0.0118188
0.0118187
0.0118187
0.0118186
0.0118185
0.0118184
0.0118183
0.0118182
0.0118181
0.011818
0.011818
0.0118179
0.0118178
0.0118177
0.0118176
0.0118175
0.0118174
0.0118174
0.0118173
0.0118172
0.0118171
0.011817
0.0118169
0.0118168
0.0118167
0.0118167
0.0118166
0.0118165
0.0118164
0.0118163
0.0118162
0.0118161
0.011816
0.011816
0.0118159
0.0118158
0.0118157
0.0118156
0.0118155
0.0118154
0.0118153
0.0118153
0.0118152
0.0118151
0.011815
0.0118149
0.0118148
0.0118147
0.0118146
0.0118146
0.0118145
0.0118144
0.0118143
0.0118142
0.0118141
0.011814
0.0118139
0.0118138
0.0118138
0.0118137
0.0118136
0.0118135
0.0118134
0.0118133
0.0118132
0.0118131
0.0118131
0.011813
0.0118129
0.0118128
0.0118127
0.0118126
0.0118125
0.0118124
0.0118123
0.0118123
0.0118122
0.0118121
0.011812
0.0118119
0.0118118
0.0118117
0.0118116
0.0118115
0.0118115
0.0118114
0.0118113
0.0118112
0.0118111
0.011811
0.0118109
0.0118108
0.0118107
0.0118106
0.0118106
0.0118105
0.0118104
0.0118103
0.0118102
0.0118101
0.01181
0.0118099
0.0118098
0.0118098
0.0118097
0.0118096
0.0118095
0.0118094
0.0118093
0.0118092
0.0118091
0.011809
0.0118089
0.0118088
0.0118088
0.0118087
0.0118086
0.0118085
0.0118084
0.0118083
0.0118082
0.0118081
0.011808
0.0118079
0.0118079
0.0118078
0.0118077
0.0118076
0.0118075
0.0118074
0.0118073
0.0118072
0.0118071
0.011807
0.0118069
0.0118069
0.0118068
0.0118067
0.0118066
0.0118065
0.0118064
0.0118063
0.0118062
0.0118061
0.011806
0.0118059
0.0118058
0.0118058
0.0118057
0.0118056
0.0118055
0.0118054
0.0118053
0.0118052
0.0118051
0.011805
0.0118049
0.0118048
0.0118047
0.0118046
0.0118046
0.0118045
0.0118044
0.0118043
0.0118042
0.0118041
0.011804
0.0118039
0.0118038
0.0118037
0.0118036
0.0118035
0.0118034
0.0118033
0.0118033
0.0118032
0.0118031
0.011803
0.0118029
0.0118028
0.0118027
0.0118026
0.0118025
0.0118024
0.0118023
0.0118022
0.0118021
0.011802
0.0118019
0.0118019
0.0118018
0.0118017
0.0118016
0.0118015
0.0118014
0.0118013
0.0118012
0.0118011
0.011801
0.0118009
0.0118008
0.0118007
0.0118006
0.0118005
0.0118004
0.0118003
0.0118003
0.0118002
0.0118001
0.0118
0.0117999
0.0117998
0.0117997
0.0117996
0.0117995
0.0117994
0.0117993
0.0117992
0.0117991
0.011799
0.0117989
0.0117988
0.0117987
0.0117986
0.0117985
0.0117985
0.0117984
0.0117983
0.0117982
0.0117981
0.011798
0.0117979
0.0117978
0.0117977
0.0117976
0.0117975
0.0117974
0.0117973
0.0117972
0.0117971
0.011797
0.0117969
0.0117968
0.0117967
0.0117966
0.0117965
0.0117964
0.0117963
0.0117962
0.0117961
0.0117961
0.011796
0.0117959
0.0117958
0.0117957
0.0117956
0.0117955
0.0117954
0.0117953
0.0117952
0.0117951
0.011795
0.0117949
0.0117948
0.0117947
0.0117946
0.0117945
0.0117944
0.0117943
0.0117942
0.0117941
0.011794
0.0117939
0.0117938
0.0117937
0.0117936
0.0117935
0.0117934
0.0117933
0.0117932
0.0117931
0.011793
0.0117929
0.0117928
0.0117927
0.0117926
0.0117925
0.0117924
0.0117924
0.0117923
0.0117922
0.0117921
0.011792
0.0117919
0.0117918
0.0117917
0.0117916
0.0117915
0.0117914
0.0117913
0.0117912
0.0117911
0.011791
0.0117909
0.0117908
0.0117907
0.0117906
0.0117905
0.0117904
0.0117903
0.0117902
0.0117901
0.01179
0.0117899
0.0117898
0.0117897
0.0117896
0.0117895
0.0117894
0.0117893
0.0117892
0.0117891
0.011789
0.0117889
0.0117888
0.0117887
0.0117886
0.0117885
0.0117884
0.0117883
0.0117882
0.0117881
0.011788
0.0117879
0.0117878
0.0117877
0.0117876
0.0117875
0.0117874
0.0117873
0.0117872
0.0117871
0.011787
0.0117869
0.0117868
0.0117867
0.0117866
0.0117865
0.0117864
0.0117863
0.0117862
0.0117861
0.011786
0.0117859
0.0117858
0.0117857
0.0117856
0.0117855
0.0117854
0.0117853
0.0117852
0.0117851
0.011785
0.0117849
0.0117848
0.0117847
0.0117846
0.0117845
0.0117844
0.0117843
0.0117842
0.0117841
0.011784
0.0117838
0.0117837
0.0117836
0.0117835
0.0117834
0.0117833
0.0117832
0.0117831
0.011783
0.0117829
0.0117828
0.0117827
0.0117826
0.0117825
0.0117824
0.0117823
0.0117822
0.0117821
0.011782
0.0117819
0.0117818
0.0117817
0.0117816
0.0117815
0.0117814
0.0117813
0.0117812
0.0117811
0.011781
0.0117809
0.0117808
0.0117807
0.0117806
0.0117805
0.0117804
0.0117803
0.0117802
0.0117801
0.01178
0.0117799
0.0117798
0.0117796
0.0117795
0.0117794
0.0117793
0.0117792
0.0117791
0.011779
0.0117789
0.0117788
0.0117787
0.0117786
0.0117785
0.0117784
0.0117783
0.0117782
0.0117781
0.011778
0.0117779
0.0117778
0.0117777
0.0117776
0.0117775
0.0117774
0.0117773
0.0117772
0.0117771
0.011777
0.0117768
0.0117767
0.0117766
0.0117765
0.0117764
0.0117763
0.0117762
0.0117761
0.011776
0.0117759
0.0117758
0.0117757
0.0117756
0.0117755
0.0117754
0.0117753
0.0117752
0.0117751
0.011775
0.0117749
0.0117748
0.0117747
0.0117745
0.0117744
0.0117743
0.0117742
0.0117741
0.011774
0.0117739
0.0117738
0.0117737
0.0117736
0.0117735
0.0117734
0.0117733
0.0117732
0.0117731
0.011773
0.0117729
0.0117728
0.0117727
0.0117725
0.0117724
0.0117723
0.0117722
0.0117721
0.011772
0.0117719
0.0117718
0.0117717
0.0117716
0.0117715
0.0117714
0.0117713
0.0117712
0.0117711
0.011771
0.0117709
0.0117707
0.0117706
0.0117705
0.0117704
0.0117703
0.0117702
0.0117701
0.01177
0.0117699
0.0117698
0.0117697
0.0117696
0.0117695
0.0117694
0.0117693
0.0117692
0.011769
0.0117689
0.0117688
0.0117687
0.0117686
0.0117685
0.0117684
0.0117683
0.0117682
0.0117681
0.011768
0.0117679
0.0117678
0.0117677
0.0117676
0.0117674
0.0117673
0.0117672
0.0117671
0.011767
0.0117669
0.0117668
0.0117667
0.0117666
0.0117665
0.0117664
0.0117663
0.0117662
0.0117661
0.0117659
0.0117658
0.0117657
0.0117656
0.0117655
0.0117654
0.0117653
0.0117652
0.0117651
0.011765
0.0117649
0.0117648
0.0117647
0.0117645
0.0117644
0.0117643
0.0117642
0.0117641
0.011764
0.0117639
0.0117638
0.0117637
0.0117636
0.0117635
0.0117634
0.0117633
0.0117631
0.011763
0.0117629
0.0117628
0.0117627
0.0117626
0.0117625
0.0117624
0.0117623
0.0117622
0.0117621
0.011762
0.0117618
0.0117617
0.0117616
0.0117615
0.0117614
0.0117613
0.0117612
0.0117611
0.011761
0.0117609
0.0117608
0.0117607
0.0117605
0.0117604
0.0117603
0.0117602
0.0117601
0.01176
0.0117599
0.0117598
0.0117597
0.0117596
0.0117595
0.0117593
0.0117592
0.0117591
0.011759
0.0117589
0.0117588
0.0117587
0.0117586
0.0117585
0.0117584
0.0117583
0.0117581
0.011758
0.0117579
0.0117578
0.0117577
0.0117576
0.0117575
0.0117574
0.0117573
0.0117572
0.0117571
0.0117569
0.0117568
0.0117567
0.0117566
0.0117565
0.0117564
0.0117563
0.0117562
0.0117561
0.011756
0.0117558
0.0117557
0.0117556
0.0117555
0.0117554
0.0117553
0.0117552
0.0117551
0.011755
0.0117549
0.0117547
0.0117546
0.0117545
0.0117544
0.0117543
0.0117542
0.0117541
0.011754
0.0117539
0.0117538
0.0117536
0.0117535
0.0117534
0.0117533
0.0117532
0.0117531
0.011753
0.0117529
0.0117528
0.0117527
0.0117525
0.0117524
0.0117523
0.0117522
0.0117521
0.011752
0.0117519
0.0117518
0.0117517
0.0117515
0.0117514
0.0117513
0.0117512
0.0117511
0.011751
0.0117509
0.0117508
0.0117507
0.0117505
0.0117504
0.0117503
0.0117502
0.0117501
0.01175
0.0117499
0.0117498
0.0117497
0.0117495
0.0117494
0.0117493
0.0117492
0.0117491
0.011749
0.0117489
0.0117488
0.0117487
0.0117485
0.0117484
0.0117483
0.0117482
0.0117481
0.011748
0.0117479
0.0117478
0.0117477
0.0117475
0.0117474
0.0117473
0.0117472
0.0117471
0.011747
0.0117469
0.0117468
0.0117467
0.0117465
0.0117464
0.0117463
0.0117462
0.0117461
0.011746
0.0117459
0.0117458
0.0117456
0.0117455
0.0117454
0.0117453
0.0117452
0.0117451
0.011745
0.0117449
0.0117448
0.0117446
0.0117445
0.0117444
0.0117443
0.0117442
0.0117441
0.011744
0.0117439
0.0117437
0.0117436
0.0117435
0.0117434
0.0117433
0.0117432
0.0117431
0.011743
0.0117428
0.0117427
0.0117426
0.0117425
0.0117424
0.0117423
0.0117422
0.0117421
0.0117419
0.0117418
0.0117417
0.0117416
0.0117415
0.0117414
0.0117413
0.0117412
0.011741
0.0117409
0.0117408
0.0117407
0.0117406
0.0117405
0.0117404
0.0117403
0.0117401
0.01174
0.0117399
0.0117398
0.0117397
0.0117396
0.0117395
0.0117394
0.0117392
0.0117391
0.011739
0.0117389
0.0117388
0.0117387
0.0117386
0.0117385
0.0117383
0.0117382
0.0117381
0.011738
0.0117379
0.0117378
0.0117377
0.0117375
0.0117374
0.0117373
0.0117372
0.0117371
0.011737
0.0117369
0.0117368
0.0117366
0.0117365
0.0117364
0.0117363
0.0117362
0.0117361
0.011736
0.0117358
0.0117357
0.0117356
0.0117355
0.0117354
0.0117353
0.0117352
0.0117351
0.0117349
0.0117348
0.0117347
0.0117346
0.0117345
0.0117344
0.0117343
0.0117341
0.011734
0.0117339
0.0117338
0.0117337
0.0117336
0.0117335
0.0117334
0.0117332
0.0117331
0.011733
0.0117329
0.0117328
0.0117327
0.0117326
0.0117324
0.0117323
0.0117322
0.0117321
0.011732
0.0117319
0.0117318
0.0117316
0.0117315
0.0117314
0.0117313
0.0117312
0.0117311
0.011731
0.0117308
0.0117307
0.0117306
0.0117305
0.0117304
0.0117303
0.0117302
0.01173
0.0117299
0.0117298
0.0117297
0.0117296
0.0117295
0.0117294
0.0117292
0.0117291
0.011729
0.0117289
0.0117288
0.0117287
0.0117286
0.0117284
0.0117283
0.0117282
0.0117281
0.011728
0.0117279
0.0117278
0.0117276
0.0117275
0.0117274
0.0117273
0.0117272
0.0117271
0.011727
0.0117268
0.0117267
0.0117266
0.0117265
0.0117264
0.0117263
0.0117262
0.011726
0.0117259
0.0117258
0.0117257
0.0117256
0.0117255
0.0117254
0.0117252
0.0117251
0.011725
0.0117249
0.0117248
0.0117247
0.0117245
0.0117244
0.0117243
0.0117242
0.0117241
0.011724
0.0117239
0.0117237
0.0117236
0.0117235
0.0117234
0.0117233
0.0117232
0.0117231
0.0117229
0.0117228
0.0117227
0.0117226
0.0117225
0.0117224
0.0117223
0.0117221
0.011722
0.0117219
0.0117218
0.0117217
0.0117216
0.0117214
0.0117213
0.0117212
0.0117211
0.011721
0.0117209
0.0117208
0.0117206
0.0117205
0.0117204
0.0117203
0.0117202
0.0117201
0.0117199
0.0117198
0.0117197
0.0117196
0.0117195
0.0117194
0.0117193
0.0117191
0.011719
0.0117189
0.0117188
0.0117187
0.0117186
0.0117184
0.0117183
0.0117182
0.0117181
0.011718
0.0117179
0.0117178
0.0117176
0.0117175
0.0117174
0.0117173
0.0117172
0.0117171
0.0117169
0.0117168
0.0117167
0.0117166
0.0117165
0.0117164
0.0117163
0.0117161
0.011716
0.0117159
0.0117158
0.0117157
0.0117156
0.0117154
0.0117153
0.0117152
0.0117151
0.011715
0.0117149
0.0117147
0.0117146
0.0117145
0.0117144
0.0117143
0.0117142
0.0117141
0.0117139
0.0117138
0.0117137
0.0117136
0.0117135
0.0117134
0.0117132
0.0117131
0.011713
0.0117129
0.0117128
0.0117127
0.0117125
0.0117124
0.0117123
0.0117122
0.0117121
0.011712
0.0117119
0.0117117
0.0117116
0.0117115
0.0117114
0.0117113
0.0117112
0.011711
0.0117109
0.0117108
0.0117107
0.0117106
0.0117105
0.0117103
0.0117102
0.0117101
0.01171
0.0117099
0.0117098
0.0117096
0.0117095
0.0117094
0.0117093
0.0117092
0.0117091
0.0117089
0.0117088
0.0117087
0.0117086
0.0117085
0.0117084
0.0117083
0.0117081
0.011708
0.0117079
0.0117078
0.0117077
0.0117076
0.0117074
0.0117073
0.0117072
0.0117071
0.011707
0.0117069
0.0117067
0.0117066
0.0117065
0.0117064
0.0117063
0.0117062
0.011706
0.0117059
0.0117058
0.0117057
0.0117056
0.0117055
0.0117053
0.0117052
0.0117051
0.011705
0.0117049
0.0117048
0.0117046
0.0117045
0.0117044
0.0117043
0.0117042
0.0117041
0.0117039
0.0117038
0.0117037
0.0117036
0.0117035
0.0117034
0.0117032
0.0117031
0.011703
0.0117029
0.0117028
0.0117027
0.0117025
0.0117024
0.0117023
0.0117022
0.0117021
0.011702
0.0117018
0.0117017
0.0117016
0.0117015
0.0117014
0.0117013
0.0117011
0.011701
0.0117009
0.0117008
0.0117007
0.0117006
0.0117004
0.0117003
0.0117002
0.0117001
0.0117
0.0116999
0.0116997
0.0116996
0.0116995
0.0116994
0.0116993
0.0116992
0.011699
0.0116989
0.0116988
0.0116987
0.0116986
0.0116985
0.0116983
0.0116982
0.0116981
0.011698
0.0116979
0.0116978
0.0116976
0.0116975
0.0116974
0.0116973
0.0116972
0.0116971
0.0116969
0.0116968
0.0116967
0.0116966
0.0116965
0.0116964
0.0116962
0.0116961
0.011696
0.0116959
0.0116958
0.0116957
0.0116955
0.0116954
0.0116953
0.0116952
0.0116951
0.011695
0.0116948
0.0116947
0.0116946
0.0116945
0.0116944
0.0116943
0.0116941
0.011694
0.0116939
0.0116938
0.0116937
0.0116936
0.0116934
0.0116933
0.0116932
0.0116931
0.011693
0.0116929
0.0116927
0.0116926
0.0116925
0.0116924
0.0116923
0.0116922
0.011692
0.0116919
0.0116918
0.0116917
0.0116916
0.0116914
0.0116913
0.0116912
0.0116911
0.011691
0.0116909
0.0116907
0.0116906
0.0116905
0.0116904
0.0116903
0.0116902
0.01169
0.0116899
0.0116898
0.0116897
0.0116896
0.0116895
0.0116893
0.0116892
0.0116891
0.011689
0.0116889
0.0116888
0.0116886
0.0116885
0.0116884
0.0116883
0.0116882
0.0116881
0.0116879
0.0116878
0.0116877
0.0116876
0.0116875
0.0116874
0.0116872
0.0116871
0.011687
0.0116869
0.0116868
0.0116867
0.0116865
0.0116864
0.0116863
0.0116862
0.0116861
0.0116859
0.0116858
0.0116857
0.0116856
0.0116855
0.0116854
0.0116852
0.0116851
0.011685
0.0116849
0.0116848
0.0116847
0.0116845
0.0116844
0.0116843
0.0116842
0.0116841
0.011684
0.0116838
0.0116837
0.0116836
0.0116835
0.0116834
0.0116833
0.0116831
0.011683
0.0116829
0.0116828
0.0116827
0.0116826
0.0116824
0.0116823
0.0116822
0.0116821
0.011682
0.0116818
0.0116817
0.0116816
0.0116815
0.0116814
0.0116813
0.0116811
0.011681
0.0116809
0.0116808
0.0116807
0.0116806
0.0116804
0.0116803
0.0116802
0.0116801
0.01168
0.0116799
0.0116797
0.0116796
0.0116795
0.0116794
0.0116793
0.0116792
0.011679
0.0116789
0.0116788
0.0116787
0.0116786
0.0116785
0.0116783
0.0116782
0.0116781
0.011678
0.0116779
0.0116777
0.0116776
0.0116775
0.0116774
0.0116773
0.0116772
0.011677
0.0116769
0.0116768
0.0116767
0.0116766
0.0116765
0.0116763
0.0116762
0.0116761
0.011676
0.0116759
0.0116758
0.0116756
0.0116755
0.0116754
0.0116753
0.0116752
0.0116751
0.0116749
0.0116748
0.0116747
0.0116746
0.0116745
0.0116744
0.0116742
0.0116741
0.011674
0.0116739
0.0116738
0.0116737
0.0116735
0.0116734
0.0116733
0.0116732
0.0116731
0.0116729
0.0116728
0.0116727
0.0116726
0.0116725
0.0116724
0.0116722
0.0116721
0.011672
0.0116719
0.0116718
0.0116717
0.0116715
0.0116714
0.0116713
0.0116712
0.0116711
0.011671
0.0116708
0.0116707
0.0116706
0.0116705
0.0116704
0.0116703
0.0116701
0.01167
0.0116699
0.0116698
0.0116697
0.0116696
0.0116694
0.0116693
0.0116692
0.0116691
0.011669
0.0116689
0.0116687
0.0116686
0.0116685
0.0116684
0.0116683
0.0116681
0.011668
0.0116679
0.0116678
0.0116677
0.0116676
0.0116674
0.0116673
0.0116672
0.0116671
0.011667
0.0116669
0.0116667
0.0116666
0.0116665
0.0116664
0.0116663
0.0116662
0.011666
0.0116659
0.0116658
0.0116657
0.0116656
0.0116655
0.0116653
0.0116652
0.0116651
0.011665
0.0116649
0.0116648
0.0116646
0.0116645
0.0116644
0.0116643
0.0116642
0.0116641
0.0116639
0.0116638
0.0116637
0.0116636
0.0116635
0.0116634
0.0116632
0.0116631
0.011663
0.0116629
0.0116628
0.0116627
0.0116625
0.0116624
0.0116623
0.0116622
0.0116621
0.011662
0.0116618
0.0116617
0.0116616
0.0116615
0.0116614
0.0116613
0.0116611
0.011661
0.0116609
0.0116608
0.0116607
0.0116606
0.0116604
0.0116603
0.0116602
0.0116601
0.01166
0.0116599
0.0116597
0.0116596
0.0116595
0.0116594
0.0116593
0.0116592
0.011659
0.0116589
0.0116588
0.0116587
0.0116586
0.0116585
0.0116583
0.0116582
0.0116581
0.011658
0.0116579
0.0116578
0.0116576
0.0116575
0.0116574
0.0116573
0.0116572
0.0116571
0.0116569
0.0116568
0.0116567
0.0116566
0.0116565
0.0116564
0.0116562
0.0116561
0.011656
0.0116559
0.0116558
0.0116557
0.0116555
0.0116554
0.0116553
0.0116552
0.0116551
0.011655
0.0116548
0.0116547
0.0116546
0.0116545
0.0116544
0.0116543
0.0116541
0.011654
0.0116539
0.0116538
0.0116537
0.0116536
0.0116534
0.0116533
0.0116532
0.0116531
0.011653
0.0116529
0.0116527
0.0116526
0.0116525
0.0116524
0.0116523
0.0116522
0.011652
0.0116519
0.0116518
0.0116517
0.0116516
0.0116515
0.0116513
0.0116512
0.0116511
0.011651
0.0116509
0.0116508
0.0116506
0.0116505
0.0116504
0.0116503
0.0116502
0.0116501
0.01165
0.0116498
0.0116497
0.0116496
0.0116495
0.0116494
0.0116493
0.0116491
0.011649
0.0116489
0.0116488
0.0116487
0.0116486
0.0116484
0.0116483
0.0116482
0.0116481
0.011648
0.0116479
0.0116477
0.0116476
0.0116475
0.0116474
0.0116473
0.0116472
0.011647
0.0116469
0.0116468
0.0116467
0.0116466
0.0116465
0.0116464
0.0116462
0.0116461
0.011646
0.0116459
0.0116458
0.0116457
0.0116455
0.0116454
0.0116453
0.0116452
0.0116451
0.011645
0.0116448
0.0116447
0.0116446
0.0116445
0.0116444
0.0116443
0.0116442
0.011644
0.0116439
0.0116438
0.0116437
0.0116436
0.0116435
0.0116433
0.0116432
0.0116431
0.011643
0.0116429
0.0116428
0.0116426
0.0116425
0.0116424
0.0116423
0.0116422
0.0116421
0.011642
0.0116418
0.0116417
0.0116416
0.0116415
0.0116414
0.0116413
0.0116411
0.011641
0.0116409
0.0116408
0.0116407
0.0116406
0.0116404
0.0116403
0.0116402
0.0116401
0.01164
0.0116399
0.0116398
0.0116396
0.0116395
0.0116394
0.0116393
0.0116392
0.0116391
0.0116389
0.0116388
0.0116387
0.0116386
0.0116385
0.0116384
0.0116383
0.0116381
0.011638
0.0116379
0.0116378
0.0116377
0.0116376
0.0116374
0.0116373
0.0116372
0.0116371
0.011637
0.0116369
0.0116368
0.0116366
0.0116365
0.0116364
0.0116363
0.0116362
0.0116361
0.011636
0.0116358
0.0116357
0.0116356
0.0116355
0.0116354
0.0116353
0.0116351
0.011635
0.0116349
0.0116348
0.0116347
0.0116346
0.0116345
0.0116343
0.0116342
0.0116341
0.011634
0.0116339
0.0116338
0.0116337
0.0116335
0.0116334
0.0116333
0.0116332
0.0116331
0.011633
0.0116328
0.0116327
0.0116326
0.0116325
0.0116324
0.0116323
0.0116322
0.011632
0.0116319
0.0116318
0.0116317
0.0116316
0.0116315
0.0116314
0.0116312
0.0116311
0.011631
0.0116309
0.0116308
0.0116307
0.0116306
0.0116304
0.0116303
0.0116302
0.0116301
0.01163
0.0116299
0.0116297
0.0116296
0.0116295
0.0116294
0.0116293
0.0116292
0.0116291
0.0116289
0.0116288
0.0116287
0.0116286
0.0116285
0.0116284
0.0116283
0.0116281
0.011628
0.0116279
0.0116278
0.0116277
0.0116276
0.0116275
0.0116273
0.0116272
0.0116271
0.011627
0.0116269
0.0116268
0.0116267
0.0116265
0.0116264
0.0116263
0.0116262
0.0116261
0.011626
0.0116259
0.0116257
0.0116256
0.0116255
0.0116254
0.0116253
0.0116252
0.0116251
0.0116249
0.0116248
0.0116247
0.0116246
0.0116245
0.0116244
0.0116243
0.0116241
0.011624
0.0116239
0.0116238
0.0116237
0.0116236
0.0116235
0.0116234
0.0116232
0.0116231
0.011623
0.0116229
0.0116228
0.0116227
0.0116226
0.0116224
0.0116223
0.0116222
0.0116221
0.011622
0.0116219
0.0116218
0.0116216
0.0116215
0.0116214
0.0116213
0.0116212
0.0116211
0.011621
0.0116208
0.0116207
0.0116206
0.0116205
0.0116204
0.0116203
0.0116202
0.0116201
0.0116199
0.0116198
0.0116197
0.0116196
0.0116195
0.0116194
0.0116193
0.0116191
0.011619
0.0116189
0.0116188
0.0116187
0.0116186
0.0116185
0.0116184
0.0116182
0.0116181
0.011618
0.0116179
0.0116178
0.0116177
0.0116176
0.0116174
0.0116173
0.0116172
0.0116171
0.011617
0.0116169
0.0116168
0.0116167
0.0116165
0.0116164
0.0116163
0.0116162
0.0116161
0.011616
0.0116159
0.0116158
0.0116156
0.0116155
0.0116154
0.0116153
0.0116152
0.0116151
0.011615
0.0116148
0.0116147
0.0116146
0.0116145
0.0116144
0.0116143
0.0116142
0.0116141
0.0116139
0.0116138
0.0116137
0.0116136
0.0116135
0.0116134
0.0116133
0.0116132
0.011613
0.0116129
0.0116128
0.0116127
0.0116126
0.0116125
0.0116124
0.0116123
0.0116121
0.011612
0.0116119
0.0116118
0.0116117
0.0116116
0.0116115
0.0116114
0.0116112
0.0116111
0.011611
0.0116109
0.0116108
0.0116107
0.0116106
0.0116105
0.0116103
0.0116102
0.0116101
0.01161
0.0116099
0.0116098
0.0116097
0.0116096
0.0116094
0.0116093
0.0116092
0.0116091
0.011609
0.0116089
0.0116088
0.0116087
0.0116086
0.0116084
0.0116083
0.0116082
0.0116081
0.011608
0.0116079
0.0116078
0.0116077
0.0116075
0.0116074
0.0116073
0.0116072
0.0116071
0.011607
0.0116069
0.0116068
0.0116066
0.0116065
0.0116064
0.0116063
0.0116062
0.0116061
0.011606
0.0116059
0.0116058
0.0116056
0.0116055
0.0116054
0.0116053
0.0116052
0.0116051
0.011605
0.0116049
0.0116048
0.0116046
0.0116045
0.0116044
0.0116043
0.0116042
0.0116041
0.011604
0.0116039
0.0116037
0.0116036
0.0116035
0.0116034
0.0116033
0.0116032
0.0116031
0.011603
0.0116029
0.0116027
0.0116026
0.0116025
0.0116024
0.0116023
0.0116022
0.0116021
0.011602
0.0116019
0.0116017
0.0116016
0.0116015
0.0116014
0.0116013
0.0116012
0.0116011
0.011601
0.0116009
0.0116007
0.0116006
0.0116005
0.0116004
0.0116003
0.0116002
0.0116001
0.0116
0.0115999
0.0115998
0.0115996
0.0115995
0.0115994
0.0115993
0.0115992
0.0115991
0.011599
0.0115989
0.0115988
0.0115986
0.0115985
0.0115984
0.0115983
0.0115982
0.0115981
0.011598
0.0115979
0.0115978
0.0115977
0.0115975
0.0115974
0.0115973
0.0115972
0.0115971
0.011597
0.0115969
0.0115968
0.0115967
0.0115965
0.0115964
0.0115963
0.0115962
0.0115961
0.011596
0.0115959
0.0115958
0.0115957
0.0115956
0.0115954
0.0115953
0.0115952
0.0115951
0.011595
0.0115949
0.0115948
0.0115947
0.0115946
0.0115945
0.0115943
0.0115942
0.0115941
0.011594
0.0115939
0.0115938
0.0115937
0.0115936
0.0115935
0.0115934
0.0115933
0.0115931
0.011593
0.0115929
0.0115928
0.0115927
0.0115926
0.0115925
0.0115924
0.0115923
0.0115922
0.011592
0.0115919
0.0115918
0.0115917
0.0115916
0.0115915
0.0115914
0.0115913
0.0115912
0.0115911
0.011591
0.0115908
0.0115907
0.0115906
0.0115905
0.0115904
0.0115903
0.0115902
0.0115901
0.01159
0.0115899
0.0115898
0.0115896
0.0115895
0.0115894
0.0115893
0.0115892
0.0115891
0.011589
0.0115889
0.0115888
0.0115887
0.0115886
0.0115885
0.0115883
0.0115882
0.0115881
0.011588
0.0115879
0.0115878
0.0115877
0.0115876
0.0115875
0.0115874
0.0115873
0.0115872
0.011587
0.0115869
0.0115868
0.0115867
0.0115866
0.0115865
0.0115864
0.0115863
0.0115862
0.0115861
0.011586
0.0115859
0.0115858
0.0115857
0.0115855
0.0115854
0.0115853
0.0115852
0.0115851
0.011585
0.0115849
0.0115848
0.0115847
0.0115846
0.0115845
0.0115844
0.0115843
0.0115842
0.011584
0.0115839
0.0115838
0.0115837
0.0115836
0.0115835
0.0115834
0.0115833
0.0115832
0.0115831
0.011583
0.0115829
0.0115828
0.0115827
0.0115826
0.0115824
0.0115823
0.0115822
0.0115821
0.011582
0.0115819
0.0115818
0.0115817
0.0115816
0.0115815
0.0115814
0.0115813
0.0115812
0.0115811
0.011581
0.0115809
0.0115808
0.0115806
0.0115805
0.0115804
0.0115803
0.0115802
0.0115801
0.01158
0.0115799
0.0115798
0.0115797
0.0115796
0.0115795
0.0115794
0.0115793
0.0115792
0.0115791
0.011579
0.0115789
0.0115788
0.0115787
0.0115785
0.0115784
0.0115783
0.0115782
0.0115781
0.011578
0.0115779
0.0115778
0.0115777
0.0115776
0.0115775
0.0115774
0.0115773
0.0115772
0.0115771
0.011577
0.0115769
0.0115768
0.0115767
0.0115766
0.0115765
0.0115764
0.0115763
0.0115761
0.011576
0.0115759
0.0115758
0.0115757
0.0115756
0.0115755
0.0115754
0.0115753
0.0115752
0.0115751
0.011575
0.0115749
0.0115748
0.0115747
0.0115746
0.0115745
0.0115744
0.0115743
0.0115742
0.0115741
0.011574
0.0115739
0.0115738
0.0115737
0.0115736
0.0115735
0.0115734
0.0115732
0.0115731
0.011573
0.0115729
0.0115728
0.0115727
0.0115726
0.0115725
0.0115724
0.0115723
0.0115722
0.0115721
0.011572
0.0115719
0.0115718
0.0115717
0.0115716
0.0115715
0.0115714
0.0115713
0.0115712
0.0115711
0.011571
0.0115709
0.0115708
0.0115707
0.0115706
0.0115705
0.0115704
0.0115703
0.0115702
0.0115701
0.01157
0.0115699
0.0115698
0.0115697
0.0115696
0.0115695
0.0115694
0.0115693
0.0115691
0.011569
0.0115689
0.0115688
0.0115687
0.0115686
0.0115685
0.0115684
0.0115683
0.0115682
0.0115681
0.011568
0.0115679
0.0115678
0.0115677
0.0115676
0.0115675
0.0115674
0.0115673
0.0115672
0.0115671
0.011567
0.0115669
0.0115668
0.0115667
0.0115666
0.0115665
0.0115664
0.0115663
0.0115662
0.0115661
0.011566
0.0115659
0.0115658
0.0115657
0.0115656
0.0115655
0.0115654
0.0115653
0.0115652
0.0115651
0.011565
0.0115649
0.0115648
0.0115647
0.0115646
0.0115645
0.0115644
0.0115643
0.0115642
0.0115641
0.011564
0.0115639
0.0115638
0.0115637
0.0115636
0.0115635
0.0115634
0.0115633
0.0115632
0.0115631
0.011563
0.0115629
0.0115628
0.0115627
0.0115626
0.0115625
0.0115624
0.0115623
0.0115622
0.0115621
0.011562
0.0115619
0.0115618
0.0115617
0.0115616
0.0115615
0.0115614
0.0115613
0.0115612
0.0115611
0.011561
0.0115609
0.0115608
0.0115607
0.0115606
0.0115605
0.0115604
0.0115603
0.0115602
0.0115601
0.01156
0.0115599
0.0115598
0.0115597
0.0115596
0.0115595
0.0115594
0.0115593
0.0115592
0.0115591
0.011559
0.0115589
0.0115588
0.0115587
0.0115586
0.0115585
0.0115584
0.0115583
0.0115582
0.0115581
0.011558
0.0115579
0.0115578
0.0115577
0.0115576
0.0115575
0.0115574
0.0115573
0.0115572
0.0115571
0.011557
0.0115569
0.0115568
0.0115567
0.0115566
0.0115565
0.0115564
0.0115563
0.0115562
0.0115561
0.011556
0.0115559
0.0115558
0.0115557
0.0115556
0.0115555
0.0115554
0.0115553
0.0115552
0.0115551
0.011555
0.0115549
0.0115548
0.0115547
0.0115546
0.0115545
0.0115545
0.0115544
0.0115543
0.0115542
0.0115541
0.011554
0.0115539
0.0115538
0.0115537
0.0115536
0.0115535
0.0115534
0.0115533
0.0115532
0.0115531
0.011553
0.0115529
0.0115528
0.0115527
0.0115526
0.0115525
0.0115524
0.0115523
0.0115522
0.0115521
0.011552
0.0115519
0.0115518
0.0115517
0.0115516
0.0115515
0.0115514
0.0115513
0.0115512
0.0115511
0.011551
0.0115509
0.0115508
0.0115507
0.0115506
0.0115505
0.0115504
0.0115504
0.0115503
0.0115502
0.0115501
0.01155
0.0115499
0.0115498
0.0115497
0.0115496
0.0115495
0.0115494
0.0115493
0.0115492
0.0115491
0.011549
0.0115489
0.0115488
0.0115487
0.0115486
0.0115485
0.0115484
0.0115483
0.0115482
0.0115481
0.011548
0.0115479
0.0115478
0.0115477
0.0115476
0.0115475
0.0115475
0.0115474
0.0115473
0.0115472
0.0115471
0.011547
0.0115469
0.0115468
0.0115467
0.0115466
0.0115465
0.0115464
0.0115463
0.0115462
0.0115461
0.011546
0.0115459
0.0115458
0.0115457
0.0115456
0.0115455
0.0115454
0.0115453
0.0115452
0.0115451
0.0115451
0.011545
0.0115449
0.0115448
0.0115447
0.0115446
0.0115445
0.0115444
0.0115443
0.0115442
0.0115441
0.011544
0.0115439
0.0115438
0.0115437
0.0115436
0.0115435
0.0115434
0.0115433
0.0115432
0.0115431
0.0115431
0.011543
0.0115429
0.0115428
0.0115427
0.0115426
0.0115425
0.0115424
0.0115423
0.0115422
0.0115421
0.011542
0.0115419
0.0115418
0.0115417
0.0115416
0.0115415
0.0115414
0.0115413
0.0115413
0.0115412
0.0115411
0.011541
0.0115409
0.0115408
0.0115407
0.0115406
0.0115405
0.0115404
0.0115403
0.0115402
0.0115401
0.01154
0.0115399
0.0115398
0.0115397
0.0115397
0.0115396
0.0115395
0.0115394
0.0115393
0.0115392
0.0115391
0.011539
0.0115389
0.0115388
0.0115387
0.0115386
0.0115385
0.0115384
0.0115383
0.0115382
0.0115382
0.0115381
0.011538
0.0115379
0.0115378
0.0115377
0.0115376
0.0115375
0.0115374
0.0115373
0.0115372
0.0115371
0.011537
0.0115369
0.0115368
0.0115368
0.0115367
0.0115366
0.0115365
0.0115364
0.0115363
0.0115362
0.0115361
0.011536
0.0115359
0.0115358
0.0115357
0.0115356
0.0115355
0.0115355
0.0115354
0.0115353
0.0115352
0.0115351
0.011535
0.0115349
0.0115348
0.0115347
0.0115346
0.0115345
0.0115344
0.0115343
0.0115342
0.0115342
0.0115341
0.011534
0.0115339
0.0115338
0.0115337
0.0115336
0.0115335
0.0115334
0.0115333
0.0115332
0.0115331
0.0115331
0.011533
0.0115329
0.0115328
0.0115327
0.0115326
0.0115325
0.0115324
0.0115323
0.0115322
0.0115321
0.011532
0.011532
0.0115319
0.0115318
0.0115317
0.0115316
0.0115315
0.0115314
0.0115313
0.0115312
0.0115311
0.011531
0.0115309
0.0115309
0.0115308
0.0115307
0.0115306
0.0115305
0.0115304
0.0115303
0.0115302
0.0115301
0.01153
0.0115299
0.0115299
0.0115298
0.0115297
0.0115296
0.0115295
0.0115294
0.0115293
0.0115292
0.0115291
0.011529
0.011529
0.0115289
0.0115288
0.0115287
0.0115286
0.0115285
0.0115284
0.0115283
0.0115282
0.0115281
0.011528
0.011528
0.0115279
0.0115278
0.0115277
0.0115276
0.0115275
0.0115274
0.0115273
0.0115272
0.0115271
0.0115271
0.011527
0.0115269
0.0115268
0.0115267
0.0115266
0.0115265
0.0115264
0.0115263
0.0115263
0.0115262
0.0115261
0.011526
0.0115259
0.0115258
0.0115257
0.0115256
0.0115255
0.0115254
0.0115254
0.0115253
0.0115252
0.0115251
0.011525
0.0115249
0.0115248
0.0115247
0.0115246
0.0115246
0.0115245
0.0115244
0.0115243
0.0115242
0.0115241
0.011524
0.0115239
0.0115238
0.0115238
0.0115237
0.0115236
0.0115235
0.0115234
0.0115233
0.0115232
0.0115231
0.0115231
0.011523
0.0115229
0.0115228
0.0115227
0.0115226
0.0115225
0.0115224
0.0115223
0.0115223
0.0115222
0.0115221
0.011522
0.0115219
0.0115218
0.0115217
0.0115216
0.0115216
0.0115215
0.0115214
0.0115213
0.0115212
0.0115211
0.011521
0.0115209
0.0115209
0.0115208
0.0115207
0.0115206
0.0115205
0.0115204
0.0115203
0.0115202
0.0115202
0.0115201
0.01152
0.0115199
0.0115198
0.0115197
0.0115196
0.0115195
0.0115195
0.0115194
0.0115193
0.0115192
0.0115191
0.011519
0.0115189
0.0115189
0.0115188
0.0115187
0.0115186
0.0115185
0.0115184
0.0115183
0.0115182
0.0115182
0.0115181
0.011518
0.0115179
0.0115178
0.0115177
0.0115176
0.0115176
0.0115175
0.0115174
0.0115173
0.0115172
0.0115171
0.011517
0.011517
0.0115169
0.0115168
0.0115167
0.0115166
0.0115165
0.0115164
0.0115164
0.0115163
0.0115162
0.0115161
0.011516
0.0115159
0.0115158
0.0115158
0.0115157
0.0115156
0.0115155
0.0115154
0.0115153
0.0115152
0.0115152
0.0115151
0.011515
0.0115149
0.0115148
0.0115147
0.0115146
0.0115146
0.0115145
0.0115144
0.0115143
0.0115142
0.0115141
0.0115141
0.011514
0.0115139
0.0115138
0.0115137
0.0115136
0.0115135
0.0115135
0.0115134
0.0115133
0.0115132
0.0115131
0.011513
0.011513
0.0115129
0.0115128
0.0115127
0.0115126
0.0115125
0.0115124
0.0115124
0.0115123
0.0115122
0.0115121
0.011512
0.0115119
0.0115119
0.0115118
0.0115117
0.0115116
0.0115115
0.0115114
0.0115114
0.0115113
0.0115112
0.0115111
0.011511
0.0115109
0.0115109
0.0115108
0.0115107
0.0115106
0.0115105
0.0115104
0.0115104
0.0115103
0.0115102
0.0115101
0.01151
0.0115099
0.0115099
0.0115098
0.0115097
0.0115096
0.0115095
0.0115094
0.0115094
0.0115093
0.0115092
0.0115091
0.011509
0.0115089
0.0115089
0.0115088
0.0115087
0.0115086
0.0115085
0.0115085
0.0115084
0.0115083
0.0115082
0.0115081
0.011508
0.011508
0.0115079
0.0115078
0.0115077
0.0115076
0.0115076
0.0115075
0.0115074
0.0115073
0.0115072
0.0115071
0.0115071
0.011507
0.0115069
0.0115068
0.0115067
0.0115067
0.0115066
0.0115065
0.0115064
0.0115063
0.0115062
0.0115062
0.0115061
0.011506
0.0115059
0.0115058
0.0115058
0.0115057
0.0115056
0.0115055
0.0115054
0.0115054
0.0115053
0.0115052
0.0115051
0.011505
0.0115049
0.0115049
0.0115048
0.0115047
0.0115046
0.0115045
0.0115045
0.0115044
0.0115043
0.0115042
0.0115041
0.0115041
0.011504
0.0115039
0.0115038
0.0115037
0.0115037
0.0115036
0.0115035
0.0115034
0.0115033
0.0115033
0.0115032
0.0115031
0.011503
0.0115029
0.0115029
0.0115028
0.0115027
0.0115026
0.0115025
0.0115025
0.0115024
0.0115023
0.0115022
0.0115021
0.0115021
0.011502
0.0115019
0.0115018
0.0115017
0.0115017
0.0115016
0.0115015
0.0115014
0.0115014
0.0115013
0.0115012
0.0115011
0.011501
0.011501
0.0115009
0.0115008
0.0115007
0.0115006
0.0115006
0.0115005
0.0115004
0.0115003
0.0115002
0.0115002
0.0115001
0.0115
0.0114999
0.0114999
0.0114998
0.0114997
0.0114996
0.0114995
0.0114995
0.0114994
0.0114993
0.0114992
0.0114992
0.0114991
0.011499
0.0114989
0.0114988
0.0114988
0.0114987
0.0114986
0.0114985
0.0114985
0.0114984
0.0114983
0.0114982
0.0114981
0.0114981
0.011498
0.0114979
0.0114978
0.0114978
0.0114977
0.0114976
0.0114975
0.0114974
0.0114974
0.0114973
0.0114972
0.0114971
0.0114971
0.011497
0.0114969
0.0114968
0.0114968
0.0114967
0.0114966
0.0114965
0.0114964
0.0114964
0.0114963
0.0114962
0.0114961
0.0114961
0.011496
0.0114959
0.0114958
0.0114958
0.0114957
0.0114956
0.0114955
0.0114955
0.0114954
0.0114953
0.0114952
0.0114952
0.0114951
0.011495
0.0114949
0.0114948
0.0114948
0.0114947
0.0114946
0.0114945
0.0114945
0.0114944
0.0114943
0.0114942
0.0114942
0.0114941
0.011494
0.0114939
0.0114939
0.0114938
0.0114937
0.0114936
0.0114936
0.0114935
0.0114934
0.0114933
0.0114933
0.0114932
0.0114931
0.011493
0.011493
0.0114929
0.0114928
0.0114927
0.0114927
0.0114926
0.0114925
0.0114924
0.0114924
0.0114923
0.0114922
0.0114921
0.0114921
0.011492
0.0114919
0.0114919
0.0114918
0.0114917
0.0114916
0.0114916
0.0114915
0.0114914
0.0114913
0.0114913
0.0114912
0.0114911
0.011491
0.011491
0.0114909
0.0114908
0.0114907
0.0114907
0.0114906
0.0114905
0.0114905
0.0114904
0.0114903
0.0114902
0.0114902
0.0114901
0.01149
0.0114899
0.0114899
0.0114898
0.0114897
0.0114896
0.0114896
0.0114895
0.0114894
0.0114894
0.0114893
0.0114892
0.0114891
0.0114891
0.011489
0.0114889
0.0114888
0.0114888
0.0114887
0.0114886
0.0114886
0.0114885
0.0114884
0.0114883
0.0114883
0.0114882
0.0114881
0.0114881
0.011488
0.0114879
0.0114878
0.0114878
0.0114877
0.0114876
0.0114875
0.0114875
0.0114874
0.0114873
0.0114873
0.0114872
0.0114871
0.011487
0.011487
0.0114869
0.0114868
0.0114868
0.0114867
0.0114866
0.0114865
0.0114865
0.0114864
0.0114863
0.0114863
0.0114862
0.0114861
0.0114861
0.011486
0.0114859
0.0114858
0.0114858
0.0114857
0.0114856
0.0114856
0.0114855
0.0114854
0.0114853
0.0114853
0.0114852
0.0114851
0.0114851
0.011485
0.0114849
0.0114849
0.0114848
0.0114847
0.0114846
0.0114846
0.0114845
0.0114844
0.0114844
0.0114843
0.0114842
0.0114842
0.0114841
0.011484
0.0114839
0.0114839
0.0114838
0.0114837
0.0114837
0.0114836
0.0114835
0.0114835
0.0114834
0.0114833
0.0114833
0.0114832
0.0114831
0.011483
0.011483
0.0114829
0.0114828
0.0114828
0.0114827
0.0114826
0.0114826
0.0114825
0.0114824
0.0114824
0.0114823
0.0114822
0.0114822
0.0114821
0.011482
0.0114819
0.0114819
0.0114818
0.0114817
0.0114817
0.0114816
0.0114815
0.0114815
0.0114814
0.0114813
0.0114813
0.0114812
0.0114811
0.0114811
0.011481
0.0114809
0.0114809
0.0114808
0.0114807
0.0114807
0.0114806
0.0114805
0.0114805
0.0114804
0.0114803
0.0114803
0.0114802
0.0114801
0.0114801
0.01148
0.0114799
0.0114799
0.0114798
0.0114797
0.0114797
0.0114796
0.0114795
0.0114795
0.0114794
0.0114793
0.0114793
0.0114792
0.0114791
0.0114791
0.011479
0.0114789
0.0114789
0.0114788
0.0114787
0.0114787
0.0114786
0.0114785
0.0114785
0.0114784
0.0114783
0.0114783
0.0114782
0.0114781
0.0114781
0.011478
0.0114779
0.0114779
0.0114778
0.0114777
0.0114777
0.0114776
0.0114775
0.0114775
0.0114774
0.0114773
0.0114773
0.0114772
0.0114771
0.0114771
0.011477
0.011477
0.0114769
0.0114768
0.0114768
0.0114767
0.0114766
0.0114766
0.0114765
0.0114764
0.0114764
0.0114763
0.0114762
0.0114762
0.0114761
0.011476
0.011476
0.0114759
0.0114759
0.0114758
0.0114757
0.0114757
0.0114756
0.0114755
0.0114755
0.0114754
0.0114753
0.0114753
0.0114752
0.0114752
0.0114751
0.011475
0.011475
0.0114749
0.0114748
0.0114748
0.0114747
0.0114746
0.0114746
0.0114745
0.0114745
0.0114744
0.0114743
0.0114743
0.0114742
0.0114741
0.0114741
0.011474
0.011474
0.0114739
0.0114738
0.0114738
0.0114737
0.0114736
0.0114736
0.0114735
0.0114735
0.0114734
0.0114733
0.0114733
0.0114732
0.0114731
0.0114731
0.011473
0.011473
0.0114729
0.0114728
0.0114728
0.0114727
0.0114726
0.0114726
0.0114725
0.0114725
0.0114724
0.0114723
0.0114723
0.0114722
0.0114721
0.0114721
0.011472
0.011472
0.0114719
0.0114718
0.0114718
0.0114717
0.0114717
0.0114716
0.0114715
0.0114715
0.0114714
0.0114714
0.0114713
0.0114712
0.0114712
0.0114711
0.0114711
0.011471
0.0114709
0.0114709
0.0114708
0.0114707
0.0114707
0.0114706
0.0114706
0.0114705
0.0114704
0.0114704
0.0114703
0.0114703
0.0114702
0.0114701
0.0114701
0.01147
0.01147
0.0114699
0.0114698
0.0114698
0.0114697
0.0114697
0.0114696
0.0114696
0.0114695
0.0114694
0.0114694
0.0114693
0.0114693
0.0114692
0.0114691
0.0114691
0.011469
0.011469
0.0114689
0.0114688
0.0114688
0.0114687
0.0114687
0.0114686
0.0114685
0.0114685
0.0114684
0.0114684
0.0114683
0.0114683
0.0114682
0.0114681
0.0114681
0.011468
0.011468
0.0114679
0.0114678
0.0114678
0.0114677
0.0114677
0.0114676
0.0114676
0.0114675
0.0114674
0.0114674
0.0114673
0.0114673
0.0114672
0.0114672
0.0114671
0.011467
0.011467
0.0114669
0.0114669
0.0114668
0.0114668
0.0114667
0.0114666
0.0114666
0.0114665
0.0114665
0.0114664
0.0114664
0.0114663
0.0114662
0.0114662
0.0114661
0.0114661
0.011466
0.011466
0.0114659
0.0114658
0.0114658
0.0114657
0.0114657
0.0114656
0.0114656
0.0114655
0.0114655
0.0114654
0.0114653
0.0114653
0.0114652
0.0114652
0.0114651
0.0114651
0.011465
0.011465
0.0114649
0.0114648
0.0114648
0.0114647
0.0114647
0.0114646
0.0114646
0.0114645
0.0114645
0.0114644
0.0114643
0.0114643
0.0114642
0.0114642
0.0114641
0.0114641
0.011464
0.011464
0.0114639
0.0114639
0.0114638
0.0114637
0.0114637
0.0114636
0.0114636
0.0114635
0.0114635
0.0114634
0.0114634
0.0114633
0.0114633
0.0114632
0.0114631
0.0114631
0.011463
0.011463
0.0114629
0.0114629
0.0114628
0.0114628
0.0114627
0.0114627
0.0114626
0.0114626
0.0114625
0.0114625
0.0114624
0.0114623
0.0114623
0.0114622
0.0114622
0.0114621
0.0114621
0.011462
0.011462
0.0114619
0.0114619
0.0114618
0.0114618
0.0114617
0.0114617
0.0114616
0.0114616
0.0114615
0.0114615
0.0114614
0.0114613
0.0114613
0.0114612
0.0114612
0.0114611
0.0114611
0.011461
0.011461
0.0114609
0.0114609
0.0114608
0.0114608
0.0114607
0.0114607
0.0114606
0.0114606
0.0114605
0.0114605
0.0114604
0.0114604
0.0114603
0.0114603
0.0114602
0.0114602
0.0114601
0.0114601
0.01146
0.01146
0.0114599
0.0114599
0.0114598
0.0114598
0.0114597
0.0114597
0.0114596
0.0114596
0.0114595
0.0114595
0.0114594
0.0114594
0.0114593
0.0114593
0.0114592
0.0114592
0.0114591
0.0114591
0.011459
0.011459
0.0114589
0.0114589
0.0114588
0.0114588
0.0114587
0.0114587
0.0114586
0.0114586
0.0114585
0.0114585
0.0114584
0.0114584
0.0114583
0.0114583
0.0114582
0.0114582
0.0114581
0.0114581
0.011458
0.011458
0.0114579
0.0114579
0.0114578
0.0114578
0.0114577
0.0114577
0.0114576
0.0114576
0.0114575
0.0114575
0.0114574
0.0114574
0.0114573
0.0114573
0.0114572
0.0114572
0.0114572
0.0114571
0.0114571
0.011457
0.011457
0.0114569
0.0114569
0.0114568
0.0114568
0.0114567
0.0114567
0.0114566
0.0114566
0.0114565
0.0114565
0.0114564
0.0114564
0.0114563
0.0114563
0.0114563
0.0114562
0.0114562
0.0114561
0.0114561
0.011456
0.011456
0.0114559
0.0114559
0.0114558
0.0114558
0.0114557
0.0114557
0.0114556
0.0114556
0.0114556
0.0114555
0.0114555
0.0114554
0.0114554
0.0114553
0.0114553
0.0114552
0.0114552
0.0114551
0.0114551
0.0114551
0.011455
0.011455
0.0114549
0.0114549
0.0114548
0.0114548
0.0114547
0.0114547
0.0114546
0.0114546
0.0114546
0.0114545
0.0114545
0.0114544
0.0114544
0.0114543
0.0114543
0.0114542
0.0114542
0.0114542
0.0114541
0.0114541
0.011454
0.011454
0.0114539
0.0114539
0.0114538
0.0114538
0.0114538
0.0114537
0.0114537
0.0114536
0.0114536
0.0114535
0.0114535
0.0114535
0.0114534
0.0114534
0.0114533
0.0114533
0.0114532
0.0114532
0.0114532
0.0114531
0.0114531
0.011453
0.011453
0.0114529
0.0114529
0.0114529
0.0114528
0.0114528
0.0114527
0.0114527
0.0114526
0.0114526
0.0114526
0.0114525
0.0114525
0.0114524
0.0114524
0.0114523
0.0114523
0.0114523
0.0114522
0.0114522
0.0114521
0.0114521
0.0114521
0.011452
0.011452
0.0114519
0.0114519
0.0114518
0.0114518
0.0114518
0.0114517
0.0114517
0.0114516
0.0114516
0.0114516
0.0114515
0.0114515
0.0114514
0.0114514
0.0114514
0.0114513
0.0114513
0.0114512
0.0114512
0.0114512
0.0114511
0.0114511
0.011451
0.011451
0.011451
0.0114509
0.0114509
0.0114508
0.0114508
0.0114508
0.0114507
0.0114507
0.0114506
0.0114506
0.0114506
0.0114505
0.0114505
0.0114504
0.0114504
0.0114504
0.0114503
0.0114503
0.0114502
0.0114502
0.0114502
0.0114501
0.0114501
0.01145
0.01145
0.01145
0.0114499
0.0114499
0.0114498
0.0114498
0.0114498
0.0114497
0.0114497
0.0114497
0.0114496
0.0114496
0.0114495
0.0114495
0.0114495
0.0114494
0.0114494
0.0114494
0.0114493
0.0114493
0.0114492
0.0114492
0.0114492
0.0114491
0.0114491
0.0114491
0.011449
0.011449
0.0114489
0.0114489
0.0114489
0.0114488
0.0114488
0.0114488
0.0114487
0.0114487
0.0114486
0.0114486
0.0114486
0.0114485
0.0114485
0.0114485
0.0114484
0.0114484
0.0114484
0.0114483
0.0114483
0.0114482
0.0114482
0.0114482
0.0114481
0.0114481
0.0114481
0.011448
0.011448
0.011448
0.0114479
0.0114479
0.0114479
0.0114478
0.0114478
0.0114477
0.0114477
0.0114477
0.0114476
0.0114476
0.0114476
0.0114475
0.0114475
0.0114475
0.0114474
0.0114474
0.0114474
0.0114473
0.0114473
0.0114473
0.0114472
0.0114472
0.0114472
0.0114471
0.0114471
0.0114471
0.011447
0.011447
0.011447
0.0114469
0.0114469
0.0114469
0.0114468
0.0114468
0.0114467
0.0114467
0.0114467
0.0114466
0.0114466
0.0114466
0.0114465
0.0114465
0.0114465
0.0114464
0.0114464
0.0114464
0.0114464
0.0114463
0.0114463
0.0114463
0.0114462
0.0114462
0.0114462
0.0114461
0.0114461
0.0114461
0.011446
0.011446
0.011446
0.0114459
0.0114459
0.0114459
0.0114458
0.0114458
0.0114458
0.0114457
0.0114457
0.0114457
0.0114456
0.0114456
0.0114456
0.0114455
0.0114455
0.0114455
0.0114455
0.0114454
0.0114454
0.0114454
0.0114453
0.0114453
0.0114453
0.0114452
0.0114452
0.0114452
0.0114451
0.0114451
0.0114451
0.0114451
0.011445
0.011445
0.011445
0.0114449
0.0114449
0.0114449
0.0114448
0.0114448
0.0114448
0.0114448
0.0114447
0.0114447
0.0114447
0.0114446
0.0114446
0.0114446
0.0114445
0.0114445
0.0114445
0.0114445
0.0114444
0.0114444
0.0114444
0.0114443
0.0114443
0.0114443
0.0114443
0.0114442
0.0114442
0.0114442
0.0114441
0.0114441
0.0114441
0.0114441
0.011444
0.011444
0.011444
0.0114439
0.0114439
0.0114439
0.0114439
0.0114438
0.0114438
0.0114438
0.0114437
0.0114437
0.0114437
0.0114437
0.0114436
0.0114436
0.0114436
0.0114436
0.0114435
0.0114435
0.0114435
0.0114434
0.0114434
0.0114434
0.0114434
0.0114433
0.0114433
0.0114433
0.0114433
0.0114432
0.0114432
0.0114432
0.0114432
0.0114431
0.0114431
0.0114431
0.011443
0.011443
0.011443
0.011443
0.0114429
0.0114429
0.0114429
0.0114429
0.0114428
0.0114428
0.0114428
0.0114428
0.0114427
0.0114427
0.0114427
0.0114427
0.0114426
0.0114426
0.0114426
0.0114426
0.0114425
0.0114425
0.0114425
0.0114425
0.0114424
0.0114424
0.0114424
0.0114424
0.0114423
0.0114423
0.0114423
0.0114423
0.0114422
0.0114422
0.0114422
0.0114422
0.0114422
0.0114421
0.0114421
0.0114421
0.0114421
0.011442
0.011442
0.011442
0.011442
0.0114419
0.0114419
0.0114419
0.0114419
0.0114418
0.0114418
0.0114418
0.0114418
0.0114418
0.0114417
0.0114417
0.0114417
0.0114417
0.0114416
0.0114416
0.0114416
0.0114416
0.0114416
0.0114415
0.0114415
0.0114415
0.0114415
0.0114414
0.0114414
0.0114414
0.0114414
0.0114414
0.0114413
0.0114413
0.0114413
0.0114413
0.0114412
0.0114412
0.0114412
0.0114412
0.0114412
0.0114411
0.0114411
0.0114411
0.0114411
0.0114411
0.011441
0.011441
0.011441
0.011441
0.011441
0.0114409
0.0114409
0.0114409
0.0114409
0.0114409
0.0114408
0.0114408
0.0114408
0.0114408
0.0114408
0.0114407
0.0114407
0.0114407
0.0114407
0.0114407
0.0114406
0.0114406
0.0114406
0.0114406
0.0114406
0.0114405
0.0114405
0.0114405
0.0114405
0.0114405
0.0114404
0.0114404
0.0114404
0.0114404
0.0114404
0.0114404
0.0114403
0.0114403
0.0114403
0.0114403
0.0114403
0.0114402
0.0114402
0.0114402
0.0114402
0.0114402
0.0114402
0.0114401
0.0114401
0.0114401
0.0114401
0.0114401
0.01144
0.01144
0.01144
0.01144
0.01144
0.01144
0.0114399
0.0114399
0.0114399
0.0114399
0.0114399
0.0114399
0.0114398
0.0114398
0.0114398
0.0114398
0.0114398
0.0114398
0.0114397
0.0114397
0.0114397
0.0114397
0.0114397
0.0114397
0.0114397
0.0114396
0.0114396
0.0114396
0.0114396
0.0114396
0.0114396
0.0114395
0.0114395
0.0114395
0.0114395
0.0114395
0.0114395
0.0114395
0.0114394
0.0114394
0.0114394
0.0114394
0.0114394
0.0114394
0.0114393
0.0114393
0.0114393
0.0114393
0.0114393
0.0114393
0.0114393
0.0114393
0.0114392
0.0114392
0.0114392
0.0114392
0.0114392
0.0114392
0.0114392
0.0114391
0.0114391
0.0114391
0.0114391
0.0114391
0.0114391
0.0114391
0.011439
0.011439
0.011439
0.011439
0.011439
0.011439
0.011439
0.011439
0.0114389
0.0114389
0.0114389
0.0114389
0.0114389
0.0114389
0.0114389
0.0114389
0.0114388
0.0114388
0.0114388
0.0114388
0.0114388
0.0114388
0.0114388
0.0114388
0.0114388
0.0114387
0.0114387
0.0114387
0.0114387
0.0114387
0.0114387
0.0114387
0.0114387
0.0114387
0.0114386
0.0114386
0.0114386
0.0114386
0.0114386
0.0114386
0.0114386
0.0114386
0.0114386
0.0114386
0.0114385
0.0114385
0.0114385
0.0114385
0.0114385
0.0114385
0.0114385
0.0114385
0.0114385
0.0114385
0.0114384
0.0114384
0.0114384
0.0114384
0.0114384
0.0114384
0.0114384
0.0114384
0.0114384
0.0114384
0.0114384
0.0114383
0.0114383
0.0114383
0.0114383
0.0114383
0.0114383
0.0114383
0.0114383
0.0114383
0.0114383
0.0114383
0.0114383
0.0114382
0.0114382
0.0114382
0.0114382
0.0114382
0.0114382
0.0114382
0.0114382
0.0114382
0.0114382
0.0114382
0.0114382
0.0114382
0.0114382
0.0114381
0.0114381
0.0114381
0.0114381
0.0114381
0.0114381
0.0114381
0.0114381
0.0114381
0.0114381
0.0114381
0.0114381
0.0114381
0.0114381
0.0114381
0.0114381
0.011438
0.011438
0.011438
0.011438
0.011438
0.011438
0.011438
0.011438
0.011438
0.011438
0.011438
0.011438
0.011438
0.011438
0.011438
0.011438
0.011438
0.011438
0.011438
0.011438
0.0114379
0.0114379
0.0114379
0.0114379
0.0114379
0.0114379
0.0114379
0.0114379
0.0114379
0.0114379
0.0114379
0.0114379
0.0114379
0.0114379
0.0114379
0.0114379
0.0114379
0.0114379
0.0114379
0.0114379
0.0114379
0.0114379
0.0114379
0.0114379
0.0114379
0.0114379
0.0114379
0.0114379
0.0114379
0.0114379
0.0114379
0.0114379
0.0114378
0.0114378
0.0114378
0.0114378
0.0114378
0.0114378
0.0114378
0.0114378
0.0114378
0.0114378
0.0114378
0.0114378
0.0114378
0.0114378
0.0114378
0.0114378
0.0114378
0.0114378
0.0114378
0.0114378
0.0114378
0.0114378
0.0114378
0.0114378
0.0114378
0.0114378
0.0114378
0.0114378
0.0114378
0.0114378
0.0114378
0.0114378
0.0114378
0.0114378
0.0114378
0.0114378
0.0114378
0.0114378
0.0114378
0.0114378
0.0114378
0.0114378
0.0114378
0.0114378
0.0114378
0.0114378
0.0114378
0.0114378
0.0114378
0.0114378
0.0114378
0.0114378
0.0114378
0.0114378
0.0114378
0.0114378
0.0114378
0.0114379
0.0114379
0.0114379
0.0114379
0.0114379
0.0114379
0.0114379
0.0114379
0.0114379
0.0114379
0.0114379
0.0114379
0.0114379
0.0114379
0.0114379
0.0114379
0.0114379
0.0114379
0.0114379
0.0114379
0.0114379
0.0114379
0.0114379
0.0114379
0.0114379
0.0114379
0.0114379
0.0114379
0.0114379
0.0114379
0.0114379
0.011438
0.011438
0.011438
0.011438
0.011438
0.011438
0.011438
0.011438
0.011438
0.011438
0.011438
0.011438
0.011438
0.011438
0.011438
0.011438
0.011438
0.011438
0.0114381
0.0114381
0.0114381
0.0114381
0.0114381
0.0114381
0.0114381
0.0114381
0.0114381
0.0114381
0.0114381
0.0114381
0.0114381
0.0114381
0.0114381
0.0114382
0.0114382
0.0114382
0.0114382
0.0114382
0.0114382
0.0114382
0.0114382
0.0114382
0.0114382
0.0114382
0.0114382
0.0114383
0.0114383
0.0114383
0.0114383
0.0114383
0.0114383
0.0114383
0.0114383
0.0114383
0.0114383
0.0114383
0.0114383
0.0114384
0.0114384
0.0114384
0.0114384
0.0114384
0.0114384
0.0114384
0.0114384
0.0114384
0.0114384
0.0114385
0.0114385
0.0114385
0.0114385
0.0114385
0.0114385
0.0114385
0.0114385
0.0114385
0.0114386
0.0114386
0.0114386
0.0114386
0.0114386
0.0114386
0.0114386
0.0114386
0.0114386
0.0114387
0.0114387
0.0114387
0.0114387
0.0114387
0.0114387
0.0114387
0.0114387
0.0114388
0.0114388
0.0114388
0.0114388
0.0114388
0.0114388
0.0114388
0.0114389
0.0114389
0.0114389
0.0114389
0.0114389
0.0114389
0.0114389
0.0114389
0.011439
0.011439
0.011439
0.011439
0.011439
0.011439
0.011439
0.0114391
0.0114391
0.0114391
0.0114391
0.0114391
0.0114391
0.0114391
0.0114392
0.0114392
0.0114392
0.0114392
0.0114392
0.0114392
0.0114393
0.0114393
0.0114393
0.0114393
0.0114393
0.0114393
0.0114394
0.0114394
0.0114394
0.0114394
0.0114394
0.0114394
0.0114394
0.0114395
0.0114395
0.0114395
0.0114395
0.0114395
0.0114396
0.0114396
0.0114396
0.0114396
0.0114396
0.0114396
0.0114397
0.0114397
0.0114397
0.0114397
0.0114397
0.0114397
0.0114398
0.0114398
0.0114398
0.0114398
0.0114398
0.0114399
0.0114399
0.0114399
0.0114399
0.0114399
0.0114399
0.01144
0.01144
0.01144
0.01144
0.01144
0.0114401
0.0114401
0.0114401
0.0114401
0.0114401
0.0114402
0.0114402
0.0114402
0.0114402
0.0114402
0.0114403
0.0114403
0.0114403
0.0114403
0.0114403
0.0114404
0.0114404
0.0114404
0.0114404
0.0114404
0.0114405
0.0114405
0.0114405
0.0114405
0.0114406
0.0114406
0.0114406
0.0114406
0.0114406
0.0114407
0.0114407
0.0114407
0.0114407
0.0114407
0.0114408
0.0114408
0.0114408
0.0114408
0.0114409
0.0114409
0.0114409
0.0114409
0.0114409
0.011441
0.011441
0.011441
0.011441
0.0114411
0.0114411
0.0114411
0.0114411
0.0114412
0.0114412
0.0114412
0.0114412
0.0114413
0.0114413
0.0114413
0.0114413
0.0114413
0.0114414
0.0114414
0.0114414
0.0114414
0.0114415
0.0114415
0.0114415
0.0114415
0.0114416
0.0114416
0.0114416
0.0114416
0.0114417
0.0114417
0.0114417
0.0114417
0.0114418
0.0114418
0.0114418
0.0114418
0.0114419
0.0114419
0.0114419
0.011442
0.011442
0.011442
0.011442
0.0114421
0.0114421
0.0114421
0.0114421
0.0114422
0.0114422
0.0114422
0.0114422
0.0114423
0.0114423
0.0114423
0.0114424
0.0114424
0.0114424
0.0114424
0.0114425
0.0114425
0.0114425
0.0114425
0.0114426
0.0114426
0.0114426
0.0114427
0.0114427
0.0114427
0.0114427
0.0114428
0.0114428
0.0114428
0.0114429
0.0114429
0.0114429
0.0114429
0.011443
0.011443
0.011443
0.0114431
0.0114431
0.0114431
0.0114431
0.0114432
0.0114432
0.0114432
0.0114433
0.0114433
0.0114433
0.0114434
0.0114434
0.0114434
0.0114434
0.0114435
0.0114435
0.0114435
0.0114436
0.0114436
0.0114436
0.0114437
0.0114437
0.0114437
0.0114438
0.0114438
0.0114438
0.0114438
0.0114439
0.0114439
0.0114439
0.011444
0.011444
0.011444
0.0114441
0.0114441
0.0114441
0.0114442
0.0114442
0.0114442
0.0114443
0.0114443
0.0114443
0.0114444
0.0114444
0.0114444
0.0114445
0.0114445
0.0114445
0.0114446
0.0114446
0.0114446
0.0114447
0.0114447
0.0114447
0.0114448
0.0114448
0.0114448
0.0114449
0.0114449
0.0114449
0.011445
0.011445
0.011445
0.0114451
0.0114451
0.0114451
0.0114452
0.0114452
0.0114452
0.0114453
0.0114453
0.0114453
0.0114454
0.0114454
0.0114454
0.0114455
0.0114455
0.0114456
0.0114456
0.0114456
0.0114457
0.0114457
0.0114457
0.0114458
0.0114458
0.0114458
0.0114459
0.0114459
0.0114459
0.011446
0.011446
0.0114461
0.0114461
0.0114461
0.0114462
0.0114462
0.0114462
0.0114463
0.0114463
0.0114464
0.0114464
0.0114464
0.0114465
0.0114465
0.0114465
0.0114466
0.0114466
0.0114467
0.0114467
0.0114467
0.0114468
0.0114468
0.0114468
0.0114469
0.0114469
0.011447
0.011447
0.011447
0.0114471
0.0114471
0.0114472
0.0114472
0.0114472
0.0114473
0.0114473
0.0114474
0.0114474
0.0114474
0.0114475
0.0114475
0.0114476
0.0114476
0.0114476
0.0114477
0.0114477
0.0114478
0.0114478
0.0114478
0.0114479
0.0114479
0.011448
0.011448
0.011448
0.0114481
0.0114481
0.0114482
0.0114482
0.0114482
0.0114483
0.0114483
0.0114484
0.0114484
0.0114484
0.0114485
0.0114485
0.0114486
0.0114486
0.0114487
0.0114487
0.0114487
0.0114488
0.0114488
0.0114489
0.0114489
0.011449
0.011449
0.011449
0.0114491
0.0114491
0.0114492
0.0114492
0.0114493
0.0114493
0.0114493
0.0114494
0.0114494
0.0114495
0.0114495
0.0114496
0.0114496
0.0114497
0.0114497
0.0114497
0.0114498
0.0114498
0.0114499
0.0114499
0.01145
0.01145
0.0114501
0.0114501
0.0114501
0.0114502
0.0114502
0.0114503
0.0114503
0.0114504
0.0114504
0.0114505
0.0114505
0.0114506
0.0114506
0.0114506
0.0114507
0.0114507
0.0114508
0.0114508
0.0114509
0.0114509
0.011451
0.011451
0.0114511
0.0114511
0.0114512
0.0114512
0.0114513
0.0114513
0.0114513
0.0114514
0.0114514
0.0114515
0.0114515
0.0114516
0.0114516
0.0114517
0.0114517
0.0114518
0.0114518
0.0114519
0.0114519
0.011452
0.011452
0.0114521
0.0114521
0.0114522
0.0114522
0.0114523
0.0114523
0.0114524
0.0114524
0.0114525
0.0114525
0.0114526
0.0114526
0.0114527
0.0114527
0.0114528
0.0114528
0.0114529
0.0114529
0.011453
0.011453
0.0114531
0.0114531
0.0114532
0.0114532
0.0114533
0.0114533
0.0114534
0.0114534
0.0114535
0.0114535
0.0114536
0.0114536
0.0114537
0.0114537
0.0114538
0.0114538
0.0114539
0.0114539
0.011454
0.011454
0.0114541
0.0114541
0.0114542
0.0114542
0.0114543
0.0114544
0.0114544
0.0114545
0.0114545
0.0114546
0.0114546
0.0114547
0.0114547
0.0114548
0.0114548
0.0114549
0.0114549
0.011455
0.011455
0.0114551
0.0114552
0.0114552
0.0114553
0.0114553
0.0114554
0.0114554
0.0114555
0.0114555
0.0114556
0.0114556
0.0114557
0.0114558
0.0114558
0.0114559
0.0114559
0.011456
0.011456
0.0114561
0.0114561
0.0114562
0.0114563
0.0114563
0.0114564
0.0114564
0.0114565
0.0114565
0.0114566
0.0114566
0.0114567
0.0114568
0.0114568
0.0114569
0.0114569
0.011457
0.011457
0.0114571
0.0114572
0.0114572
0.0114573
0.0114573
0.0114574
0.0114574
0.0114575
0.0114576
0.0114576
0.0114577
0.0114577
0.0114578
0.0114578
0.0114579
0.011458
0.011458
0.0114581
0.0114581
0.0114582
0.0114583
0.0114583
0.0114584
0.0114584
0.0114585
0.0114586
0.0114586
0.0114587
0.0114587
0.0114588
0.0114589
0.0114589
0.011459
0.011459
0.0114591
0.0114592
0.0114592
0.0114593
0.0114593
0.0114594
0.0114595
0.0114595
0.0114596
0.0114596
0.0114597
0.0114598
0.0114598
0.0114599
0.01146
0.01146
0.0114601
0.0114601
0.0114602
0.0114603
0.0114603
0.0114604
0.0114605
0.0114605
0.0114606
0.0114606
0.0114607
0.0114608
0.0114608
0.0114609
0.011461
0.011461
0.0114611
0.0114612
0.0114612
0.0114613
0.0114613
0.0114614
0.0114615
0.0114615
0.0114616
0.0114617
0.0114617
0.0114618
0.0114619
0.0114619
0.011462
0.0114621
0.0114621
0.0114622
0.0114623
0.0114623
0.0114624
0.0114625
0.0114625
0.0114626
0.0114627
0.0114627
0.0114628
0.0114629
0.0114629
0.011463
0.0114631
0.0114631
0.0114632
0.0114633
0.0114633
0.0114634
0.0114635
0.0114635
0.0114636
0.0114637
0.0114637
0.0114638
0.0114639
0.0114639
0.011464
0.0114641
0.0114641
0.0114642
0.0114643
0.0114643
0.0114644
0.0114645
0.0114646
0.0114646
0.0114647
0.0114648
0.0114648
0.0114649
0.011465
0.011465
0.0114651
0.0114652
0.0114653
0.0114653
0.0114654
0.0114655
0.0114655
0.0114656
0.0114657
0.0114657
0.0114658
0.0114659
0.011466
0.011466
0.0114661
0.0114662
0.0114662
0.0114663
0.0114664
0.0114665
0.0114665
0.0114666
0.0114667
0.0114668
0.0114668
0.0114669
0.011467
0.011467
0.0114671
0.0114672
0.0114673
0.0114673
0.0114674
0.0114675
0.0114676
0.0114676
0.0114677
0.0114678
0.0114679
0.0114679
0.011468
0.0114681
0.0114682
0.0114682
0.0114683
0.0114684
0.0114685
0.0114685
0.0114686
0.0114687
0.0114688
0.0114688
0.0114689
0.011469
0.0114691
0.0114691
0.0114692
0.0114693
0.0114694
0.0114694
0.0114695
0.0114696
0.0114697
0.0114697
0.0114698
0.0114699
0.01147
0.0114701
0.0114701
0.0114702
0.0114703
0.0114704
0.0114704
0.0114705
0.0114706
0.0114707
0.0114708
0.0114708
0.0114709
0.011471
0.0114711
0.0114711
0.0114712
0.0114713
0.0114714
0.0114715
0.0114715
0.0114716
0.0114717
0.0114718
0.0114719
0.0114719
0.011472
0.0114721
0.0114722
0.0114723
0.0114723
0.0114724
0.0114725
0.0114726
0.0114727
0.0114727
0.0114728
0.0114729
0.011473
0.0114731
0.0114731
0.0114732
0.0114733
0.0114734
0.0114735
0.0114735
0.0114736
0.0114737
0.0114738
0.0114739
0.011474
0.011474
0.0114741
0.0114742
0.0114743
0.0114744
0.0114745
0.0114745
0.0114746
0.0114747
0.0114748
0.0114749
0.011475
0.011475
0.0114751
0.0114752
0.0114753
0.0114754
0.0114755
0.0114755
0.0114756
0.0114757
0.0114758
0.0114759
0.011476
0.011476
0.0114761
0.0114762
0.0114763
0.0114764
0.0114765
0.0114766
0.0114766
0.0114767
0.0114768
0.0114769
0.011477
0.0114771
0.0114772
0.0114772
0.0114773
0.0114774
0.0114775
0.0114776
0.0114777
0.0114778
0.0114779
0.0114779
0.011478
0.0114781
0.0114782
0.0114783
0.0114784
0.0114785
0.0114786
0.0114786
0.0114787
0.0114788
0.0114789
0.011479
0.0114791
0.0114792
0.0114793
0.0114793
0.0114794
0.0114795
0.0114796
0.0114797
0.0114798
0.0114799
0.01148
0.0114801
0.0114801
0.0114802
0.0114803
0.0114804
0.0114805
0.0114806
0.0114807
0.0114808
0.0114809
0.011481
0.011481
0.0114811
0.0114812
0.0114813
0.0114814
0.0114815
0.0114816
0.0114817
0.0114818
0.0114819
0.011482
0.0114821
0.0114821
0.0114822
0.0114823
0.0114824
0.0114825
0.0114826
0.0114827
0.0114828
0.0114829
0.011483
0.0114831
0.0114832
0.0114833
0.0114833
0.0114834
0.0114835
0.0114836
0.0114837
0.0114838
0.0114839
0.011484
0.0114841
0.0114842
0.0114843
0.0114844
0.0114845
0.0114846
0.0114847
0.0114848
0.0114849
0.0114849
0.011485
0.0114851
0.0114852
0.0114853
0.0114854
0.0114855
0.0114856
0.0114857
0.0114858
0.0114859
0.011486
0.0114861
0.0114862
0.0114863
0.0114864
0.0114865
0.0114866
0.0114867
0.0114868
0.0114869
0.011487
0.0114871
0.0114872
0.0114873
0.0114874
0.0114875
0.0114876
0.0114876
0.0114877
0.0114878
0.0114879
0.011488
0.0114881
0.0114882
0.0114883
0.0114884
0.0114885
0.0114886
0.0114887
0.0114888
0.0114889
0.011489
0.0114891
0.0114892
0.0114893
0.0114894
0.0114895
0.0114896
0.0114897
0.0114898
0.0114899
0.01149
0.0114901
0.0114902
0.0114903
0.0114904
0.0114905
0.0114906
0.0114907
0.0114908
0.0114909
0.011491
0.0114911
0.0114912
0.0114913
0.0114914
0.0114915
0.0114917
0.0114918
0.0114919
0.011492
0.0114921
0.0114922
0.0114923
0.0114924
0.0114925
0.0114926
0.0114927
0.0114928
0.0114929
0.011493
0.0114931
0.0114932
0.0114933
0.0114934
0.0114935
0.0114936
0.0114937
0.0114938
0.0114939
0.011494
0.0114941
0.0114942
0.0114943
0.0114944
0.0114946
0.0114947
0.0114948
0.0114949
0.011495
0.0114951
0.0114952
0.0114953
0.0114954
0.0114955
0.0114956
0.0114957
0.0114958
0.0114959
0.011496
0.0114961
0.0114962
0.0114964
0.0114965
0.0114966
0.0114967
0.0114968
0.0114969
0.011497
0.0114971
0.0114972
0.0114973
0.0114974
0.0114975
0.0114976
0.0114978
0.0114979
0.011498
0.0114981
0.0114982
0.0114983
0.0114984
0.0114985
0.0114986
0.0114987
0.0114988
0.011499
0.0114991
0.0114992
0.0114993
0.0114994
0.0114995
0.0114996
0.0114997
0.0114998
0.0114999
0.0115001
0.0115002
0.0115003
0.0115004
0.0115005
0.0115006
0.0115007
0.0115008
0.0115009
0.0115011
0.0115012
0.0115013
0.0115014
0.0115015
0.0115016
0.0115017
0.0115018
0.0115019
0.0115021
0.0115022
0.0115023
0.0115024
0.0115025
0.0115026
0.0115027
0.0115028
0.011503
0.0115031
0.0115032
0.0115033
0.0115034
0.0115035
0.0115036
0.0115038
0.0115039
0.011504
0.0115041
0.0115042
0.0115043
0.0115044
0.0115046
0.0115047
0.0115048
0.0115049
0.011505
0.0115051
0.0115053
0.0115054
0.0115055
0.0115056
0.0115057
0.0115058
0.0115059
0.0115061
0.0115062
0.0115063
0.0115064
0.0115065
0.0115066
0.0115068
0.0115069
0.011507
0.0115071
0.0115072
0.0115074
0.0115075
0.0115076
0.0115077
0.0115078
0.0115079
0.0115081
0.0115082
0.0115083
0.0115084
0.0115085
0.0115087
0.0115088
0.0115089
0.011509
0.0115091
0.0115092
0.0115094
0.0115095
0.0115096
0.0115097
0.0115098
0.01151
0.0115101
0.0115102
0.0115103
0.0115104
0.0115106
0.0115107
0.0115108
0.0115109
0.011511
0.0115112
0.0115113
0.0115114
0.0115115
0.0115117
0.0115118
0.0115119
0.011512
0.0115121
0.0115123
0.0115124
0.0115125
0.0115126
0.0115128
0.0115129
0.011513
0.0115131
0.0115132
0.0115134
0.0115135
0.0115136
0.0115137
0.0115139
0.011514
0.0115141
0.0115142
0.0115144
0.0115145
0.0115146
0.0115147
0.0115149
0.011515
0.0115151
0.0115152
0.0115154
0.0115155
0.0115156
0.0115157
0.0115159
0.011516
0.0115161
0.0115162
0.0115164
0.0115165
0.0115166
0.0115167
0.0115169
0.011517
0.0115171
0.0115172
0.0115174
0.0115175
0.0115176
0.0115177
0.0115179
0.011518
0.0115181
0.0115183
0.0115184
0.0115185
0.0115186
0.0115188
0.0115189
0.011519
0.0115192
0.0115193
0.0115194
0.0115195
0.0115197
0.0115198
0.0115199
0.0115201
0.0115202
0.0115203
0.0115204
0.0115206
0.0115207
0.0115208
0.011521
0.0115211
0.0115212
0.0115214
0.0115215
0.0115216
0.0115217
0.0115219
0.011522
0.0115221
0.0115223
0.0115224
0.0115225
0.0115227
0.0115228
0.0115229
0.0115231
0.0115232
0.0115233
0.0115235
0.0115236
0.0115237
0.0115238
0.011524
0.0115241
0.0115242
0.0115244
0.0115245
0.0115246
0.0115248
0.0115249
0.011525
0.0115252
0.0115253
0.0115254
0.0115256
0.0115257
0.0115258
0.011526
0.0115261
0.0115263
0.0115264
0.0115265
0.0115267
0.0115268
0.0115269
0.0115271
0.0115272
0.0115273
0.0115275
0.0115276
0.0115277
0.0115279
0.011528
0.0115281
0.0115283
0.0115284
0.0115286
0.0115287
0.0115288
0.011529
0.0115291
0.0115292
0.0115294
0.0115295
0.0115297
0.0115298
0.0115299
0.0115301
0.0115302
0.0115303
0.0115305
0.0115306
0.0115308
0.0115309
0.011531
0.0115312
0.0115313
0.0115314
0.0115316
0.0115317
0.0115319
0.011532
0.0115321
0.0115323
0.0115324
0.0115326
0.0115327
0.0115328
0.011533
0.0115331
0.0115333
0.0115334
0.0115335
0.0115337
0.0115338
0.011534
0.0115341
0.0115342
0.0115344
0.0115345
0.0115347
0.0115348
0.011535
0.0115351
0.0115352
0.0115354
0.0115355
0.0115357
0.0115358
0.011536
0.0115361
0.0115362
0.0115364
0.0115365
0.0115367
0.0115368
0.011537
0.0115371
0.0115372
0.0115374
0.0115375
0.0115377
0.0115378
0.011538
0.0115381
0.0115383
0.0115384
0.0115385
0.0115387
0.0115388
0.011539
0.0115391
0.0115393
0.0115394
0.0115396
0.0115397
0.0115398
0.01154
0.0115401
0.0115403
0.0115404
0.0115406
0.0115407
0.0115409
0.011541
0.0115412
0.0115413
0.0115415
0.0115416
0.0115418
0.0115419
0.0115421
0.0115422
0.0115423
0.0115425
0.0115426
0.0115428
0.0115429
0.0115431
0.0115432
0.0115434
0.0115435
0.0115437
0.0115438
0.011544
0.0115441
0.0115443
0.0115444
0.0115446
0.0115447
0.0115449
0.011545
0.0115452
0.0115453
0.0115455
0.0115456
0.0115458
0.0115459
0.0115461
0.0115462
0.0115464
0.0115465
0.0115467
0.0115468
0.011547
0.0115471
0.0115473
0.0115474
0.0115476
0.0115477
0.0115479
0.0115481
0.0115482
0.0115484
0.0115485
0.0115487
0.0115488
0.011549
0.0115491
0.0115493
0.0115494
0.0115496
0.0115497
0.0115499
0.01155
0.0115502
0.0115504
0.0115505
0.0115507
0.0115508
0.011551
0.0115511
0.0115513
0.0115514
0.0115516
0.0115517
0.0115519
0.0115521
0.0115522
0.0115524
0.0115525
0.0115527
0.0115528
0.011553
0.0115532
0.0115533
0.0115535
0.0115536
0.0115538
0.0115539
0.0115541
0.0115542
0.0115544
0.0115546
0.0115547
0.0115549
0.011555
0.0115552
0.0115554
0.0115555
0.0115557
0.0115558
0.011556
0.0115561
0.0115563
0.0115565
0.0115566
0.0115568
0.0115569
0.0115571
0.0115573
0.0115574
0.0115576
0.0115577
0.0115579
0.0115581
0.0115582
0.0115584
0.0115585
0.0115587
0.0115589
0.011559
0.0115592
0.0115593
0.0115595
0.0115597
0.0115598
0.01156
0.0115602
0.0115603
0.0115605
0.0115606
0.0115608
0.011561
0.0115611
0.0115613
0.0115615
0.0115616
0.0115618
0.0115619
0.0115621
0.0115623
0.0115624
0.0115626
0.0115628
0.0115629
0.0115631
0.0115632
0.0115634
0.0115636
0.0115637
0.0115639
0.0115641
0.0115642
0.0115644
0.0115646
0.0115647
0.0115649
0.0115651
0.0115652
0.0115654
0.0115656
0.0115657
0.0115659
0.0115661
0.0115662
0.0115664
0.0115666
0.0115667
0.0115669
0.0115671
0.0115672
0.0115674
0.0115676
0.0115677
0.0115679
0.0115681
0.0115682
0.0115684
0.0115686
0.0115687
0.0115689
0.0115691
0.0115692
0.0115694
0.0115696
0.0115697
0.0115699
0.0115701
0.0115703
0.0115704
0.0115706
0.0115708
0.0115709
0.0115711
0.0115713
0.0115714
0.0115716
0.0115718
0.011572
0.0115721
0.0115723
0.0115725
0.0115726
0.0115728
0.011573
0.0115732
0.0115733
0.0115735
0.0115737
0.0115738
0.011574
0.0115742
0.0115744
0.0115745
0.0115747
0.0115749
0.011575
0.0115752
0.0115754
0.0115756
0.0115757
0.0115759
0.0115761
0.0115763
0.0115764
0.0115766
0.0115768
0.011577
0.0115771
0.0115773
0.0115775
0.0115777
0.0115778
0.011578
0.0115782
0.0115784
0.0115785
0.0115787
0.0115789
0.0115791
0.0115792
0.0115794
0.0115796
0.0115798
0.0115799
0.0115801
0.0115803
0.0115805
0.0115806
0.0115808
0.011581
0.0115812
0.0115814
0.0115815
0.0115817
0.0115819
0.0115821
0.0115822
0.0115824
0.0115826
0.0115828
0.011583
0.0115831
0.0115833
0.0115835
0.0115837
0.0115838
0.011584
0.0115842
0.0115844
0.0115846
0.0115847
0.0115849
0.0115851
0.0115853
0.0115855
0.0115856
0.0115858
0.011586
0.0115862
0.0115864
0.0115866
0.0115867
0.0115869
0.0115871
0.0115873
0.0115875
0.0115876
0.0115878
0.011588
0.0115882
0.0115884
0.0115886
0.0115887
0.0115889
0.0115891
0.0115893
0.0115895
0.0115897
0.0115898
0.01159
0.0115902
0.0115904
0.0115906
0.0115908
0.0115909
0.0115911
0.0115913
0.0115915
0.0115917
0.0115919
0.011592
0.0115922
0.0115924
0.0115926
0.0115928
0.011593
0.0115932
0.0115933
0.0115935
0.0115937
0.0115939
0.0115941
0.0115943
0.0115945
0.0115946
0.0115948
0.011595
0.0115952
0.0115954
0.0115956
0.0115958
0.011596
0.0115961
0.0115963
0.0115965
0.0115967
0.0115969
0.0115971
0.0115973
0.0115975
0.0115977
0.0115978
0.011598
0.0115982
0.0115984
0.0115986
0.0115988
0.011599
0.0115992
0.0115994
0.0115996
0.0115997
0.0115999
0.0116001
0.0116003
0.0116005
0.0116007
0.0116009
0.0116011
0.0116013
0.0116015
0.0116017
0.0116018
0.011602
0.0116022
0.0116024
0.0116026
0.0116028
0.011603
0.0116032
0.0116034
0.0116036
0.0116038
0.011604
0.0116042
0.0116043
0.0116045
0.0116047
0.0116049
0.0116051
0.0116053
0.0116055
0.0116057
0.0116059
0.0116061
0.0116063
0.0116065
0.0116067
0.0116069
0.0116071
0.0116073
0.0116075
0.0116077
0.0116079
0.011608
0.0116082
0.0116084
0.0116086
0.0116088
0.011609
0.0116092
0.0116094
0.0116096
0.0116098
0.01161
0.0116102
0.0116104
0.0116106
0.0116108
0.011611
0.0116112
0.0116114
0.0116116
0.0116118
0.011612
0.0116122
0.0116124
0.0116126
0.0116128
0.011613
0.0116132
0.0116134
0.0116136
0.0116138
0.011614
0.0116142
0.0116144
0.0116146
0.0116148
0.011615
0.0116152
0.0116154
0.0116156
0.0116158
0.011616
0.0116162
0.0116164
0.0116166
0.0116168
0.011617
0.0116172
0.0116174
0.0116176
0.0116178
0.011618
0.0116182
0.0116184
0.0116186
0.0116188
0.011619
0.0116192
0.0116194
0.0116196
0.0116198
0.01162
0.0116203
0.0116205
0.0116207
0.0116209
0.0116211
0.0116213
0.0116215
0.0116217
0.0116219
0.0116221
0.0116223
0.0116225
0.0116227
0.0116229
0.0116231
0.0116233
0.0116235
0.0116237
0.0116239
0.0116242
0.0116244
0.0116246
0.0116248
0.011625
0.0116252
0.0116254
0.0116256
0.0116258
0.011626
0.0116262
0.0116264
0.0116266
0.0116269
0.0116271
0.0116273
0.0116275
0.0116277
0.0116279
0.0116281
0.0116283
0.0116285
0.0116287
0.0116289
0.0116292
0.0116294
0.0116296
0.0116298
0.01163
0.0116302
0.0116304
0.0116306
0.0116308
0.0116311
0.0116313
0.0116315
0.0116317
0.0116319
0.0116321
0.0116323
0.0116325
0.0116327
0.011633
0.0116332
0.0116334
0.0116336
0.0116338
0.011634
0.0116342
0.0116344
0.0116347
0.0116349
0.0116351
0.0116353
0.0116355
0.0116357
0.0116359
0.0116362
0.0116364
0.0116366
0.0116368
0.011637
0.0116372
0.0116374
0.0116377
0.0116379
0.0116381
0.0116383
0.0116385
0.0116387
0.011639
0.0116392
0.0116394
0.0116396
0.0116398
0.01164
0.0116403
0.0116405
0.0116407
0.0116409
0.0116411
0.0116413
0.0116416
0.0116418
0.011642
0.0116422
0.0116424
0.0116427
0.0116429
0.0116431
0.0116433
0.0116435
0.0116437
0.011644
0.0116442
0.0116444
0.0116446
0.0116448
0.0116451
0.0116453
0.0116455
0.0116457
0.0116459
0.0116462
0.0116464
0.0116466
0.0116468
0.0116471
0.0116473
0.0116475
0.0116477
0.0116479
0.0116482
0.0116484
0.0116486
0.0116488
0.011649
0.0116493
0.0116495
0.0116497
0.0116499
0.0116502
0.0116504
0.0116506
0.0116508
0.0116511
0.0116513
0.0116515
0.0116517
0.011652
0.0116522
0.0116524
0.0116526
0.0116529
0.0116531
0.0116533
0.0116535
0.0116538
0.011654
0.0116542
0.0116544
0.0116547
0.0116549
0.0116551
0.0116553
0.0116556
0.0116558
0.011656
0.0116562
0.0116565
0.0116567
0.0116569
0.0116572
0.0116574
0.0116576
0.0116578
0.0116581
0.0116583
0.0116585
0.0116587
0.011659
0.0116592
0.0116594
0.0116597
0.0116599
0.0116601
0.0116604
0.0116606
0.0116608
0.011661
0.0116613
0.0116615
0.0116617
0.011662
0.0116622
0.0116624
0.0116627
0.0116629
0.0116631
0.0116633
0.0116636
0.0116638
0.011664
0.0116643
0.0116645
0.0116647
0.011665
0.0116652
0.0116654
0.0116657
0.0116659
0.0116661
0.0116664
0.0116666
0.0116668
0.0116671
0.0116673
0.0116675
0.0116678
0.011668
0.0116682
0.0116685
0.0116687
0.0116689
0.0116692
0.0116694
0.0116696
0.0116699
0.0116701
0.0116704
0.0116706
0.0116708
0.0116711
0.0116713
0.0116715
0.0116718
0.011672
0.0116722
0.0116725
0.0116727
0.011673
0.0116732
0.0116734
0.0116737
0.0116739
0.0116741
0.0116744
0.0116746
0.0116749
0.0116751
0.0116753
0.0116756
0.0116758
0.0116761
0.0116763
0.0116765
0.0116768
0.011677
0.0116772
0.0116775
0.0116777
0.011678
0.0116782
0.0116784
0.0116787
0.0116789
0.0116792
0.0116794
0.0116797
0.0116799
0.0116801
0.0116804
0.0116806
0.0116809
0.0116811
0.0116813
0.0116816
0.0116818
0.0116821
0.0116823
0.0116826
0.0116828
0.011683
0.0116833
0.0116835
0.0116838
0.011684
0.0116843
0.0116845
0.0116848
0.011685
0.0116852
0.0116855
0.0116857
0.011686
0.0116862
0.0116865
0.0116867
0.011687
0.0116872
0.0116874
0.0116877
0.0116879
0.0116882
0.0116884
0.0116887
0.0116889
0.0116892
0.0116894
0.0116897
0.0116899
0.0116902
0.0116904
0.0116907
0.0116909
0.0116912
0.0116914
0.0116916
0.0116919
0.0116921
0.0116924
0.0116926
0.0116929
0.0116931
0.0116934
0.0116936
0.0116939
0.0116941
0.0116944
0.0116946
0.0116949
0.0116951
0.0116954
0.0116956
0.0116959
0.0116961
0.0116964
0.0116966
0.0116969
0.0116971
0.0116974
0.0116976
0.0116979
0.0116982
0.0116984
0.0116987
0.0116989
0.0116992
0.0116994
0.0116997
0.0116999
0.0117002
0.0117004
0.0117007
0.0117009
0.0117012
0.0117014
0.0117017
0.0117019
0.0117022
0.0117025
0.0117027
0.011703
0.0117032
0.0117035
0.0117037
0.011704
0.0117042
0.0117045
0.0117048
0.011705
0.0117053
0.0117055
0.0117058
0.011706
0.0117063
0.0117066
0.0117068
0.0117071
0.0117073
0.0117076
0.0117078
0.0117081
0.0117084
0.0117086
0.0117089
0.0117091
0.0117094
0.0117096
0.0117099
0.0117102
0.0117104
0.0117107
0.0117109
0.0117112
0.0117115
0.0117117
0.011712
0.0117122
0.0117125
0.0117128
0.011713
0.0117133
0.0117135
0.0117138
0.0117141
0.0117143
0.0117146

