-58.4897
-58.4897
-58.4897
-58.4897
-58.4897
-58.4897
-58.4897
-58.4897
-58.4897
-58.4897
-58.4897
-58.4897
-58.4897
-58.4897
-58.4897
-58.4897
-58.4897
-58.4897
-58.4897
-58.4897
-58.4897
-58.4897
-58.4897
-58.4897
-58.4897
-58.4897
-58.4897
-58.4897
-58.4897
-58.4897
-58.4897
-58.4897
-58.4897
-58.4897
-58.4896
-58.4896
-58.4895
-58.4894
-58.4893
-58.4892
-58.4891
-58.4889
-58.4888
-58.4885
-58.4883
-58.488
-58.4876
-58.4872
-58.4867
-58.4862
-58.4855
-58.4848
-58.484
-58.4831
-58.482
-58.4809
-58.4795
-58.478
-58.4763
-58.4743
-58.4721
-58.4697
-58.4668
-58.4637
-58.4601
-58.456
-58.4513
-58.4461
-58.4401
-58.4333
-58.4255
-58.4167
-58.4066
-58.3952
-58.3821
-58.3671
-58.35
-58.3304
-58.308
-58.2823
-58.2529
-58.2193
-58.1807
-58.1366
-58.0859
-58.0278
-57.9612
-57.8848
-57.7972
-57.6967
-57.5813
-57.449
-57.2973
-57.1231
-56.9233
-56.6941
-56.4311
-56.1294
-55.7834
-55.3864
-54.9311
-54.4089
-53.8102
-53.1238
-52.3369
-51.4352
-50.402
-49.2187
-47.8639
-46.3134
-44.54
-42.513
-40.1979
-37.5566
-34.5466
-31.1216
-27.2318
-22.8247
-17.8469
-12.2479
-5.98758
0.947294
8.50294
16.4668
24.3274
31.3069
36.8262
40.8159
43.4691
45.0073
45.6219
45.4737
44.6985
43.4115
41.7116
39.6841
37.4031
34.9337
32.3334
29.6529
26.9365
24.2221
21.5405
18.9146
16.3584
13.8765
11.4636
9.1044
6.77467
4.44182
2.06645
-0.396243
-2.99449
-5.7779
-8.79526
-12.0915
-15.7025
-19.6471
-23.9143
-28.4479
-33.1356
-37.8125
-42.29
-46.4047
-50.0587
-53.2277
-55.939
-58.2441
-60.1994
-61.8579
-63.2659
-64.463
-65.4826
-66.3527
-67.0968
-67.7343
-68.2816
-68.7523
-69.1578
-69.5076
-69.8099
-70.0712
-70.2973
-70.4931
-70.6624
-70.8089
-70.9354
-71.0444
-71.1381
-71.2182
-71.2864
-71.3441
-71.3922
-71.432
-71.4642
-71.4896
-71.5089
-71.5227
-71.5314
-71.5355
-71.5354
-71.5314
-71.5238
-71.513
-71.4991
-71.4824
-71.463
-71.4411
-71.4169
-71.3905
-71.362
-71.3315
-71.2992
-71.2651
-71.2293
-71.1918
-71.1529
-71.1124
-71.0705
-71.0273
-70.9827
-70.9368
-70.8897
-70.8414
-70.792
-70.7414
-70.6898
-70.637
-70.5833
-70.5285
-70.4728
-70.4161
-70.3585
-70.3
-70.2406
-70.1804
-70.1193
-70.0574
-69.9948
-69.9313
-69.8671
-69.8021
-69.7364
-69.67
-69.6029
-69.5352
-69.4667
-69.3977
-69.3279
-69.2576
-69.1867
-69.1152
-69.0431
-68.9705
-68.8973
-68.8236
-68.7493
-68.6746
-68.5993
-68.5236
-68.4474
-68.3707
-68.2936
-68.216
-68.138
-68.0596
-67.9808
-67.9016
-67.822
-67.7421
-67.6618
-67.5811
-67.5001
-67.4187
-67.337
-67.255
-67.1727
-67.0901
-67.0072
-66.9241
-66.8406
-66.7569
-66.673
-66.5888
-66.5043
-66.4197
-66.3348
-66.2497
-66.1644
-66.0789
-65.9932
-65.9073
-65.8213
-65.7351
-65.6487
-65.5621
-65.4755
-65.3886
-65.3017
-65.2146
-65.1274
-65.0401
-64.9527
-64.8652
-64.7776
-64.6899
-64.6021
-64.5142
-64.4263
-64.3383
-64.2502
-64.1621
-64.074
-63.9858
-63.8975
-63.8093
-63.721
-63.6327
-63.5443
-63.456
-63.3677
-63.2793
-63.191
-63.1027
-63.0143
-62.926
-62.8378
-62.7495
-62.6613
-62.5732
-62.485
-62.397
-62.3089
-62.221
-62.1331
-62.0452
-61.9574
-61.8697
-61.7821
-61.6946
-61.6071
-61.5198
-61.4325
-61.3453
-61.2583
-61.1713
-61.0845
-60.9977
-60.9111
-60.8247
-60.7383
-60.6521
-60.566
-60.48
-60.3942
-60.3085
-60.223
-60.1377
-60.0525
-59.9674
-59.8825
-59.7978
-59.7133
-59.6289
-59.5447
-59.4607
-59.3769
-59.2933
-59.2099
-59.1267
-59.0436
-58.9608
-58.8782
-58.7958
-58.7136
-58.6316
-58.5499
-58.4684
-58.3871
-58.306
-58.2252
-58.1446
-58.0642
-57.9841
-57.9043
-57.8247
-57.7454
-57.6663
-57.5875
-57.5089
-57.4306
-57.3526
-57.2749
-57.1974
-57.1203
-57.0434
-56.9668
-56.8905
-56.8145
-56.7388
-56.6634
-56.5883
-56.5135
-56.4391
-56.3649
-56.2911
-56.2176
-56.1444
-56.0715
-55.999
-55.9268
-55.855
-55.7835
-55.7123
-55.6415
-55.5711
-55.501
-55.4312
-55.3619
-55.2929
-55.2242
-55.156
-55.0881
-55.0206
-54.9535
-54.8868
-54.8204
-54.7545
-54.6889
-54.6238
-54.559
-54.4947
-54.4308
-54.3672
-54.3042
-54.2415
-54.1792
-54.1174
-54.056
-53.9951
-53.9346
-53.8745
-53.8149
-53.7557
-53.697
-53.6387
-53.5809
-53.5235
-53.4667
-53.4103
-53.3543
-53.2989
-53.2439
-53.1894
-53.1354
-53.0819
-53.0289
-52.9763
-52.9243
-52.8728
-52.8218
-52.7713
-52.7213
-52.6719
-52.6229
-52.5745
-52.5266
-52.4793
-52.4324
-52.3862
-52.3404
-52.2952
-52.2506
-52.2065
-52.163
-52.12
-52.0776
-52.0358
-51.9945
-51.9538
-51.9137
-51.8742
-51.8352
-51.7968
-51.759
-51.7218
-51.6852
-51.6492
-51.6138
-51.579
-51.5448
-51.5112
-51.4783
-51.4459
-51.4141
-51.383
-51.3525
-51.3226
-51.2934
-51.2647
-51.2367
-51.2094
-51.1826
-51.1565
-51.1311
-51.1063
-51.0821
-51.0586
-51.0357
-51.0135
-50.9919
-50.971
-50.9507
-50.9311
-50.9121
-50.8938
-50.8761
-50.8591
-50.8428
-50.8271
-50.8121
-50.7977
-50.784
-50.7709
-50.7585
-50.7468
-50.7357
-50.7253
-50.7155
-50.7064
-50.698
-50.6902
-50.683
-50.6765
-50.6707
-50.6655
-50.6609
-50.657
-50.6537
-50.6511
-50.6491
-50.6478
-50.647
-50.6469
-50.6475
-50.6486
-50.6504
-50.6528
-50.6558
-50.6594
-50.6636
-50.6685
-50.6739
-50.6799
-50.6865
-50.6936
-50.7014
-50.7097
-50.7186
-50.728
-50.738
-50.7486
-50.7597
-50.7713
-50.7835
-50.7962
-50.8094
-50.8231
-50.8374
-50.8521
-50.8673
-50.883
-50.8992
-50.9158
-50.9329
-50.9505
-50.9685
-50.987
-51.0059
-51.0252
-51.0449
-51.065
-51.0855
-51.1064
-51.1277
-51.1494
-51.1714
-51.1938
-51.2165
-51.2395
-51.2629
-51.2866
-51.3106
-51.335
-51.3596
-51.3845
-51.4096
-51.4351
-51.4608
-51.4867
-51.5129
-51.5393
-51.5659
-51.5927
-51.6198
-51.647
-51.6744
-51.7019
-51.7297
-51.7576
-51.7856
-51.8138
-51.8421
-51.8705
-51.899
-51.9276
-51.9563
-51.9851
-52.014
-52.0429
-52.0719
-52.1009
-52.13
-52.1591
-52.1883
-52.2174
-52.2466
-52.2757
-52.3048
-52.334
-52.3631
-52.3921
-52.4212
-52.4502
-52.4791
-52.508
-52.5368
-52.5655
-52.5942
-52.6228
-52.6512
-52.6796
-52.7079
-52.736
-52.7641
-52.792
-52.8197
-52.8474
-52.8749
-52.9023
-52.9295
-52.9565
-52.9834
-53.0101
-53.0366
-53.063
-53.0892
-53.1152
-53.141
-53.1666
-53.192
-53.2172
-53.2422
-53.267
-53.2916
-53.3159
-53.3401
-53.364
-53.3877
-53.4111
-53.4344
-53.4573
-53.4801
-53.5026
-53.5249
-53.5469
-53.5687
-53.5902
-53.6115
-53.6325
-53.6533
-53.6738
-53.6941
-53.714
-53.7338
-53.7533
-53.7725
-53.7914
-53.8101
-53.8285
-53.8467
-53.8645
-53.8821
-53.8995
-53.9166
-53.9334
-53.9499
-53.9662
-53.9822
-53.9979
-54.0134
-54.0286
-54.0435
-54.0581
-54.0725
-54.0866
-54.1004
-54.114
-54.1273
-54.1403
-54.153
-54.1655
-54.1777
-54.1897
-54.2014
-54.2128
-54.224
-54.2349
-54.2455
-54.2559
-54.266
-54.2759
-54.2855
-54.2948
-54.304
-54.3128
-54.3214
-54.3298
-54.3379
-54.3457
-54.3534
-54.3607
-54.3679
-54.3748
-54.3814
-54.3878
-54.394
-54.4
-54.4057
-54.4112
-54.4165
-54.4215
-54.4264
-54.431
-54.4353
-54.4395
-54.4434
-54.4472
-54.4507
-54.454
-54.4571
-54.46
-54.4627
-54.4652
-54.4675
-54.4696
-54.4715
-54.4732
-54.4747
-54.476
-54.4772
-54.4781
-54.4789
-54.4795
-54.4799
-54.4801
-54.4802
-54.4801
-54.4798
-54.4793
-54.4787
-54.4779
-54.477
-54.4759
-54.4746
-54.4732
-54.4717
-54.4699
-54.4681
-54.4661
-54.4639
-54.4616
-54.4592
-54.4566
-54.4539
-54.451
-54.448
-54.4449
-54.4417
-54.4383
-54.4348
-54.4312
-54.4275
-54.4237
-54.4197
-54.4156
-54.4115
-54.4072
-54.4028
-54.3983
-54.3937
-54.389
-54.3842
-54.3793
-54.3743
-54.3692
-54.364
-54.3588
-54.3534
-54.348
-54.3425
-54.3369
-54.3312
-54.3255
-54.3197
-54.3138
-54.3078
-54.3018
-54.2957
-54.2896
-54.2833
-54.2771
-54.2707
-54.2643
-54.2579
-54.2514
-54.2448
-54.2382
-54.2316
-54.2249
-54.2181
-54.2113
-54.2045
-54.1976
-54.1907
-54.1838
-54.1768
-54.1698
-54.1628
-54.1557
-54.1486
-54.1415
-54.1344
-54.1272
-54.12
-54.1128
-54.1056
-54.0984
-54.0911
-54.0839
-54.0766
-54.0693
-54.062
-54.0547
-54.0474
-54.0401
-54.0328
-54.0254
-54.0181
-54.0108
-54.0035
-53.9962
-53.9889
-53.9816
-53.9743
-53.967
-53.9597
-53.9524
-53.9452
-53.9379
-53.9307
-53.9235
-53.9163
-53.9091
-53.9019
-53.8948
-53.8876
-53.8805
-53.8734
-53.8664
-53.8593
-53.8523
-53.8454
-53.8384
-53.8315
-53.8246
-53.8177
-53.8109
-53.8041
-53.7973
-53.7906
-53.7839
-53.7773
-53.7707
-53.7641
-53.7575
-53.751
-53.7446
-53.7382
-53.7318
-53.7255
-53.7192
-53.7129
-53.7067
-53.7006
-53.6945
-53.6884
-53.6824
-53.6765
-53.6706
-53.6647
-53.6589
-53.6532
-53.6475
-53.6418
-53.6362
-53.6307
-53.6252
-53.6197
-53.6144
-53.609
-53.6038
-53.5986
-53.5934
-53.5883
-53.5833
-53.5783
-53.5734
-53.5685
-53.5637
-53.5589
-53.5543
-53.5496
-53.5451
-53.5406
-53.5361
-53.5317
-53.5274
-53.5232
-53.519
-53.5148
-53.5107
-53.5067
-53.5028
-53.4989
-53.4951
-53.4913
-53.4876
-53.484
-53.4804
-53.4769
-53.4734
-53.47
-53.4667
-53.4634
-53.4602
-53.4571
-53.454
-53.451
-53.448
-53.4451
-53.4423
-53.4395
-53.4368
-53.4342
-53.4316
-53.4291
-53.4266
-53.4242
-53.4219
-53.4196
-53.4174
-53.4152
-53.4131
-53.4111
-53.4091
-53.4072
-53.4054
-53.4036
-53.4018
-53.4002
-53.3985
-53.397
-53.3955
-53.394
-53.3926
-53.3913
-53.39
-53.3888
-53.3877
-53.3866
-53.3855
-53.3845
-53.3836
-53.3827
-53.3819
-53.3811
-53.3803
-53.3797
-53.3791
-53.3785
-53.378
-53.3775
-53.3771
-53.3767
-53.3764
-53.3761
-53.3759
-53.3757
-53.3756
-53.3755
-53.3755
-53.3755
-53.3756
-53.3757
-53.3758
-53.376
-53.3763
-53.3766
-53.3769
-53.3772
-53.3777
-53.3781
-53.3786
-53.3791
-53.3797
-53.3803
-53.3809
-53.3816
-53.3824
-53.3831
-53.3839
-53.3847
-53.3856
-53.3865
-53.3874
-53.3884
-53.3894
-53.3904
-53.3915
-53.3926
-53.3937
-53.3949
-53.396
-53.3972
-53.3985
-53.3997
-53.401
-53.4024
-53.4037
-53.4051
-53.4065
-53.4079
-53.4093
-53.4108
-53.4123
-53.4138
-53.4153
-53.4169
-53.4184
-53.42
-53.4216
-53.4233
-53.4249
-53.4266
-53.4283
-53.43
-53.4317
-53.4334
-53.4351
-53.4369
-53.4387
-53.4404
-53.4422
-53.444
-53.4459
-53.4477
-53.4495
-53.4514
-53.4532
-53.4551
-53.457
-53.4588
-53.4607
-53.4626
-53.4645
-53.4664
-53.4683
-53.4702
-53.4722
-53.4741
-53.476
-53.4779
-53.4799
-53.4818
-53.4837
-53.4857
-53.4876
-53.4896
-53.4915
-53.4934
-53.4954
-53.4973
-53.4992
-53.5011
-53.5031
-53.505
-53.5069
-53.5088
-53.5107
-53.5126
-53.5145
-53.5164
-53.5183
-53.5202
-53.522
-53.5239
-53.5258
-53.5276
-53.5294
-53.5313
-53.5331
-53.5349
-53.5367
-53.5385
-53.5403
-53.542
-53.5438
-53.5455
-53.5473
-53.549
-53.5507
-53.5524
-53.5541
-53.5558
-53.5574
-53.5591
-53.5607
-53.5623
-53.564
-53.5655
-53.5671
-53.5687
-53.5702
-53.5718
-53.5733
-53.5748
-53.5763
-53.5778
-53.5792
-53.5807
-53.5821
-53.5835
-53.5849
-53.5862
-53.5876
-53.5889
-53.5903
-53.5916
-53.5929
-53.5941
-53.5954
-53.5966
-53.5978
-53.599
-53.6002
-53.6014
-53.6025
-53.6037
-53.6048
-53.6059
-53.6069
-53.608
-53.609
-53.61
-53.611
-53.612
-53.613
-53.6139
-53.6149
-53.6158
-53.6167
-53.6175
-53.6184
-53.6192
-53.62
-53.6208
-53.6216
-53.6223
-53.6231
-53.6238
-53.6245
-53.6252
-53.6258
-53.6265
-53.6271
-53.6277
-53.6283
-53.6289
-53.6294
-53.63
-53.6305
-53.631
-53.6315
-53.6319
-53.6324
-53.6328
-53.6332
-53.6336
-53.6339
-53.6343
-53.6346
-53.635
-53.6353
-53.6355
-53.6358
-53.6361
-53.6363
-53.6365
-53.6367
-53.6369
-53.6371
-53.6372
-53.6374
-53.6375
-53.6376
-53.6377
-53.6377
-53.6378
-53.6378
-53.6379
-53.6379
-53.6379
-53.6378
-53.6378
-53.6378
-53.6377
-53.6376
-53.6375
-53.6374
-53.6373
-53.6372
-53.637
-53.6368
-53.6367
-53.6365
-53.6363
-53.6361
-53.6358
-53.6356
-53.6354
-53.6351
-53.6348
-53.6345
-53.6342
-53.6339
-53.6336
-53.6333
-53.6329
-53.6326
-53.6322
-53.6318
-53.6314
-53.631
-53.6306
-53.6302
-53.6298
-53.6293
-53.6289
-53.6284
-53.628
-53.6275
-53.627
-53.6265
-53.626
-53.6255
-53.625
-53.6245
-53.624
-53.6234
-53.6229
-53.6223
-53.6218
-53.6212
-53.6206
-53.62
-53.6195
-53.6189
-53.6183
-53.6177
-53.6171
-53.6164
-53.6158
-53.6152
-53.6146
-53.6139
-53.6133
-53.6127
-53.612
-53.6114
-53.6107
-53.61
-53.6094
-53.6087
-53.608
-53.6074
-53.6067
-53.606
-53.6053
-53.6046
-53.6039
-53.6033
-53.6026
-53.6019
-53.6012
-53.6005
-53.5998
-53.5991
-53.5984
-53.5977
-53.597
-53.5963
-53.5956
-53.5948
-53.5941
-53.5934
-53.5927
-53.592
-53.5913
-53.5906
-53.5899
-53.5892
-53.5885
-53.5878
-53.5871
-53.5864
-53.5857
-53.585
-53.5843
-53.5836
-53.5829
-53.5822
-53.5815
-53.5808
-53.5801
-53.5794
-53.5787
-53.578
-53.5773
-53.5767
-53.576
-53.5753
-53.5746
-53.574
-53.5733
-53.5726
-53.572
-53.5713
-53.5707
-53.57
-53.5694
-53.5687
-53.5681
-53.5674
-53.5668
-53.5662
-53.5656
-53.5649
-53.5643
-53.5637
-53.5631
-53.5625
-53.5619
-53.5613
-53.5607
-53.5601
-53.5595
-53.559
-53.5584
-53.5578
-53.5573
-53.5567
-53.5561
-53.5556
-53.555
-53.5545
-53.554
-53.5534
-53.5529
-53.5524
-53.5519
-53.5514
-53.5509
-53.5504
-53.5499
-53.5494
-53.5489
-53.5484
-53.548
-53.5475
-53.547
-53.5466
-53.5461
-53.5457
-53.5453
-53.5448
-53.5444
-53.544
-53.5436
-53.5432
-53.5427
-53.5423
-53.542
-53.5416
-53.5412
-53.5408
-53.5404
-53.5401
-53.5397
-53.5394
-53.539
-53.5387
-53.5383
-53.538
-53.5377
-53.5374
-53.5371
-53.5367
-53.5364
-53.5361
-53.5359
-53.5356
-53.5353
-53.535
-53.5347
-53.5345
-53.5342
-53.534
-53.5337
-53.5335
-53.5333
-53.533
-53.5328
-53.5326
-53.5324
-53.5322
-53.5319
-53.5318
-53.5316
-53.5314
-53.5312
-53.531
-53.5308
-53.5307
-53.5305
-53.5303
-53.5302
-53.53
-53.5299
-53.5298
-53.5296
-53.5295
-53.5294
-53.5293
-53.5291
-53.529
-53.5289
-53.5288
-53.5287
-53.5286
-53.5286
-53.5285
-53.5284
-53.5283
-53.5282
-53.5282
-53.5281
-53.5281
-53.528
-53.528
-53.5279
-53.5279
-53.5278
-53.5278
-53.5278
-53.5277
-53.5277
-53.5277
-53.5277
-53.5277
-53.5277
-53.5277
-53.5277
-53.5277
-53.5277
-53.5277
-53.5277
-53.5277
-53.5277
-53.5277
-53.5278
-53.5278
-53.5278
-53.5278
-53.5279
-53.5279
-53.528
-53.528
-53.528
-53.5281
-53.5281
-53.5282
-53.5282
-53.5283
-53.5284
-53.5284
-53.5285
-53.5285
-53.5286
-53.5287
-53.5288
-53.5288
-53.5289
-53.529
-53.5291
-53.5291
-53.5292
-53.5293
-53.5294
-53.5295
-53.5296
-53.5297
-53.5298
-53.5298
-53.5299
-53.53
-53.5301
-53.5302
-53.5303
-53.5304
-53.5305
-53.5306
-53.5307
-53.5308
-53.5309
-53.531
-53.5311
-53.5313
-53.5314
-53.5315
-53.5316
-53.5317
-53.5318
-53.5319
-53.532
-53.5321
-53.5322
-53.5323
-53.5325
-53.5326
-53.5327
-53.5328
-53.5329
-53.533
-53.5331
-53.5332
-53.5333
-53.5335
-53.5336
-53.5337
-53.5338
-53.5339
-53.534
-53.5341
-53.5342
-53.5343
-53.5344
-53.5345
-53.5347
-53.5348
-53.5349
-53.535
-53.5351
-53.5352
-53.5353
-53.5354
-53.5355
-53.5356
-53.5357
-53.5358
-53.5359
-53.536
-53.5361
-53.5362
-53.5363
-53.5364
-53.5365
-53.5366
-53.5367
-53.5367
-53.5368
-53.5369
-53.537
-53.5371
-53.5372
-53.5373
-53.5373
-53.5374
-53.5375
-53.5376
-53.5377
-53.5377
-53.5378
-53.5379
-53.538
-53.538
-53.5381
-53.5382
-53.5382
-53.5383
-53.5384
-53.5384
-53.5385
-53.5385
-53.5386
-53.5387
-53.5387
-53.5388
-53.5388
-53.5389
-53.5389
-53.539
-53.539
-53.5391
-53.5391
-53.5391
-53.5392
-53.5392
-53.5393
-53.5393
-53.5393
-53.5394
-53.5394
-53.5394
-53.5394
-53.5395
-53.5395
-53.5395
-53.5395
-53.5396
-53.5396
-53.5396
-53.5396
-53.5396
-53.5396
-53.5396
-53.5397
-53.5397
-53.5397
-53.5397
-53.5397
-53.5397
-53.5397
-53.5397
-53.5397
-53.5397
-53.5397
-53.5396
-53.5396
-53.5396
-53.5396
-53.5396
-53.5396
-53.5396
-53.5395
-53.5395
-53.5395
-53.5395
-53.5395
-53.5394
-53.5394
-53.5394
-53.5393
-53.5393
-53.5393
-53.5392
-53.5392
-53.5392
-53.5391
-53.5391
-53.539
-53.539
-53.539
-53.5389
-53.5389
-53.5388
-53.5388
-53.5387
-53.5387
-53.5386
-53.5386
-53.5385
-53.5384
-53.5384
-53.5383
-53.5383
-53.5382
-53.5381
-53.5381
-53.538
-53.538
-53.5379
-53.5378
-53.5378
-53.5377
-53.5376
-53.5375
-53.5375
-53.5374
-53.5373
-53.5372
-53.5372
-53.5371
-53.537
-53.5369
-53.5369
-53.5368
-53.5367
-53.5366
-53.5365
-53.5364
-53.5364
-53.5363
-53.5362
-53.5361
-53.536
-53.5359
-53.5358
-53.5357
-53.5356
-53.5356
-53.5355
-53.5354
-53.5353
-53.5352
-53.5351
-53.535
-53.5349
-53.5348
-53.5347
-53.5346
-53.5345
-53.5344
-53.5343
-53.5342
-53.5341
-53.534
-53.5339
-53.5338
-53.5337
-53.5336
-53.5335
-53.5334
-53.5333
-53.5332
-53.5331
-53.533
-53.5329
-53.5328
-53.5327
-53.5326
-53.5325
-53.5324
-53.5323
-53.5322
-53.5321
-53.532
-53.5319
-53.5318
-53.5317
-53.5315
-53.5314
-53.5313
-53.5312
-53.5311
-53.531
-53.5309
-53.5308
-53.5307
-53.5306
-53.5305
-53.5304
-53.5303
-53.5302
-53.5301
-53.53
-53.5299
-53.5298
-53.5297
-53.5296
-53.5295
-53.5294
-53.5292
-53.5291
-53.529
-53.5289
-53.5288
-53.5287
-53.5286
-53.5285
-53.5284
-53.5283
-53.5282
-53.5281
-53.528
-53.5279
-53.5278
-53.5277
-53.5276
-53.5275
-53.5274
-53.5273
-53.5272
-53.5271
-53.527
-53.5269
-53.5268
-53.5268
-53.5267
-53.5266
-53.5265
-53.5264
-53.5263
-53.5262
-53.5261
-53.526
-53.5259
-53.5258
-53.5257
-53.5256
-53.5255
-53.5255
-53.5254
-53.5253
-53.5252
-53.5251
-53.525
-53.5249
-53.5248
-53.5248
-53.5247
-53.5246
-53.5245
-53.5244
-53.5243
-53.5243
-53.5242
-53.5241
-53.524
-53.5239
-53.5239
-53.5238
-53.5237
-53.5236
-53.5235
-53.5235
-53.5234
-53.5233
-53.5232
-53.5232
-53.5231
-53.523
-53.5229
-53.5229
-53.5228
-53.5227
-53.5227
-53.5226
-53.5225
-53.5224
-53.5224
-53.5223
-53.5222
-53.5222
-53.5221
-53.522
-53.522
-53.5219
-53.5218
-53.5218
-53.5217
-53.5217
-53.5216
-53.5215
-53.5215
-53.5214
-53.5214
-53.5213
-53.5212
-53.5212
-53.5211
-53.5211
-53.521
-53.521
-53.5209
-53.5208
-53.5208
-53.5207
-53.5207
-53.5206
-53.5206
-53.5205
-53.5205
-53.5204
-53.5204
-53.5203
-53.5203
-53.5202
-53.5202
-53.5201
-53.5201
-53.52
-53.52
-53.5199
-53.5199
-53.5199
-53.5198
-53.5198
-53.5197
-53.5197
-53.5196
-53.5196
-53.5196
-53.5195
-53.5195
-53.5194
-53.5194
-53.5194
-53.5193
-53.5193
-53.5192
-53.5192
-53.5192
-53.5191
-53.5191
-53.5191
-53.519
-53.519
-53.519
-53.5189
-53.5189
-53.5189
-53.5188
-53.5188
-53.5188
-53.5187
-53.5187
-53.5187
-53.5186
-53.5186
-53.5186
-53.5185
-53.5185
-53.5185
-53.5184
-53.5184
-53.5184
-53.5184
-53.5183
-53.5183
-53.5183
-53.5182
-53.5182
-53.5182
-53.5182
-53.5181
-53.5181
-53.5181
-53.5181
-53.518
-53.518
-53.518
-53.518
-53.5179
-53.5179
-53.5179
-53.5179
-53.5178
-53.5178
-53.5178
-53.5178
-53.5178
-53.5177
-53.5177
-53.5177
-53.5177
-53.5176
-53.5176
-53.5176
-53.5176
-71.5355

