-58.4897
-58.4897
-58.4897
-58.4897
-58.4897
-58.4897
-58.4897
-58.4897
-58.4897
-58.4897
-58.4897
-58.4897
-58.4897
-58.4897
-58.4897
-58.4897
-58.4897
-58.4897
-58.4897
-58.4897
-58.4897
-58.4897
-58.4897
-58.4897
-58.4896
-58.4896
-58.4895
-58.4894
-58.4893
-58.4892
-58.489
-58.4888
-58.4885
-58.4882
-58.4878
-58.4874
-58.4868
-58.4862
-58.4855
-58.4846
-58.4836
-58.4824
-58.4811
-58.4796
-58.4779
-58.476
-58.4739
-58.4715
-58.4687
-58.4657
-58.4623
-58.4585
-58.4543
-58.4495
-58.4443
-58.4383
-58.4317
-58.4243
-58.416
-58.4066
-58.3961
-58.3843
-58.3709
-58.3557
-58.3386
-58.3192
-58.2971
-58.272
-58.2433
-58.2107
-58.1735
-58.131
-58.0824
-58.0268
-57.9632
-57.8904
-57.8069
-57.7112
-57.6016
-57.4758
-57.3315
-57.1661
-56.9762
-56.7584
-56.5084
-56.2216
-55.8925
-55.5149
-55.0816
-54.5846
-54.0144
-53.3605
-52.6106
-51.7508
-50.7654
-49.6362
-48.3427
-46.8618
-45.1672
-43.2291
-41.0144
-38.4859
-35.6026
-32.3191
-28.5866
-24.3529
-19.5646
-14.1692
-8.12182
-1.39737
5.97894
13.8597
21.8421
29.2052
35.2456
39.7347
42.814
44.7073
45.6168
45.7127
45.1385
44.0158
42.4484
40.5259
38.3257
35.9157
33.3559
30.6989
27.9913
25.2732
22.578
19.9317
17.3516
14.8461
12.4137
10.0433
7.71408
5.39695
3.05536
0.646763
-1.87563
-4.56088
-7.45825
-10.6148
-14.0712
-17.8554
-21.9717
-26.3862
-31.0133
-35.7101
-40.2944
-44.5857
-48.4536
-51.841
-54.7547
-57.2376
-59.3451
-61.1321
-62.648
-63.9356
-65.0309
-65.9644
-66.7615
-67.4436
-68.0284
-68.5307
-68.9629
-69.3354
-69.6568
-69.9346
-70.1748
-70.3827
-70.5625
-70.7181
-70.8526
-70.9686
-71.0684
-71.1541
-71.2272
-71.2893
-71.3416
-71.3851
-71.4208
-71.4494
-71.4718
-71.4885
-71.5
-71.5068
-71.5094
-71.508
-71.503
-71.4948
-71.4835
-71.4693
-71.4525
-71.4333
-71.4118
-71.3881
-71.3624
-71.3348
-71.3055
-71.2744
-71.2417
-71.2075
-71.1718
-71.1347
-71.0963
-71.0567
-71.0158
-70.9738
-70.9306
-70.8864
-70.8412
-70.7949
-70.7477
-70.6996
-70.6506
-70.6007
-70.55
-70.4984
-70.4462
-70.3931
-70.3394
-70.2849
-70.2297
-70.174
-70.1175
-70.0605
-70.0029
-69.9446
-69.8859
-69.8266
-69.7668
-69.7065
-69.6457
-69.5845
-69.5228
-69.4606
-69.3981
-69.3352
-69.2718
-69.2081
-69.1441
-69.0797
-69.015
-68.95
-68.8846
-68.819
-68.7532
-68.687
-68.6206
-68.554
-68.4871
-68.4201
-68.3528
-68.2853
-68.2177
-68.1499
-68.0819
-68.0138
-67.9456
-67.8772
-67.8087
-67.7402
-67.6715
-67.6027
-67.5338
-67.4649
-67.3959
-67.3268
-67.2577
-67.1886
-67.1194
-67.0502
-66.981
-66.9118
-66.8426
-66.7734
-66.7042
-66.635
-66.5658
-66.4967
-66.4276
-66.3585
-66.2895
-66.2206
-66.1517
-66.0829
-66.0141
-65.9454
-65.8768
-65.8083
-65.7399
-65.6716
-65.6033
-65.5352
-65.4672
-65.3993
-65.3315
-65.2639
-65.1963
-65.1289
-65.0617
-64.9945
-64.9276
-64.8607
-64.794
-64.7275
-64.6611
-64.5948
-64.5288
-64.4628
-64.3971
-64.3315
-64.2661
-64.2009
-64.1359
-64.071
-64.0063
-63.9418
-63.8775
-63.8134
-63.7495
-63.6858
-63.6223
-63.559
-63.4958
-63.4329
-63.3702
-63.3077
-63.2454
-63.1834
-63.1215
-63.0599
-62.9985
-62.9373
-62.8763
-62.8155
-62.755
-62.6947
-62.6346
-62.5748
-62.5152
-62.4558
-62.3966
-62.3377
-62.279
-62.2206
-62.1624
-62.1045
-62.0467
-61.9893
-61.932
-61.8751
-61.8183
-61.7618
-61.7056
-61.6496
-61.5939
-61.5384
-61.4832
-61.4282
-61.3734
-61.319
-61.2648
-61.2108
-61.1571
-61.1037
-61.0505
-60.9975
-60.9449
-60.8925
-60.8404
-60.7885
-60.7369
-60.6855
-60.6344
-60.5836
-60.5331
-60.4828
-60.4328
-60.383
-60.3336
-60.2844
-60.2354
-60.1868
-60.1384
-60.0902
-60.0424
-59.9948
-59.9475
-59.9005
-59.8537
-59.8072
-59.761
-59.7151
-59.6694
-59.624
-59.5789
-59.5341
-59.4895
-59.4452
-59.4012
-59.3575
-59.3141
-59.2709
-59.228
-59.1854
-59.1431
-59.101
-59.0592
-59.0178
-58.9765
-58.9356
-58.895
-58.8546
-58.8145
-58.7747
-58.7352
-58.6959
-58.6569
-58.6183
-58.5799
-58.5417
-58.5039
-58.4663
-58.4291
-58.3921
-58.3554
-58.3189
-58.2828
-58.2469
-58.2113
-58.176
-58.141
-58.1062
-58.0718
-58.0376
-58.0037
-57.9701
-57.9367
-57.9037
-57.8709
-57.8384
-57.8062
-57.7743
-57.7426
-57.7112
-57.6802
-57.6493
-57.6188
-57.5886
-57.5586
-57.5289
-57.4995
-57.4703
-57.4415
-57.4129
-57.3846
-57.3565
-57.3288
-57.3013
-57.2741
-57.2471
-57.2205
-57.1941
-57.168
-57.1421
-57.1166
-57.0913
-57.0663
-57.0415
-57.017
-56.9928
-56.9689
-56.9452
-56.9218
-56.8986
-56.8757
-56.8531
-56.8308
-56.8087
-56.7869
-56.7653
-56.744
-56.723
-56.7022
-56.6817
-56.6615
-56.6415
-56.6217
-56.6023
-56.583
-56.5641
-56.5454
-56.5269
-56.5087
-56.4907
-56.473
-56.4556
-56.4384
-56.4214
-56.4047
-56.3882
-56.372
-56.356
-56.3403
-56.3248
-56.3095
-56.2945
-56.2797
-56.2652
-56.2509
-56.2368
-56.223
-56.2093
-56.196
-56.1828
-56.1699
-56.1572
-56.1447
-56.1325
-56.1205
-56.1087
-56.0971
-56.0857
-56.0746
-56.0636
-56.0529
-56.0424
-56.0321
-56.0221
-56.0122
-56.0025
-55.9931
-55.9838
-55.9748
-55.966
-55.9573
-55.9489
-55.9406
-55.9326
-55.9247
-55.917
-55.9095
-55.9023
-55.8951
-55.8882
-55.8815
-55.8749
-55.8686
-55.8624
-55.8564
-55.8505
-55.8449
-55.8394
-55.8341
-55.8289
-55.824
-55.8191
-55.8145
-55.81
-55.8057
-55.8015
-55.7975
-55.7937
-55.79
-55.7865
-55.7831
-55.7798
-55.7767
-55.7738
-55.771
-55.7683
-55.7658
-55.7634
-55.7612
-55.7591
-55.7571
-55.7553
-55.7536
-55.752
-55.7505
-55.7492
-55.748
-55.7469
-55.746
-55.7451
-55.7444
-55.7438
-55.7433
-55.7429
-55.7426
-55.7424
-55.7424
-55.7424
-55.7425
-55.7428
-55.7431
-55.7436
-55.7441
-55.7447
-55.7454
-55.7463
-55.7472
-55.7481
-55.7492
-55.7504
-55.7516
-55.7529
-55.7543
-55.7558
-55.7574
-55.759
-55.7607
-55.7625
-55.7643
-55.7662
-55.7682
-55.7702
-55.7723
-55.7745
-55.7767
-55.779
-55.7814
-55.7838
-55.7862
-55.7887
-55.7913
-55.7939
-55.7965
-55.7992
-55.802
-55.8048
-55.8076
-55.8105
-55.8134
-55.8163
-55.8193
-55.8224
-55.8254
-55.8285
-55.8316
-55.8348
-55.838
-55.8412
-55.8444
-55.8477
-55.851
-55.8543
-55.8576
-55.861
-55.8643
-55.8677
-55.8712
-55.8746
-55.878
-55.8815
-55.8849
-55.8884
-55.8919
-55.8954
-55.8989
-55.9024
-55.906
-55.9095
-55.913
-55.9166
-55.9201
-55.9236
-55.9272
-55.9307
-55.9343
-55.9378
-55.9413
-55.9449
-55.9484
-55.9519
-55.9554
-55.9589
-55.9624
-55.9659
-55.9694
-55.9729
-55.9764
-55.9798
-55.9832
-55.9867
-55.9901
-55.9935
-55.9969
-56.0002
-56.0036
-56.0069
-56.0102
-56.0135
-56.0168
-56.0201
-56.0233
-56.0265
-56.0297
-56.0329
-56.0361
-56.0392
-56.0423
-56.0454
-56.0485
-56.0515
-56.0545
-56.0575
-56.0605
-56.0634
-56.0663
-56.0692
-56.0721
-56.0749
-56.0777
-56.0805
-56.0832
-56.0859
-56.0886
-56.0913
-56.0939
-56.0965
-56.0991
-56.1016
-56.1041
-56.1066
-56.109
-56.1114
-56.1138
-56.1162
-56.1185
-56.1208
-56.123
-56.1253
-56.1275
-56.1296
-56.1318
-56.1339
-56.1359
-56.1379
-56.1399
-56.1419
-56.1438
-56.1457
-56.1476
-56.1494
-56.1513
-56.153
-56.1548
-56.1565
-56.1581
-56.1598
-56.1614
-56.1629
-56.1645
-56.166
-56.1674
-56.1689
-56.1703
-56.1717
-56.173
-56.1743
-56.1756
-56.1768
-56.178
-56.1792
-56.1804
-56.1815
-56.1826
-56.1836
-56.1846
-56.1856
-56.1866
-56.1875
-56.1884
-56.1893
-56.1901
-56.1909
-56.1917
-56.1924
-56.1931
-56.1938
-56.1944
-56.1951
-56.1957
-56.1962
-56.1967
-56.1972
-56.1977
-56.1982
-56.1986
-56.199
-56.1993
-56.1997
-56.2
-56.2003
-56.2005
-56.2007
-56.2009
-56.2011
-56.2012
-56.2014
-56.2015
-56.2015
-56.2016
-56.2016
-56.2016
-56.2015
-56.2015
-56.2014
-56.2013
-56.2012
-56.201
-56.2008
-56.2006
-56.2004
-56.2002
-56.1999
-56.1996
-56.1993
-56.199
-56.1987
-56.1983
-56.1979
-56.1975
-56.197
-56.1966
-56.1961
-56.1956
-56.1951
-56.1946
-56.1941
-56.1935
-56.1929
-56.1923
-56.1917
-56.1911
-56.1904
-56.1897
-56.1891
-56.1884
-56.1876
-56.1869
-56.1862
-56.1854
-56.1846
-56.1838
-56.183
-56.1822
-56.1814
-56.1805
-56.1797
-56.1788
-56.1779
-56.177
-56.1761
-56.1752
-56.1743
-56.1733
-56.1724
-56.1714
-56.1704
-56.1694
-56.1684
-56.1674
-56.1664
-56.1654
-56.1643
-56.1633
-56.1622
-56.1612
-56.1601
-56.159
-56.1579
-56.1568
-56.1557
-56.1546
-56.1535
-56.1524
-56.1513
-56.1501
-56.149
-56.1478
-56.1467
-56.1455
-56.1444
-56.1432
-56.142
-56.1409
-56.1397
-56.1385
-56.1373
-56.1361
-56.1349
-56.1337
-56.1325
-56.1313
-56.1301
-56.1289
-56.1277
-56.1265
-56.1253
-56.124
-56.1228
-56.1216
-56.1204
-56.1192
-56.1179
-56.1167
-56.1155
-56.1143
-56.113
-56.1118
-56.1106
-56.1094
-56.1081
-56.1069
-56.1057
-56.1045
-56.1033
-56.102
-56.1008
-56.0996
-56.0984
-56.0972
-56.096
-56.0948
-56.0936
-56.0924
-56.0912
-56.09
-56.0888
-56.0876
-56.0864
-56.0852
-56.084
-56.0828
-56.0817
-56.0805
-56.0793
-56.0782
-56.077
-56.0758
-56.0747
-56.0735
-56.0724
-56.0713
-56.0701
-56.069
-56.0679
-56.0668
-56.0656
-56.0645
-56.0634
-56.0623
-56.0612
-56.0602
-56.0591
-56.058
-56.0569
-56.0559
-56.0548
-56.0537
-56.0527
-56.0517
-56.0506
-56.0496
-56.0486
-56.0475
-56.0465
-56.0455
-56.0445
-56.0435
-56.0426
-56.0416
-56.0406
-56.0396
-56.0387
-56.0377
-56.0368
-56.0358
-56.0349
-56.034
-56.0331
-56.0322
-56.0313
-56.0304
-56.0295
-56.0286
-56.0277
-56.0269
-56.026
-56.0251
-56.0243
-56.0235
-56.0226
-56.0218
-56.021
-56.0202
-56.0194
-56.0186
-56.0178
-56.017
-56.0162
-56.0155
-56.0147
-56.014
-56.0132
-56.0125
-56.0118
-56.011
-56.0103
-56.0096
-56.0089
-56.0082
-56.0075
-56.0069
-56.0062
-56.0055
-56.0049
-56.0042
-56.0036
-56.003
-56.0023
-56.0017
-56.0011
-56.0005
-55.9999
-55.9993
-55.9987
-55.9982
-55.9976
-55.997
-55.9965
-55.9959
-55.9954
-55.9949
-55.9943
-55.9938
-55.9933
-55.9928
-55.9923
-55.9918
-55.9913
-55.9908
-55.9904
-55.9899
-55.9895
-55.989
-55.9886
-55.9881
-55.9877
-55.9873
-55.9868
-55.9864
-55.986
-55.9856
-55.9852
-55.9849
-55.9845
-55.9841
-55.9837
-55.9834
-55.983
-55.9827
-55.9823
-55.982
-55.9817
-55.9813
-55.981
-55.9807
-55.9804
-55.9801
-55.9798
-55.9795
-55.9792
-55.9789
-55.9787
-55.9784
-55.9781
-55.9779
-55.9776
-55.9774
-55.9771
-55.9769
-55.9767
-55.9765
-55.9762
-55.976
-55.9758
-55.9756
-55.9754
-55.9752
-55.975
-55.9748
-55.9746
-55.9745
-55.9743
-55.9741
-55.974
-55.9738
-55.9737
-55.9735
-55.9734
-55.9732
-55.9731
-55.973
-55.9728
-55.9727
-55.9726
-55.9725
-55.9724
-55.9722
-55.9721
-55.972
-55.9719
-55.9718
-55.9718
-55.9717
-55.9716
-55.9715
-55.9714
-55.9714
-55.9713
-55.9712
-55.9712
-55.9711
-55.9711
-55.971
-55.971
-55.9709
-55.9709
-55.9708
-55.9708
-55.9708
-55.9707
-55.9707
-55.9707
-55.9707
-55.9706
-55.9706
-55.9706
-55.9706
-55.9706
-55.9706
-55.9706
-55.9706
-55.9706
-55.9706
-55.9706
-55.9706
-55.9706
-55.9706
-55.9706
-55.9706
-55.9706
-55.9707
-55.9707
-55.9707
-55.9707
-55.9708
-55.9708
-55.9708
-55.9709
-55.9709
-55.9709
-55.971
-55.971
-55.971
-55.9711
-55.9711
-55.9712
-55.9712
-55.9713
-55.9713
-55.9714
-55.9714
-55.9715
-55.9715
-55.9716
-55.9716
-55.9717
-55.9717
-55.9718
-55.9719
-55.9719
-55.972
-55.9721
-55.9721
-55.9722
-55.9723
-55.9723
-55.9724
-55.9725
-55.9725
-55.9726
-55.9727
-55.9727
-55.9728
-55.9729
-55.973
-55.973
-55.9731
-55.9732
-55.9733
-55.9733
-55.9734
-55.9735
-55.9736
-55.9736
-55.9737
-55.9738
-55.9739
-55.9739
-55.974
-55.9741
-55.9742
-55.9743
-55.9743
-55.9744
-55.9745
-55.9746
-55.9747
-55.9747
-55.9748
-55.9749
-55.975
-55.9751
-55.9751
-55.9752
-55.9753
-55.9754
-55.9755
-55.9755
-55.9756
-55.9757
-55.9758
-55.9759
-55.9759
-55.976
-55.9761
-55.9762
-55.9763
-55.9763
-55.9764
-55.9765
-55.9766
-55.9767
-55.9767
-55.9768
-55.9769
-55.977
-55.977
-55.9771
-55.9772
-55.9773
-55.9774
-55.9774
-55.9775
-55.9776
-55.9777
-55.9777
-55.9778
-55.9779
-55.9779
-55.978
-55.9781
-55.9782
-55.9782
-55.9783
-55.9784
-55.9784
-55.9785
-55.9786
-55.9787
-55.9787
-55.9788
-55.9789
-55.9789
-55.979
-55.9791
-55.9791
-55.9792
-55.9793
-55.9793
-55.9794
-55.9795
-55.9795
-55.9796
-55.9796
-55.9797
-55.9798
-55.9798
-55.9799
-55.9799
-55.98
-55.9801
-55.9801
-55.9802
-55.9802
-55.9803
-55.9804
-55.9804
-55.9805
-55.9805
-55.9806
-55.9806
-55.9807
-55.9807
-55.9808
-55.9808
-55.9809
-55.981
-55.981
-55.9811
-55.9811
-55.9812
-55.9812
-55.9813
-55.9813
-55.9814
-55.9814
-55.9815
-55.9815
-55.9815
-55.9816
-55.9816
-55.9817
-55.9817
-55.9818
-55.9818
-55.9819
-55.9819
-55.982
-55.982
-55.982
-55.9821
-55.9821
-55.9822
-55.9822
-55.9822
-55.9823
-55.9823
-55.9824
-55.9824
-55.9824
-55.9825
-55.9825
-55.9826
-55.9826
-55.9826
-55.9827
-55.9827
-55.9828
-55.9828
-55.9828
-55.9829
-55.9829
-55.9829
-55.983
-55.983
-55.983
-55.9831
-55.9831
-55.9831
-55.9832
-55.9832
-55.9832
-55.9833
-55.9833
-55.9833
-55.9834
-55.9834
-55.9834
-55.9835
-55.9835
-55.9835
-55.9836
-55.9836
-55.9836
-55.9837
-55.9837
-55.9837
-55.9838
-55.9838
-55.9838
-55.9839
-55.9839
-55.9839
-55.984
-55.984
-55.984
-55.984
-55.9841
-55.9841
-55.9841
-55.9842
-55.9842
-55.9842
-55.9843
-55.9843
-55.9843
-55.9843
-55.9844
-55.9844
-55.9844
-55.9845
-55.9845
-55.9845
-55.9846
-55.9846
-55.9846
-55.9847
-55.9847
-55.9847
-55.9847
-55.9848
-55.9848
-55.9848
-55.9849
-55.9849
-55.9849
-55.985
-55.985
-55.985
-55.9851
-55.9851
-55.9851
-55.9852
-55.9852
-55.9852
-55.9852
-55.9853
-55.9853
-55.9853
-55.9854
-55.9854
-55.9854
-55.9855
-55.9855
-55.9855
-55.9856
-55.9856
-55.9856
-55.9857
-55.9857
-55.9857
-55.9858
-55.9858
-55.9859
-55.9859
-55.9859
-55.986
-55.986
-55.986
-55.9861
-55.9861
-55.9861
-55.9862
-55.9862
-55.9863
-55.9863
-55.9863
-55.9864
-55.9864
-55.9864
-55.9865
-55.9865
-55.9866
-55.9866
-55.9866
-55.9867
-55.9867
-55.9868
-55.9868
-55.9868
-55.9869
-55.9869
-55.987
-55.987
-55.9871
-55.9871
-55.9871
-55.9872
-55.9872
-55.9873
-55.9873
-55.9874
-55.9874
-55.9875
-55.9875
-55.9875
-55.9876
-55.9876
-55.9877
-55.9877
-55.9878
-55.9878
-55.9879
-55.9879
-55.988
-55.988
-55.9881
-55.9881
-55.9882
-55.9882
-55.9883
-55.9883
-55.9884
-55.9884
-55.9885
-55.9885
-55.9886
-55.9886
-55.9887
-55.9887
-55.9888
-55.9888
-55.9889
-55.9889
-55.989
-55.9891
-55.9891
-55.9892
-55.9892
-55.9893
-55.9893
-55.9894
-55.9895
-55.9895
-55.9896
-55.9896
-55.9897
-55.9897
-55.9898
-55.9899
-55.9899
-55.99
-55.99
-55.9901
-55.9902
-55.9902
-55.9903
-55.9904
-55.9904
-55.9905
-55.9905
-55.9906
-55.9907
-55.9907
-55.9908
-55.9909
-55.9909
-55.991
-55.9911
-55.9911
-55.9912
-55.9913
-55.9913
-55.9914
-55.9915
-55.9915
-55.9916
-55.9917
-55.9917
-55.9918
-55.9919
-55.9919
-55.992
-55.9921
-55.9921
-55.9922
-55.9923
-55.9924
-55.9924
-55.9925
-55.9926
-55.9927
-55.9927
-55.9928
-55.9929
-55.9929
-55.993
-55.9931
-55.9932
-55.9932
-55.9933
-55.9934
-55.9935
-55.9935
-55.9936
-55.9937
-55.9938
-55.9938
-55.9939
-55.994
-55.9941
-55.9942
-55.9942
-55.9943
-55.9944
-55.9945
-55.9946
-55.9946
-55.9947
-55.9948
-55.9949
-55.995
-55.995
-55.9951
-55.9952
-55.9953
-55.9954
-55.9954
-55.9955
-55.9956
-55.9957
-55.9958
-55.9959
-55.9959
-55.996
-55.9961
-55.9962
-55.9963
-55.9964
-55.9964
-55.9965
-55.9966
-55.9967
-55.9968
-55.9969
-55.997
-55.997
-55.9971
-55.9972
-55.9973
-55.9974
-55.9975
-55.9976
-55.9977
-55.9977
-55.9978
-55.9979
-55.998
-55.9981
-55.9982
-55.9983
-55.9984
-55.9985
-55.9985
-55.9986
-55.9987
-55.9988
-55.9989
-55.999
-55.9991
-55.9992
-55.9993
-55.9994
-55.9995
-55.9995
-55.9996
-55.9997
-55.9998
-55.9999
-56
-56.0001
-56.0002
-56.0003
-56.0004
-56.0005
-56.0006
-56.0007
-56.0008
-56.0009
-56.0009
-56.001
-56.0011
-56.0012
-56.0013
-56.0014
-56.0015
-56.0016
-56.0017
-56.0018
-56.0019
-56.002
-56.0021
-56.0022
-56.0023
-56.0024
-56.0025
-56.0026
-56.0027
-56.0028
-56.0029
-56.003
-56.0031
-56.0031
-56.0032
-56.0033
-56.0034
-56.0035
-56.0036
-56.0037
-56.0038
-56.0039
-56.004
-56.0041
-56.0042
-56.0043
-56.0044
-56.0045
-56.0046
-56.0047
-56.0048
-56.0049
-56.005
-56.0051
-56.0052
-56.0053
-56.0054
-56.0055
-56.0056
-56.0057
-56.0058
-56.0059
-56.006
-56.0061
-56.0062
-56.0063
-56.0064
-56.0065
-56.0066
-56.0067
-56.0068
-56.0069
-56.007
-56.0071
-56.0072
-56.0073
-56.0074
-56.0075
-56.0076
-56.0077
-56.0078
-56.0079
-56.008
-56.0081
-56.0083
-56.0084
-56.0085
-56.0086
-56.0087
-56.0088
-56.0089
-56.009
-56.0091
-56.0092
-56.0093
-56.0094
-56.0095
-56.0096
-56.0097
-56.0098
-56.0099
-56.01
-56.0101
-56.0102
-56.0103
-56.0104
-56.0105
-56.0106
-56.0107
-56.0108
-56.0109
-56.011
-56.0111
-56.0113
-56.0114
-56.0115
-56.0116
-56.0117
-56.0118
-56.0119
-56.012
-56.0121
-56.0122
-56.0123
-56.0124
-56.0125
-56.0126
-56.0127
-56.0128
-56.0129
-56.013
-56.0131
-56.0133
-56.0134
-56.0135
-56.0136
-56.0137
-56.0138
-56.0139
-56.014
-56.0141
-56.0142
-56.0143
-56.0144
-56.0145
-56.0146
-56.0147
-56.0148
-56.015
-56.0151
-56.0152
-56.0153
-56.0154
-56.0155
-56.0156
-56.0157
-56.0158
-56.0159
-56.016
-56.0161
-56.0162
-56.0164
-56.0165
-56.0166
-56.0167
-56.0168
-56.0169
-56.017
-56.0171
-56.0172
-56.0173
-56.0174
-56.0175
-56.0177
-56.0178
-56.0179
-56.018
-56.0181
-56.0182
-56.0183
-56.0184
-56.0185
-56.0186
-56.0187
-56.0189
-56.019
-56.0191
-56.0192
-56.0193
-56.0194
-56.0195
-56.0196
-56.0197
-56.0198
-56.0199
-56.0201
-56.0202
-56.0203
-56.0204
-56.0205
-56.0206
-56.0207
-56.0208
-56.0209
-56.021
-56.0212
-56.0213
-56.0214
-56.0215
-56.0216
-56.0217
-56.0218
-56.0219
-56.022
-56.0222
-56.0223
-56.0224
-56.0225
-56.0226
-56.0227
-56.0228
-56.0229
-56.023
-56.0232
-56.0233
-56.0234
-56.0235
-56.0236
-56.0237
-56.0238
-56.0239
-56.0241
-56.0242
-56.0243
-56.0244
-56.0245
-56.0246
-56.0247
-56.0248
-56.025
-56.0251
-56.0252
-56.0253
-56.0254
-56.0255
-56.0256
-56.0258
-56.0259
-56.026
-56.0261
-56.0262
-56.0263
-56.0264
-56.0265
-56.0267
-56.0268
-56.0269
-56.027
-56.0271
-56.0272
-56.0273
-56.0275
-56.0276
-56.0277
-56.0278
-56.0279
-56.028
-56.0281
-56.0283
-56.0284
-56.0285
-56.0286
-56.0287
-56.0288
-56.0289
-56.0291
-56.0292
-56.0293
-56.0294
-56.0295
-56.0296
-56.0298
-56.0299
-56.03
-56.0301
-56.0302
-56.0303
-56.0305
-56.0306
-56.0307
-56.0308
-56.0309
-56.031
-56.0311
-56.0313
-56.0314
-56.0315
-56.0316
-56.0317
-56.0318
-56.032
-56.0321
-56.0322
-56.0323
-56.0324
-56.0326
-56.0327
-56.0328
-56.0329
-56.033
-56.0331
-56.0333
-56.0334
-56.0335
-56.0336
-56.0337
-56.0338
-56.034
-56.0341
-56.0342
-56.0343
-56.0344
-56.0346
-56.0347
-56.0348
-56.0349
-56.035
-56.0351
-56.0353
-56.0354
-56.0355
-56.0356
-56.0357
-71.5094

