-58.4437
-58.4437
-58.4437
-58.4437
-58.4437
-58.4437
-58.4437
-58.4437
-58.4437
-58.4437
-58.4437
-58.4437
-58.4437
-58.4437
-58.4437
-58.4437
-58.4437
-58.4437
-58.4437
-58.4437
-58.4437
-58.4437
-58.4437
-58.4437
-58.4437
-58.4437
-58.4436
-58.4436
-58.4436
-58.4435
-58.4434
-58.4433
-58.4432
-58.4431
-58.4429
-58.4427
-58.4424
-58.4421
-58.4417
-58.4413
-58.4408
-58.4402
-58.4395
-58.4387
-58.4378
-58.4368
-58.4357
-58.4344
-58.4329
-58.4312
-58.4294
-58.4273
-58.4251
-58.4225
-58.4197
-58.4166
-58.4132
-58.4093
-58.4051
-58.4005
-58.3953
-58.3897
-58.3834
-58.3764
-58.3687
-58.3602
-58.3508
-58.3403
-58.3287
-58.3157
-58.3013
-58.2852
-58.2672
-58.2471
-58.2247
-58.1995
-58.1713
-58.1397
-58.1042
-58.0643
-58.0194
-57.9689
-57.9121
-57.8482
-57.7761
-57.6948
-57.6033
-57.5
-57.3835
-57.252
-57.1037
-56.9364
-56.7475
-56.5343
-56.2937
-56.0221
-55.7155
-55.3695
-54.9789
-54.5382
-54.0408
-53.4796
-52.8465
-52.1323
-51.3268
-50.4186
-49.3948
-48.2412
-46.9415
-45.4781
-43.831
-41.9784
-39.8959
-37.5569
-34.9323
-31.9906
-28.6981
-25.0191
-20.9171
-16.3559
-11.3029
-5.73357
0.357839
6.93701
13.8852
20.9347
27.6651
33.6859
38.8481
43.204
46.8651
49.9394
52.5199
54.6854
56.5028
58.0286
59.3105
60.3884
61.2953
62.059
62.702
63.2434
63.6989
64.0816
64.4026
64.6709
64.8945
65.0799
65.2326
65.3573
65.458
65.538
65.6003
65.6473
65.6811
65.7033
65.7156
65.7193
65.7153
65.7047
65.6883
65.6668
65.6407
65.6107
65.577
65.5401
65.5004
65.458
65.4133
65.3664
65.3175
65.2668
65.2144
65.1604
65.105
65.0481
64.9899
64.9305
64.8698
64.808
64.745
64.6809
64.6158
64.5496
64.4824
64.4142
64.3449
64.2747
64.2035
64.1313
64.0581
63.984
63.9089
63.8328
63.7557
63.6777
63.5987
63.5187
63.4377
63.3557
63.2728
63.1888
63.1038
63.0178
62.9308
62.8428
62.7537
62.6636
62.5724
62.4801
62.3868
62.2925
62.197
62.1005
62.0028
61.9041
61.8042
61.7032
61.6011
61.4978
61.3934
61.2878
61.181
61.0731
60.964
60.8537
60.7422
60.6295
60.5156
60.4004
60.284
60.1664
60.0475
59.9273
59.8059
59.6832
59.5592
59.4339
59.3073
59.1795
59.0502
58.9197
58.7879
58.6546
58.5201
58.3842
58.2469
58.1083
57.9683
57.8269
57.6841
57.5399
57.3943
57.2473
57.0989
56.949
56.7977
56.645
56.4909
56.3352
56.1782
56.0197
55.8597
55.6982
55.5353
55.3709
55.205
55.0376
54.8687
54.6983
54.5264
54.353
54.1781
54.0017
53.8237
53.6443
53.4633
53.2807
53.0967
52.9111
52.724
52.5353
52.3451
52.1533
51.96
51.7652
51.5688
51.3708
51.1713
50.9703
50.7677
50.5635
50.3578
50.1505
49.9417
49.7313
49.5194
49.306
49.0909
48.8744
48.6562
48.4366
48.2154
47.9926
47.7683
47.5425
47.3152
47.0863
46.8559
46.6239
46.3904
46.1555
45.919
45.681
45.4415
45.2005
44.958
44.714
44.4685
44.2215
43.9731
43.7232
43.4718
43.219
42.9647
42.709
42.4519
42.1933
41.9333
41.6719
41.409
41.1448
40.8792
40.6122
40.3438
40.0741
39.803
39.5305
39.2567
38.9816
38.7051
38.4274
38.1483
37.8679
37.5862
37.3033
37.0191
36.7336
36.4469
36.159
35.8698
35.5794
35.2878
34.995
34.701
34.4058
34.1095
33.812
33.5134
33.2136
32.9127
32.6107
32.3076
32.0034
31.6981
31.3917
31.0843
30.7758
30.4663
30.1558
29.8442
29.5316
29.218
28.9035
28.5879
28.2714
27.9539
27.6354
27.316
26.9957
26.6744
26.3522
26.0291
25.7051
25.3802
25.0544
24.7277
24.4002
24.0717
23.7424
23.4123
23.0813
22.7494
22.4167
22.0831
21.7487
21.4135
21.0774
20.7404
20.4027
20.0641
19.7247
19.3844
19.0433
18.7014
18.3586
18.0149
17.6705
17.3251
16.9789
16.6318
16.2839
15.9351
15.5853
15.2347
14.8832
14.5307
14.1773
13.823
13.4676
13.1113
12.7541
12.3958
12.0364
11.6761
11.3147
10.9522
10.5886
10.2238
9.858
9.49099
9.1228
8.75341
8.3828
8.01096
7.63785
7.26346
6.88777
6.51076
6.13241
5.7527
5.37163
4.98916
4.60529
4.22001
3.83331
3.44518
3.05561
2.66461
2.27217
1.87829
1.48299
1.08627
0.68815
0.288643
-0.11223
-0.514444
-0.91797
-1.32278
-1.72883
-2.13609
-2.54452
-2.95407
-3.36469
-3.77634
-4.18896
-4.6025
-5.0169
-5.4321
-5.84805
-6.26468
-6.68193
-7.09974
-7.51804
-7.93678
-8.35588
-8.77528
-9.19491
-9.61472
-10.0346
-10.4546
-10.8745
-11.2943
-11.714
-12.1334
-12.5525
-12.9713
-13.3897
-13.8075
-14.2249
-14.6416
-15.0576
-15.4729
-15.8873
-16.3009
-16.7136
-17.1253
-17.536
-17.9455
-18.3539
-18.761
-19.1669
-19.5715
-19.9746
-20.3763
-20.7766
-21.1752
-21.5723
-21.9678
-22.3615
-22.7535
-23.1437
-23.5321
-23.9186
-24.3032
-24.6859
-25.0665
-25.4451
-25.8217
-26.1962
-26.5686
-26.9388
-27.3068
-27.6726
-28.0362
-28.3975
-28.7565
-29.1133
-29.4677
-29.8198
-30.1695
-30.5169
-30.8619
-31.2045
-31.5447
-31.8826
-32.218
-32.5509
-32.8815
-33.2097
-33.5354
-33.8587
-34.1795
-34.498
-34.814
-35.1276
-35.4387
-35.7475
-36.0538
-36.3578
-36.6593
-36.9585
-37.2553
-37.5497
-37.8417
-38.1314
-38.4187
-38.7037
-38.9864
-39.2667
-39.5448
-39.8205
-40.094
-40.3652
-40.6341
-40.9008
-41.1653
-41.4275
-41.6875
-41.9453
-42.2009
-42.4544
-42.7057
-42.9548
-43.2019
-43.4467
-43.6895
-43.9302
-44.1688
-44.4053
-44.6398
-44.8722
-45.1026
-45.331
-45.5574
-45.7817
-46.0041
-46.2246
-46.443
-46.6596
-46.8742
-47.0869
-47.2977
-47.5066
-47.7137
-47.9188
-48.1222
-48.3236
-48.5233
-48.7212
-48.9172
-49.1115
-49.304
-49.4948
-49.6837
-49.871
-50.0565
-50.2404
-50.4225
-50.6029
-50.7817
-50.9588
-51.1343
-51.3081
-51.4803
-51.6509
-51.8199
-51.9873
-52.1531
-52.3173
-52.48
-52.6412
-52.8008
-52.9589
-53.1155
-53.2706
-53.4243
-53.5764
-53.7271
-53.8764
-54.0242
-54.1705
-54.3155
-54.4591
-54.6012
-54.742
-54.8814
-55.0194
-55.1561
-55.2915
-55.4255
-55.5582
-55.6896
-55.8197
-55.9485
-56.0761
-56.2023
-56.3274
-56.4511
-56.5737
-56.695
-56.8151
-56.934
-57.0517
-57.1682
-57.2835
-57.3977
-57.5107
-57.6226
-57.7333
-57.8429
-57.9514
-58.0588
-58.165
-58.2702
-58.3743
-58.4774
-58.5794
-58.6803
-58.7802
-58.879
-58.9768
-59.0736
-59.1694
-59.2642
-59.358
-59.4509
-59.5427
-59.6336
-59.7236
-59.8125
-59.9006
-59.9877
-60.0739
-60.1592
-60.2436
-60.327
-60.4096
-60.4913
-60.5722
-60.6521
-60.7312
-60.8095
-60.8869
-60.9635
-61.0392
-61.1142
-61.1883
-61.2616
-61.3341
-61.4058
-61.4768
-61.5469
-61.6163
-61.685
-61.7528
-61.82
-61.8864
-61.952
-62.0169
-62.0812
-62.1447
-62.2074
-62.2695
-62.3309
-62.3916
-62.4517
-62.511
-62.5697
-62.6277
-62.6851
-62.7418
-62.7979
-62.8533
-62.9081
-62.9623
-63.0159
-63.0689
-63.1212
-63.1729
-63.2241
-63.2747
-63.3246
-63.374
-63.4229
-63.4711
-63.5188
-63.5659
-63.6125
-63.6586
-63.7041
-63.749
-63.7935
-63.8374
-63.8808
-63.9236
-63.966
-64.0079
-64.0492
-64.0901
-64.1305
-64.1704
-64.2098
-64.2487
-64.2872
-64.3252
-64.3627
-64.3998
-64.4364
-64.4726
-64.5083
-64.5436
-64.5784
-64.6129
-64.6469
-64.6804
-64.7136
-64.7463
-64.7787
-64.8106
-64.8421
-64.8732
-64.904
-64.9343
-64.9642
-64.9938
-65.023
-65.0518
-65.0803
-65.1083
-65.136
-65.1634
-65.1904
-65.217
-65.2433
-65.2693
-65.2949
-65.3201
-65.345
-65.3696
-65.3939
-65.4178
-65.4414
-65.4647
-65.4877
-65.5104
-65.5327
-65.5548
-65.5765
-65.598
-65.6191
-65.64
-65.6605
-65.6808
-65.7008
-65.7205
-65.7399
-65.759
-65.7779
-65.7965
-65.8148
-65.8329
-65.8507
-65.8682
-65.8855
-65.9025
-65.9192
-65.9358
-65.952
-65.968
-65.9838
-65.9993
-66.0146
-66.0297
-66.0445
-66.0591
-66.0735
-66.0876
-66.1015
-66.1152
-66.1287
-66.142
-66.155
-66.1678
-66.1804
-66.1928
-66.205
-66.217
-66.2288
-66.2404
-66.2518
-66.263
-66.274
-66.2848
-66.2954
-66.3058
-66.3161
-66.3261
-66.336
-66.3457
-66.3552
-66.3645
-66.3737
-66.3827
-66.3915
-66.4001
-66.4086
-66.4169
-66.425
-66.433
-66.4408
-66.4485
-66.4559
-66.4633
-66.4705
-66.4775
-66.4844
-66.4911
-66.4977
-66.5041
-66.5104
-66.5165
-66.5225
-66.5283
-66.534
-66.5396
-66.545
-66.5503
-66.5555
-66.5605
-66.5654
-66.5702
-66.5748
-66.5793
-66.5837
-66.5879
-66.5921
-66.5961
-66.5999
-66.6037
-66.6074
-66.6109
-66.6143
-66.6176
-66.6208
-66.6238
-66.6268
-66.6296
-66.6323
-66.635
-66.6375
-66.6399
-66.6422
-66.6444
-66.6465
-66.6485
-66.6504
-66.6522
-66.6539
-66.6555
-66.657
-66.6584
-66.6597
-66.6609
-66.662
-66.663
-66.664
-66.6648
-66.6656
-66.6662
-66.6668
-66.6673
-66.6677
-66.668
-66.6683
-66.6684
-66.6685
-66.6685
-66.6684
-66.6683
-66.668
-66.6677
-66.6673
-66.6668
-66.6663
-66.6656
-66.6649
-66.6641
-66.6633
-66.6624
-66.6614
-66.6603
-66.6592
-66.658
-66.6567
-66.6554
-66.654
-66.6525
-66.651
-66.6494
-66.6477
-66.646
-66.6442
-66.6424
-66.6405
-66.6385
-66.6365
-66.6344
-66.6322
-66.63
-66.6278
-66.6254
-66.6231
-66.6206
-66.6181
-66.6156
-66.613
-66.6103
-66.6076
-66.6049
-66.6021
-66.5992
-66.5963
-66.5934
-66.5903
-66.5873
-66.5842
-66.581
-66.5778
-66.5746
-66.5713
-66.5679
-66.5646
-66.5611
-66.5576
-66.5541
-66.5506
-66.547
-66.5433
-66.5396
-66.5359
-66.5321
-66.5283
-66.5244
-66.5206
-66.5166
-66.5126
-66.5086
-66.5046
-66.5005
-66.4964
-66.4922
-66.488
-66.4838
-66.4795
-66.4752
-66.4709
-66.4665
-66.4621
-66.4576
-66.4532
-66.4486
-66.4441
-66.4395
-66.4349
-66.4303
-66.4256
-66.4209
-66.4162
-66.4114
-66.4066
-66.4018
-66.397
-66.3921
-66.3872
-66.3822
-66.3773
-66.3723
-66.3673
-66.3622
-66.3571
-66.352
-66.3469
-66.3418
-66.3366
-66.3314
-66.3262
-66.3209
-66.3156
-66.3104
-66.305
-66.2997
-66.2943
-66.2889
-66.2835
-66.2781
-66.2726
-66.2671
-66.2616
-66.2561
-66.2506
-66.245
-66.2394
-66.2338
-66.2282
-66.2225
-66.2169
-66.2112
-66.2055
-66.1998
-66.194
-66.1883
-66.1825
-66.1767
-66.1709
-66.165
-66.1592
-66.1533
-66.1474
-66.1415
-66.1356
-66.1297
-66.1238
-66.1178
-66.1118
-66.1058
-66.0998
-66.0938
-66.0877
-66.0817
-66.0756
-66.0695
-66.0634
-66.0573
-66.0512
-66.0451
-66.0389
-66.0327
-66.0266
-66.0204
-66.0142
-66.0079
-66.0017
-65.9955
-65.9892
-65.983
-65.9767
-65.9704
-65.9641
-65.9578
-65.9514
-65.9451
-65.9388
-65.9324
-65.926
-65.9197
-65.9133
-65.9069
-65.9005
-65.894
-65.8876
-65.8812
-65.8747
-65.8683
-65.8618
-65.8553
-65.8488
-65.8423
-65.8358
-65.8293
-65.8228
-65.8163
-65.8098
-65.8032
-65.7967
-65.7901
-65.7835
-65.777
-65.7704
-65.7638
-65.7572
-65.7506
-65.744
-65.7374
-65.7307
-65.7241
-65.7175
-65.7108
-65.7042
-65.6975
-65.6909
-65.6842
-65.6775
-65.6708
-65.6642
-65.6575
-65.6508
-65.6441
-65.6374
-65.6307
-65.6239
-65.6172
-65.6105
-65.6038
-65.597
-65.5903
-65.5835
-65.5768
-65.57
-65.5633
-65.5565
-65.5498
-65.543
-65.5362
-65.5294
-65.5227
-65.5159
-65.5091
-65.5023
-65.4955
-65.4887
-65.4819
-65.4751
-65.4683
-65.4615
-65.4547
-65.4478
-65.441
-65.4342
-65.4274
-65.4205
-65.4137
-65.4069
-65.4
-65.3932
-65.3864
-65.3795
-65.3727
-65.3658
-65.359
-65.3521
-65.3453
-65.3384
-65.3316
-65.3247
-65.3178
-65.311
-65.3041
-65.2972
-65.2904
-65.2835
-65.2766
-65.2698
-65.2629
-65.256
-65.2491
-65.2423
-65.2354
-65.2285
-65.2216
-65.2148
-65.2079
-65.201
-65.1941
-65.1872
-65.1804
-65.1735
-65.1666
-65.1597
-65.1528
-65.1459
-65.1391
-65.1322
-65.1253
-65.1184
-65.1115
-65.1046
-65.0978
-65.0909
-65.084
-65.0771
-65.0702
-65.0633
-65.0565
-65.0496
-65.0427
-65.0358
-65.0289
-65.0221
-65.0152
-65.0083
-65.0014
-64.9945
-64.9877
-64.9808
-64.9739
-64.967
-64.9601
-64.9533
-64.9464
-64.9395
-64.9326
-64.9258
-64.9189
-64.912
-64.9052
-64.8983
-64.8914
-64.8846
-64.8777
-64.8708
-64.864
-64.8571
-64.8502
-64.8434
-64.8365
-64.8296
-64.8228
-64.8159
-64.8091
-64.8022
-64.7954
-64.7885
-64.7817
-64.7748
-64.768
-64.7611
-64.7543
-64.7474
-64.7406
-64.7338
-64.7269
-64.7201
-64.7132
-64.7064
-64.6996
-64.6927
-64.6859
-64.6791
-64.6723
-64.6654
-64.6586
-64.6518
-64.645
-64.6382
-64.6314
-64.6246
-64.6177
-64.6109
-64.6041
-64.5973
-64.5905
-64.5837
-64.5769
-64.5701
-64.5634
-64.5566
-64.5498
-64.543
-64.5362
-64.5294
-64.5227
-64.5159
-64.5091
-64.5023
-64.4956
-64.4888
-64.482
-64.4753
-64.4685
-64.4618
-64.455
-64.4483
-64.4415
-64.4348
-64.428
-64.4213
-64.4145
-64.4078
-64.4011
-64.3943
-64.3876
-64.3809
-64.3741
-64.3674
-64.3607
-64.354
-64.3473
-64.3406
-64.3338
-64.3271
-64.3204
-64.3137
-64.307
-64.3003
-64.2936
-64.287
-64.2803
-64.2736
-64.2669
-64.2602
-64.2536
-64.2469
-64.2402
-64.2335
-64.2269
-64.2202
-64.2136
-64.2069
-64.2002
-64.1936
-64.187
-64.1803
-64.1737
-64.167
-64.1604
-64.1538
-64.1471
-64.1405
-64.1339
-64.1273
-64.1207
-64.114
-64.1074
-64.1008
-64.0942
-64.0876
-64.081
-64.0744
-64.0678
-64.0612
-64.0547
-64.0481
-64.0415
-64.0349
-64.0284
-64.0218
-64.0152
-64.0087
-64.0021
-63.9955
-63.989
-63.9824
-63.9759
-63.9694
-63.9628
-63.9563
-63.9498
-63.9432
-63.9367
-63.9302
-63.9236
-63.9171
-63.9106
-63.9041
-63.8976
-63.8911
-63.8846
-63.8781
-63.8716
-63.8651
-63.8586
-63.8521
-63.8456
-63.8392
-63.8327
-63.8262
-63.8197
-63.8133
-63.8068
-63.8003
-63.7939
-63.7874
-63.781
-63.7745
-63.7681
-63.7616
-63.7552
-63.7488
-63.7423
-63.7359
-63.7295
-63.723
-63.7166
-63.7102
-63.7038
-63.6974
-63.691
-63.6846
-63.6782
-63.6718
-63.6654
-63.659
-63.6526
-63.6462
-63.6398
-63.6334
-63.6271
-63.6207
-63.6143
-63.6079
-63.6016
-63.5952
-63.5889
-63.5825
-63.5762
-63.5698
-63.5635
-63.5571
-63.5508
-63.5445
-63.5381
-63.5318
-63.5255
-63.5192
-63.5129
-63.5065
-63.5002
-63.4939
-63.4876
-63.4813
-63.475
-63.4687
-63.4624
-63.4562
-63.4499
-63.4436
-63.4373
-63.431
-63.4248
-63.4185
-63.4122
-63.406
-63.3997
-63.3935
-63.3872
-63.381
-63.3747
-63.3685
-63.3622
-63.356
-63.3498
-63.3436
-63.3373
-63.3311
-63.3249
-63.3187
-63.3125
-63.3063
-63.3
-63.2938
-63.2876
-63.2815
-63.2753
-63.2691
-63.2629
-63.2567
-63.2505
-63.2444
-63.2382
-63.232
-63.2259
-63.2197
-63.2135
-63.2074
-63.2012
-63.1951
-63.1889
-63.1828
-63.1767
-63.1705
-63.1644
-63.1583
-63.1521
-63.146
-63.1399
-63.1338
-63.1277
-63.1216
-63.1155
-63.1094
-63.1033
-63.0972
-63.0911
-63.085
-63.0789
-63.0729
-63.0668
-63.0607
-63.0546
-63.0486
-63.0425
-63.0365
-63.0304
-63.0244
-63.0183
-63.0123
-63.0062
-63.0002
-62.9942
-62.9881
-62.9821
-62.9761
-62.9701
-62.964
-62.958
-62.952
-62.946
-62.94
-62.934
-62.928
-62.922
-62.916
-62.91
-62.9041
-62.8981
-62.8921
-62.8861
-62.8802
-62.8742
-62.8682
-62.8623
-62.8563
-62.8504
-62.8444
-62.8385
-62.8325
-62.8266
-62.8206
-62.8147
-62.8088
-62.8029
-62.7969
-62.791
-62.7851
-62.7792
-62.7733
-62.7674
-62.7615
-62.7556
-62.7497
-62.7438
-62.7379
-62.732
-62.7261
-62.7202
-62.7143
-62.7085
-62.7026
-62.6967
-62.6909
-62.685
-62.6791
-62.6733
-62.6674
-62.6616
-62.6557
-62.6499
-62.644
-62.6382
-62.6324
-62.6265
-62.6207
-62.6149
-62.6091
-62.6032
-62.5974
-62.5916
-62.5858
-62.58
-62.5742
-62.5684
-62.5626
-62.5568
-62.551
-62.5452
-62.5394
-62.5337
-62.5279
-62.5221
-62.5163
-62.5106
-62.5048
-62.499
-62.4933
-62.4875
-62.4818
-62.476
-62.4703
-62.4645
-62.4588
-62.453
-62.4473
-62.4416
-62.4359
-62.4301
-62.4244
-62.4187
-62.413
-62.4073
-62.4015
-62.3958
-62.3901
-62.3844
-62.3787
-62.373
-62.3673
-62.3617
-62.356
-62.3503
-62.3446
-62.3389
-62.3333
-62.3276
-62.3219
-62.3163
-62.3106
-62.3049
-62.2993
-62.2936
-62.288
-62.2823
-62.2767
-62.271
-62.2654
-62.2598
-62.2541
-62.2485
-62.2429
-62.2373
-62.2317
-62.226
-62.2204
-62.2148
-62.2092
-62.2036
-62.198
-62.1924
-62.1868
-62.1812
-62.1757
-62.1701
-62.1645
-62.1589
-62.1533
-62.1478
-62.1422
-62.1366
-62.1311
-62.1255
-62.12
-62.1144
-62.1089
-62.1033
-62.0978
-62.0922
-62.0867
-62.0812
-62.0757
-62.0701
-62.0646
-62.0591
-62.0536
-62.0481
-62.0425
-62.037
-62.0315
-62.026
-62.0205
-62.015
-62.0096
-62.0041
-61.9986
-61.9931
-61.9876
-61.9822
-61.9767
-61.9712
-61.9657
-61.9603
-61.9548
-61.9494
-61.9439
-61.9385
-61.933
-61.9276
-61.9221
-61.9167
-61.9113
-61.9058
-61.9004
-61.895
-61.8896
-61.8841
-61.8787
-61.8733
-61.8679
-61.8625
-61.8571
-61.8517
-61.8463
-61.8409
-61.8355
-61.8301
-61.8247
-61.8193
-61.814
-61.8086
-61.8032
-61.7978
-61.7925
-61.7871
-61.7818
-61.7764
-61.771
-61.7657
-61.7603
-61.755
-61.7497
-61.7443
-61.739
-61.7337
-61.7283
-61.723
-61.7177
-61.7124
-61.707
-61.7017
-61.6964
-61.6911
-61.6858
-61.6805
-61.6752
-61.6699
-61.6646
-61.6593
-61.654
-61.6488
-61.6435
-61.6382
-61.6329
-61.6276
-61.6224
-61.6171
-61.6118
-61.6066
-61.6013
-61.5961
-61.5908
-61.5856
-61.5803
-61.5751
-61.5698
-61.5646
-61.5594
-61.5541
-61.5489
-61.5437
-61.5384
-61.5332
-61.528
-61.5228
-61.5176
-61.5124
-61.5072
-61.502
-61.4968
-61.4916
-61.4864
-61.4812
-61.476
-61.4708
-61.4656
-61.4604
-61.4553
-61.4501
-61.4449
-61.4397
-61.4346
-61.4294
-61.4242
-61.4191
-61.4139
-61.4088
-61.4036
-61.3985
-61.3933
-61.3882
-61.383
-61.3779
-61.3728
-61.3676
-61.3625
-61.3574
-61.3523
-61.3471
-61.342
-61.3369
-61.3318
-61.3267
-61.3216
-61.3165
-61.3114
-61.3063
-61.3012
-61.2961
-61.291
-61.2859
-61.2808
-61.2757
-61.2707
-61.2656
-61.2605
-61.2554
-61.2504
-61.2453
-61.2403
-61.2352
-61.2301
-61.2251
-61.22
-61.215
-61.21
-61.2049
-61.1999
-61.1948
-61.1898
-61.1848
-61.1798
-61.1747
-61.1697
-61.1647
-61.1597
-61.1547
-61.1497
-61.1447
-61.1397
-61.1347
-61.1297
-61.1247
-61.1197
-61.1147
-61.1097
-61.1047
-61.0997
-61.0948
-61.0898
-61.0848
-61.0799
-61.0749
-61.0699
-61.065
-61.06
-61.0551
-61.0501
-61.0452
-61.0402
-61.0353
-61.0304
-61.0254
-61.0205
-61.0156
-61.0107
-61.0057
-61.0008
-60.9959
-60.991
-60.9861
-60.9812
-60.9763
-60.9714
-60.9665
-60.9616
-60.9567
-60.9518
-60.9469
-60.942
-60.9371
-60.9323
-60.9274
-60.9225
-60.9176
-60.9128
-60.9079
-60.9031
-60.8982
-60.8933
-60.8885
-60.8836
-60.8788
-60.874
-60.8691
-60.8643
-60.8594
-60.8546
-60.8498
-60.845
-60.8401
-60.8353
-60.8305
-60.8257
-60.8209
-60.8161
-60.8113
-60.8065
-60.8017
-60.7969
-60.7921
-60.7873
-60.7825
-60.7777
-60.7729
-60.7682
-60.7634
-60.7586
-60.7538
-60.7491
-60.7443
-60.7396
-60.7348
-60.73
-60.7253
-60.7205
-60.7158
-60.7111
-60.7063
-60.7016
-60.6969
-60.6921
-60.6874
-60.6827
-60.678
-60.6732
-60.6685
-60.6638
-60.6591
-60.6544
-60.6497
-60.645
-60.6403
-60.6356
-60.6309
-60.6263
-60.6216
-60.6169
-60.6122
-60.6075
-60.6029
-60.5982
-60.5935
-66.6685

