-58.4437
-58.4437
-58.4437
-58.4437
-58.4437
-58.4437
-58.4437
-58.4437
-58.4437
-58.4437
-58.4437
-58.4437
-58.4437
-58.4437
-58.4437
-58.4437
-58.4437
-58.4437
-58.4437
-58.4437
-58.4437
-58.4437
-58.4437
-58.4437
-58.4437
-58.4437
-58.4437
-58.4437
-58.4437
-58.4437
-58.4437
-58.4437
-58.4437
-58.4437
-58.4437
-58.4437
-58.4437
-58.4437
-58.4437
-58.4437
-58.4436
-58.4436
-58.4436
-58.4435
-58.4435
-58.4435
-58.4434
-58.4433
-58.4433
-58.4432
-58.4431
-58.4429
-58.4428
-58.4426
-58.4425
-58.4422
-58.442
-58.4417
-58.4414
-58.4411
-58.4407
-58.4403
-58.4398
-58.4393
-58.4387
-58.438
-58.4373
-58.4365
-58.4356
-58.4346
-58.4335
-58.4322
-58.4309
-58.4294
-58.4277
-58.4258
-58.4238
-58.4215
-58.4189
-58.4161
-58.413
-58.4095
-58.4056
-58.4013
-58.3965
-58.3911
-58.3851
-58.3784
-58.371
-58.3626
-58.3533
-58.3429
-58.3312
-58.3182
-58.3036
-58.2872
-58.2689
-58.2484
-58.2254
-58.1996
-58.1707
-58.1382
-58.1019
-58.0611
-58.0153
-57.9639
-57.9063
-57.8416
-57.769
-57.6875
-57.596
-57.4933
-57.3781
-57.2487
-57.1035
-56.9405
-56.7575
-56.5521
-56.3215
-56.0627
-55.7722
-55.4461
-55.0802
-54.6695
-54.2085
-53.6913
-53.1109
-52.4598
-51.7293
-50.91
-49.9911
-48.9607
-47.8055
-46.5109
-45.0603
-43.4356
-41.6165
-39.5811
-37.3048
-34.7613
-31.9217
-28.7553
-25.2294
-21.3101
-16.9632
-12.1557
-6.85982
-1.06083
5.22459
11.9105
18.7828
25.4702
31.5687
36.8654
41.3705
45.184
48.4116
51.1457
53.4639
55.4314
57.1027
58.5237
59.7327
60.7621
61.6391
62.3866
63.0239
63.5673
64.0306
64.4255
64.762
65.0484
65.2918
65.4983
65.6732
65.8207
65.9447
66.0484
66.1345
66.2054
66.263
66.3092
66.3454
66.3729
66.3928
66.406
66.4134
66.4156
66.4133
66.4069
66.397
66.384
66.3682
66.3498
66.3292
66.3065
66.282
66.2558
66.2281
66.199
66.1687
66.1371
66.1044
66.0708
66.0361
66.0006
65.9642
65.9269
65.8889
65.8502
65.8107
65.7706
65.7298
65.6883
65.6462
65.6034
65.5601
65.5161
65.4715
65.4264
65.3806
65.3343
65.2874
65.2399
65.1919
65.1433
65.0941
65.0443
64.994
64.943
64.8915
64.8395
64.7868
64.7336
64.6798
64.6254
64.5704
64.5148
64.4586
64.4018
64.3444
64.2864
64.2277
64.1685
64.1087
64.0482
63.9871
63.9253
63.8629
63.7999
63.7363
63.672
63.607
63.5414
63.4751
63.4081
63.3405
63.2722
63.2032
63.1335
63.0631
62.9921
62.9203
62.8479
62.7747
62.7008
62.6262
62.5509
62.4748
62.398
62.3205
62.2422
62.1632
62.0835
62.003
61.9217
61.8397
61.7569
61.6733
61.5889
61.5038
61.4179
61.3312
61.2437
61.1554
61.0663
60.9764
60.8857
60.7942
60.7018
60.6086
60.5146
60.4198
60.3241
60.2276
60.1303
60.0321
59.9331
59.8332
59.7324
59.6308
59.5283
59.425
59.3208
59.2157
59.1097
59.0029
58.8951
58.7865
58.677
58.5666
58.4552
58.343
58.2299
58.1159
58.001
57.8851
57.7684
57.6507
57.5321
57.4126
57.2921
57.1708
57.0485
56.9252
56.8011
56.676
56.5499
56.423
56.295
56.1662
56.0364
55.9056
55.7739
55.6413
55.5077
55.3731
55.2376
55.1011
54.9637
54.8253
54.686
54.5457
54.4045
54.2622
54.1191
53.9749
53.8299
53.6838
53.5368
53.3888
53.2399
53.09
52.9391
52.7873
52.6345
52.4808
52.3261
52.1704
52.0138
51.8562
51.6977
51.5382
51.3778
51.2164
51.054
50.8907
50.7265
50.5613
50.3951
50.228
50.06
49.891
49.7211
49.5503
49.3785
49.2058
49.0322
48.8576
48.6821
48.5057
48.3284
48.1501
47.971
47.7909
47.6099
47.428
47.2452
47.0616
46.877
46.6915
46.5052
46.3179
46.1298
45.9408
45.751
45.5602
45.3686
45.1762
44.9829
44.7887
44.5937
44.3979
44.2012
44.0037
43.8054
43.6062
43.4062
43.2054
43.0038
42.8014
42.5982
42.3943
42.1895
41.9839
41.7776
41.5705
41.3626
41.154
40.9447
40.7345
40.5237
40.3121
40.0998
39.8867
39.673
39.4585
39.2433
39.0274
38.8109
38.5936
38.3757
38.1571
37.9378
37.7179
37.4973
37.2761
37.0543
36.8318
36.6087
36.3849
36.1606
35.9356
35.7101
35.484
35.2573
35.03
34.8021
34.5737
34.3447
34.1152
33.8851
33.6545
33.4234
33.1917
32.9596
32.7269
32.4937
32.2601
32.026
31.7914
31.5563
31.3208
31.0848
30.8483
30.6115
30.3742
30.1365
29.8983
29.6598
29.4208
29.1815
28.9417
28.7016
28.4612
28.2203
27.9791
27.7376
27.4957
27.2534
27.0109
26.768
26.5248
26.2813
26.0375
25.7934
25.5491
25.3044
25.0595
24.8143
24.5689
24.3232
24.0772
23.8311
23.5847
23.3381
23.0912
22.8442
22.5969
22.3495
22.1019
21.854
21.6061
21.3579
21.1096
20.8611
20.6125
20.3637
20.1148
19.8658
19.6166
19.3674
19.118
18.8685
18.6189
18.3692
18.1195
17.8696
17.6197
17.3697
17.1197
16.8696
16.6194
16.3692
16.119
15.8687
15.6184
15.3681
15.1177
14.8674
14.617
14.3667
14.1163
13.866
13.6156
13.3653
13.1151
12.8648
12.6146
12.3645
12.1144
11.8644
11.6144
11.3645
11.1146
10.8649
10.6152
10.3656
10.1162
9.86679
9.61753
9.36838
9.11935
8.87046
8.62169
8.37307
8.1246
7.87628
7.62812
7.38013
7.13231
6.88468
6.63724
6.38999
6.14295
5.89612
5.64952
5.40314
5.157
4.9111
4.66546
4.42009
4.17498
3.93016
3.68563
3.44141
3.19749
2.9539
2.71065
2.46773
2.22517
1.98298
1.74117
1.49975
1.25873
1.01813
0.777948
0.53821
0.298925
0.0601061
-0.178234
-0.416082
-0.653425
-0.890248
-1.12654
-1.36229
-1.59747
-1.83209
-2.06611
-2.29954
-2.53236
-2.76454
-2.9961
-3.22699
-3.45723
-3.68679
-3.91566
-4.14383
-4.37129
-4.59802
-4.82402
-5.04928
-5.27378
-5.49751
-5.72047
-5.94265
-6.16403
-6.38461
-6.60438
-6.82333
-7.04146
-7.25875
-7.4752
-7.69081
-7.90556
-8.11946
-8.33249
-8.54466
-8.75595
-8.96636
-9.1759
-9.38454
-9.5923
-9.79917
-10.0051
-10.2102
-10.4144
-10.6177
-10.82
-11.0215
-11.222
-11.4217
-11.6204
-11.8183
-12.0152
-12.2112
-12.4063
-12.6005
-12.7938
-12.9862
-13.1777
-13.3682
-13.5579
-13.7467
-13.9345
-14.1215
-14.3075
-14.4927
-14.6769
-14.8603
-15.0428
-15.2243
-15.405
-15.5848
-15.7638
-15.9418
-16.119
-16.2952
-16.4707
-16.6452
-16.8189
-16.9917
-17.1636
-17.3347
-17.5049
-17.6742
-17.8427
-18.0104
-18.1772
-18.3431
-18.5082
-18.6725
-18.8359
-18.9985
-19.1603
-19.3212
-19.4813
-19.6406
-19.799
-19.9567
-20.1135
-20.2695
-20.4247
-20.5791
-20.7327
-20.8855
-21.0375
-21.1887
-21.3391
-21.4887
-21.6375
-21.7856
-21.9328
-22.0793
-22.225
-22.3699
-22.5141
-22.6575
-22.8002
-22.942
-23.0832
-23.2235
-23.3631
-23.502
-23.6401
-23.7775
-23.9141
-24.0501
-24.1852
-24.3197
-24.4534
-24.5864
-24.7187
-24.8502
-24.9811
-25.1112
-25.2406
-25.3694
-25.4974
-25.6247
-25.7514
-25.8773
-26.0026
-26.1272
-26.2511
-26.3743
-26.4968
-26.6187
-26.7399
-26.8605
-26.9804
-27.0996
-27.2182
-27.3361
-27.4534
-27.5701
-27.6861
-27.8015
-27.9162
-28.0303
-28.1439
-28.2567
-28.369
-28.4806
-28.5917
-28.7021
-28.812
-28.9212
-29.0299
-29.1379
-29.2454
-29.3523
-29.4586
-29.5643
-29.6694
-29.774
-29.8781
-29.9815
-30.0844
-30.1868
-30.2886
-30.3898
-30.4905
-30.5907
-30.6903
-30.7894
-30.8879
-30.986
-31.0835
-31.1805
-31.277
-31.3729
-31.4684
-31.5633
-31.6578
-31.7517
-31.8452
-31.9381
-32.0306
-32.1226
-32.2141
-32.3051
-32.3956
-32.4857
-32.5753
-32.6645
-32.7531
-32.8413
-32.9291
-33.0164
-33.1033
-33.1897
-33.2756
-33.3611
-33.4462
-33.5309
-33.6151
-33.6988
-33.7822
-33.8651
-33.9476
-34.0297
-34.1114
-34.1927
-34.2735
-34.354
-34.434
-34.5136
-34.5929
-34.6717
-34.7502
-34.8282
-34.9059
-34.9832
-35.0601
-35.1366
-35.2128
-35.2885
-35.3639
-35.439
-35.5136
-35.5879
-35.6618
-35.7354
-35.8086
-35.8815
-35.954
-36.0261
-36.0979
-36.1694
-36.2405
-36.3112
-36.3817
-36.4517
-36.5215
-36.5909
-36.66
-36.7287
-36.7972
-36.8653
-36.933
-37.0005
-37.0676
-37.1345
-37.201
-37.2672
-37.333
-37.3986
-37.4639
-37.5288
-37.5935
-37.6578
-37.7219
-37.7857
-37.8491
-37.9123
-37.9751
-38.0377
-38.1
-38.162
-38.2237
-38.2852
-38.3463
-38.4072
-38.4678
-38.5281
-38.5881
-38.6479
-38.7074
-38.7666
-38.8256
-38.8843
-38.9427
-39.0008
-39.0587
-39.1164
-39.1737
-39.2308
-39.2877
-39.3443
-39.4006
-39.4567
-39.5126
-39.5681
-39.6235
-39.6786
-39.7334
-39.788
-39.8424
-39.8965
-39.9504
-40.004
-40.0574
-40.1106
-40.1635
-40.2162
-40.2687
-40.3209
-40.3729
-40.4247
-40.4763
-40.5276
-40.5787
-40.6296
-40.6802
-40.7306
-40.7808
-40.8308
-40.8806
-40.9302
-40.9795
-41.0286
-41.0775
-41.1262
-41.1747
-41.223
-41.2711
-41.3189
-41.3666
-41.414
-41.4613
-41.5083
-41.5552
-41.6018
-41.6482
-41.6945
-41.7405
-41.7863
-41.832
-41.8774
-41.9227
-41.9678
-42.0126
-42.0573
-42.1018
-42.1461
-42.1902
-42.2341
-42.2778
-42.3214
-42.3647
-42.4079
-42.4509
-42.4937
-42.5364
-42.5788
-42.6211
-42.6632
-42.7051
-42.7468
-42.7884
-42.8298
-42.871
-42.912
-42.9529
-42.9936
-43.0341
-43.0744
-43.1146
-43.1546
-43.1945
-43.2341
-43.2736
-43.313
-43.3522
-43.3912
-43.43
-43.4687
-43.5072
-43.5456
-43.5838
-43.6219
-43.6598
-43.6975
-43.7351
-43.7725
-43.8097
-43.8468
-43.8838
-43.9206
-43.9572
-43.9937
-44.0301
-44.0663
-44.1023
-44.1382
-44.1739
-44.2095
-44.245
-44.2803
-44.3154
-44.3504
-44.3853
-44.42
-44.4546
-44.489
-44.5233
-44.5574
-44.5915
-44.6253
-44.6591
-44.6926
-44.7261
-44.7594
-44.7926
-44.8256
-44.8585
-44.8913
-44.9239
-44.9564
-44.9888
-45.021
-45.0531
-45.0851
-45.1169
-45.1486
-45.1802
-45.2116
-45.243
-45.2741
-45.3052
-45.3361
-45.3669
-45.3976
-45.4282
-45.4586
-45.4889
-45.5191
-45.5492
-45.5791
-45.6089
-45.6386
-45.6682
-45.6976
-45.727
-45.7562
-45.7853
-45.8142
-45.8431
-45.8718
-45.9004
-45.9289
-45.9573
-45.9856
-46.0138
-46.0418
-46.0697
-46.0976
-46.1253
-46.1529
-46.1803
-46.2077
-46.2349
-46.2621
-46.2891
-46.316
-46.3428
-46.3696
-46.3961
-46.4226
-46.449
-46.4753
-46.5015
-46.5275
-46.5535
-46.5793
-46.6051
-46.6307
-46.6563
-46.6817
-46.707
-46.7323
-46.7574
-46.7824
-46.8073
-46.8322
-46.8569
-46.8815
-46.906
-46.9305
-46.9548
-46.979
-47.0031
-47.0272
-47.0511
-47.075
-47.0987
-47.1224
-47.1459
-47.1694
-47.1927
-47.216
-47.2392
-47.2623
-47.2852
-47.3081
-47.3309
-47.3536
-47.3763
-47.3988
-47.4212
-47.4436
-47.4658
-47.488
-47.5101
-47.5321
-47.554
-47.5758
-47.5975
-47.6192
-47.6407
-47.6622
-47.6836
-47.7049
-47.7261
-47.7472
-47.7682
-47.7892
-47.8101
-47.8309
-47.8516
-47.8722
-47.8927
-47.9132
-47.9335
-47.9538
-47.974
-47.9942
-48.0142
-48.0342
-48.0541
-48.0739
-48.0936
-48.1133
-48.1329
-48.1524
-48.1718
-48.1911
-48.2104
-48.2296
-48.2487
-48.2677
-48.2866
-48.3055
-48.3243
-48.343
-48.3617
-48.3803
-48.3988
-48.4172
-48.4356
-48.4538
-48.4721
-48.4902
-48.5083
-48.5263
-48.5442
-48.5621
-48.5798
-48.5975
-48.6152
-48.6328
-48.6503
-48.6677
-48.685
-48.7023
-48.7196
-48.7367
-48.7538
-48.7708
-48.7877
-48.8046
-48.8214
-48.8382
-48.8549
-48.8715
-48.888
-48.9045
-48.9209
-48.9373
-48.9536
-48.9698
-48.9859
-49.002
-49.0181
-49.0341
-49.05
-49.0658
-49.0816
-49.0973
-49.113
-49.1285
-49.1441
-49.1595
-49.1749
-49.1903
-49.2056
-49.2208
-49.236
-49.2511
-49.2661
-49.2811
-49.296
-49.3109
-49.3257
-49.3404
-49.3551
-49.3697
-49.3843
-49.3988
-49.4133
-49.4277
-49.442
-49.4563
-49.4706
-49.4847
-49.4989
-49.5129
-49.527
-49.5409
-49.5548
-49.5687
-49.5825
-49.5962
-49.6099
-49.6235
-49.6371
-49.6506
-49.6641
-49.6775
-49.6908
-49.7041
-49.7174
-49.7306
-49.7438
-49.7568
-49.7699
-49.7829
-49.7958
-49.8087
-49.8216
-49.8344
-49.8471
-49.8598
-49.8725
-49.885
-49.8976
-49.9101
-49.9225
-49.9349
-49.9473
-49.9596
-49.9719
-49.9841
-49.9962
-50.0084
-50.0204
-50.0324
-50.0444
-50.0563
-50.0682
-50.0801
-50.0918
-50.1036
-50.1153
-50.1269
-50.1385
-50.1501
-50.1616
-50.1731
-50.1845
-50.1958
-50.2072
-50.2185
-50.2297
-50.2409
-50.2521
-50.2632
-50.2742
-50.2853
-50.2962
-50.3072
-50.3181
-50.3289
-50.3398
-50.3505
-50.3613
-50.372
-50.3826
-50.3932
-50.4038
-50.4143
-50.4248
-50.4352
-50.4456
-50.456
-50.4663
-50.4766
-50.4869
-50.4971
-50.5072
-50.5174
-50.5275
-50.5375
-50.5475
-50.5575
-50.5674
-50.5773
-50.5872
-50.597
-50.6068
-50.6165
-50.6262
-50.6359
-50.6455
-50.6551
-50.6647
-50.6742
-50.6837
-50.6931
-50.7025
-50.7119
-50.7212
-50.7305
-50.7398
-50.749
-50.7582
-50.7674
-50.7765
-50.7856
-50.7946
-50.8036
-50.8126
-50.8216
-50.8305
-50.8394
-50.8482
-50.857
-50.8658
-50.8746
-50.8833
-50.892
-50.9006
-50.9092
-50.9178
-50.9264
-50.9349
-50.9434
-50.9519
-50.9603
-50.9687
-50.977
-50.9854
-50.9937
-51.0019
-51.0102
-51.0184
-51.0265
-51.0347
-51.0428
-51.0509
-51.0589
-51.0669
-51.0749
-51.0829
-51.0908
-51.0987
-51.1066
-51.1144
-51.1222
-51.13
-51.1377
-51.1455
-51.1531
-51.1608
-51.1684
-51.176
-51.1836
-51.1911
-51.1987
-51.2062
-51.2136
-51.221
-51.2285
-51.2358
-51.2432
-51.2505
-51.2578
-51.2651
-51.2723
-51.2795
-51.2867
-51.2939
-51.301
-51.3081
-51.3152
-51.3222
-51.3293
-51.3363
-51.3432
-51.3502
-51.3571
-51.364
-51.3709
-51.3777
-51.3846
-51.3914
-51.3981
-51.4049
-51.4116
-51.4183
-51.425
-51.4316
-51.4383
-51.4449
-51.4514
-51.458
-51.4645
-51.471
-51.4775
-51.484
-51.4904
-51.4968
-51.5032
-51.5096
-51.5159
-51.5222
-51.5285
-51.5348
-51.541
-51.5473
-51.5535
-51.5596
-51.5658
-51.5719
-51.578
-51.5841
-51.5902
-51.5962
-51.6022
-51.6082
-51.6142
-51.6202
-51.6261
-51.632
-51.6379
-51.6438
-51.6496
-51.6555
-51.6613
-51.667
-51.6728
-51.6785
-51.6843
-51.69
-51.6956
-51.7013
-51.7069
-51.7126
-51.7182
-51.7237
-51.7293
-51.7348
-51.7404
-51.7459
-51.7513
-51.7568
-51.7622
-51.7677
-51.7731
-51.7784
-51.7838
-51.7892
-51.7945
-51.7998
-51.8051
-51.8103
-51.8156
-51.8208
-51.826
-51.8312
-51.8364
-51.8416
-51.8467
-51.8518
-51.857
-51.862
-51.8671
-51.8722
-51.8772
-51.8822
-51.8872
-51.8922
-51.8972
-51.9021
-51.907
-51.912
-51.9168
-51.9217
-51.9266
-51.9314
-51.9363
-51.9411
-51.9459
-51.9506
-51.9554
-51.9602
-51.9649
-51.9696
-51.9743
-51.979
-51.9836
-51.9883
-51.9929
-51.9975
-52.0021
-52.0067
-52.0113
-52.0158
-52.0204
-52.0249
-52.0294
-52.0339
-52.0384
-52.0428
-52.0473
-52.0517
-52.0561
-52.0605
-52.0649
-52.0692
-52.0736
-52.0779
-52.0823
-52.0866
-52.0909
-52.0951
-52.0994
-52.1036
-52.1079
-52.1121
-52.1163
-52.1205
-52.1247
-52.1288
-52.133
-52.1371
-52.1412
-52.1453
-52.1494
-52.1535
-52.1576
-52.1616
-52.1657
-52.1697
-52.1737
-52.1777
-52.1817
-52.1857
-52.1896
-52.1936
-52.1975
-52.2014
-52.2053
-52.2092
-52.2131
-52.217
-52.2208
-52.2247
-52.2285
-52.2323
-52.2361
-52.2399
-52.2437
-52.2475
-52.2512
-52.255
-52.2587
-52.2624
-52.2662
-52.2698
-52.2735
-52.2772
-52.2809
-52.2845
-52.2882
-52.2918
-52.2954
-52.299
-52.3026
-52.3062
-52.3097
-52.3133
-52.3168
-52.3204
-52.3239
-52.3274
-52.3309
-52.3344
-52.3379
-52.3413
-52.3448
-52.3482
-52.3517
-52.3551
-52.3585
-52.3619
-52.3653
-52.3687
-52.3721
-52.3754
-52.3788
-52.3821
-52.3855
-52.3888
-52.3921
-52.3954
-52.3987
-52.402
-52.4052
-52.4085
-52.4117
-52.415
-52.4182
-52.4214
-52.4246
-52.4278
-52.431
-52.4342
-52.4374
-52.4405
-52.4437
-52.4468
-52.4499
-52.4531
-52.4562
-52.4593
-52.4624
-52.4655
-52.4685
-52.4716
-52.4747
-52.4777
-52.4807
-52.4838
-52.4868
-52.4898
-52.4928
-52.4958
-52.4988
-52.5017
-52.5047
-52.5077
-52.5106
-52.5136
-52.5165
-52.5194
-52.5223
-52.5252
-52.5281
-52.531
-52.5339
-52.5367
-52.5396
-52.5425
-52.5453
-52.5481
-52.551
-52.5538
-52.5566
-52.5594
-52.5622
-52.565
-52.5678
-52.5705
-52.5733
-52.576
-52.5788
-52.5815
-52.5843
-52.587
-52.5897
-52.5924
-52.5951
-52.5978
-52.6005
-52.6032
-52.6058
-52.6085
-52.6111
-52.6138
-52.6164
-52.619
-52.6217
-52.6243
-52.6269
-52.6295
-52.6321
-52.6347
-52.6373
-52.6398
-52.6424
-52.645
-52.6475
-52.6501
-52.6526
-52.6551
-52.6576
-52.6602
-52.6627
-52.6652
-52.6677
-52.6702
-52.6726
-52.6751
-52.6776
-52.6801
-52.6825
-52.685
-52.6874
-52.6898
-52.6923
-52.6947
-52.6971
-52.6995
-52.7019
-52.7043
-52.7067
-52.7091
-52.7115
-52.7138
-52.7162
-52.7186
-52.7209
-52.7233
-52.7256
-52.728
-52.7303
-52.7326
-52.7349
-52.7372
-52.7395
-52.7418
-52.7441
-52.7464
-52.7487
-52.751
-52.7533
-52.7555
-52.7578
-52.76
-52.7623
-52.7645
-52.7668
-52.769
-52.7712
-52.7734
-52.7756
-52.7779
-52.7801
-52.7823
-52.7844
-52.7866
-52.7888
-52.791
-52.7932
-52.7953
-52.7975
-52.7996
-52.8018
-52.8039
-52.8061
-52.8082
-52.8103
-52.8125
-52.8146
-52.8167
-52.8188
-52.8209
-52.823
-52.8251
-52.8272
-52.8293
-52.8314
-52.8334
-52.8355
-52.8376
-52.8396
-52.8417
-52.8437
-52.8458
-52.8478
-52.8498
-52.8519
-52.8539
-52.8559
-52.8579
-52.86
-52.862
-52.864
-52.866
-52.868
-52.8699
-52.8719
-52.8739
-52.8759
-52.8779
-52.8798
-52.8818
-52.8837
-52.8857
-52.8876
-52.8896
-52.8915
-52.8935
-52.8954
-52.8973
-52.8993
-52.9012
-52.9031
-52.905
-52.9069
-52.9088
-52.9107
-52.9126
-52.9145
-52.9164
-52.9183
-52.9201
-52.922
-52.9239
-52.9257
-52.9276
-52.9295
-52.9313
-52.9332
-52.935
-52.9369
-52.9387
-52.9405
-52.9424
-52.9442
-52.946
-52.9478
-52.9496
-52.9515
-52.9533
-52.9551
-52.9569
-52.9587
-52.9605
-52.9622
-52.964
-52.9658
-52.9676
-52.9694
-52.9711
-52.9729
-52.9747
-52.9764
-52.9782
-52.9799
-52.9817
-52.9834
-52.9852
-52.9869
-52.9886
-52.9904
-52.9921
-52.9938
-52.9956
-52.9973
-52.999
-53.0007
-53.0024
-53.0041
-53.0058
-53.0075
-53.0092
-53.0109
-53.0126
-53.0143
-53.016
-53.0176
-53.0193
-53.021
-53.0226
-53.0243
-53.026
-53.0276
-53.0293
-53.0309
-53.0326
-53.0342
-53.0359
-53.0375
-53.0392
-53.0408
-53.0424
-53.0441
-53.0457
-53.0473
-53.0489
-53.0505
-53.0521
-53.0538
-53.0554
-53.057
-53.0586
-53.0602
-53.0618
-53.0634
-53.0649
-53.0665
-53.0681
-53.0697
-53.0713
-53.0729
-53.0744
-53.076
-53.0776
-53.0791
-53.0807
-53.0823
-53.0838
-53.0854
-53.0869
-53.0885
-53.09
-53.0916
-53.0931
-53.0946
-53.0962
-53.0977
-53.0992
-53.1008
-53.1023
-53.1038
-53.1053
-53.1069
-53.1084
-53.1099
-53.1114
-53.1129
-53.1144
-53.1159
-53.1174
-53.1189
-53.1204
-53.1219
-53.1234
-53.1249
-53.1264
-53.1278
-53.1293
-53.1308
-53.1323
-53.1338
-53.1352
-53.1367
-53.1382
-53.1396
-53.1411
-53.1426
-53.144
-53.1455
-53.1469
-53.1484
-53.1498
-53.1513
-53.1527
-53.1542
-53.1556
-53.1571
-53.1585
-53.1599
-53.1614
-53.1628
-53.1642
-53.1656
-53.1671
-53.1685
-53.1699
-53.1713
-53.1727
-53.1742
-53.1756
-53.177
-53.1784
-53.1798
-59.6525

