-58.4437
-58.4437
-58.4437
-58.4437
-58.4437
-58.4437
-58.4437
-58.4437
-58.4437
-58.4437
-58.4437
-58.4437
-58.4437
-58.4437
-58.4437
-58.4437
-58.4437
-58.4437
-58.4437
-58.4437
-58.4437
-58.4437
-58.4437
-58.4437
-58.4437
-58.4437
-58.4436
-58.4436
-58.4436
-58.4435
-58.4434
-58.4433
-58.4432
-58.4431
-58.4429
-58.4427
-58.4424
-58.4421
-58.4417
-58.4413
-58.4408
-58.4402
-58.4395
-58.4387
-58.4378
-58.4368
-58.4357
-58.4343
-58.4329
-58.4312
-58.4294
-58.4273
-58.4251
-58.4225
-58.4197
-58.4166
-58.4131
-58.4093
-58.4051
-58.4004
-58.3953
-58.3896
-58.3833
-58.3764
-58.3687
-58.3602
-58.3507
-58.3403
-58.3286
-58.3156
-58.3012
-58.2851
-58.2672
-58.2471
-58.2247
-58.1996
-58.1714
-58.1398
-58.1044
-58.0646
-58.0198
-57.9695
-57.9128
-57.8491
-57.7772
-57.6963
-57.6051
-57.5022
-57.3863
-57.2554
-57.1079
-56.9414
-56.7536
-56.5416
-56.3025
-56.0326
-55.7281
-55.3845
-54.9967
-54.5592
-54.0657
-53.509
-52.881
-52.1728
-51.3744
-50.4743
-49.46
-48.3172
-47.0301
-45.5812
-43.9508
-42.1173
-40.0567
-37.7428
-35.1469
-32.2378
-28.9822
-25.3449
-21.2896
-16.7806
-11.7849
-6.27751
-0.250729
6.26599
13.1644
20.1939
26.9456
33.015
38.2259
42.6159
46.294
49.3686
51.9335
54.0685
55.8411
57.3086
58.519
59.513
60.3242
60.9806
61.5055
61.9182
62.2348
62.4688
62.6315
62.7325
62.7797
62.7801
62.7393
62.6624
62.5536
62.4164
62.2541
62.0692
61.8641
61.6407
61.4009
61.146
60.8776
60.5966
60.3042
60.0013
59.6886
59.367
59.0369
58.6991
58.3541
58.0023
57.6441
57.28
56.9103
56.5354
56.1556
55.7711
55.3822
54.9893
54.5925
54.192
53.7881
53.3809
52.9706
52.5575
52.1416
51.7231
51.3023
50.8791
50.4538
50.0265
49.5972
49.1662
48.7336
48.2994
47.8637
47.4266
46.9883
46.5488
46.1082
45.6666
45.2241
44.7807
44.3365
43.8916
43.446
42.9999
42.5532
42.106
41.6585
41.2105
40.7623
40.3138
39.8651
39.4162
38.9672
38.5182
38.069
37.6199
37.1709
36.7219
36.273
35.8242
35.3756
34.9272
34.4791
34.0312
33.5836
33.1363
32.6893
32.2427
31.7965
31.3507
30.9052
30.4602
30.0157
29.5716
29.1279
28.6847
28.242
27.7998
27.3581
26.9168
26.4761
26.0358
25.5959
25.1566
24.7176
24.2791
23.841
23.4032
22.9658
22.5286
22.0917
21.6551
21.2185
20.7821
20.3457
19.9093
19.4727
19.0359
18.5988
18.1612
17.7231
17.2843
16.8446
16.404
15.9622
15.5191
15.0743
14.6278
14.1792
13.7284
13.2749
12.8184
12.3587
11.8954
11.428
10.9561
10.4792
9.99688
9.50848
9.01344
8.51112
8.00084
7.48186
6.95341
6.41467
5.86477
5.30279
4.72779
4.13877
3.53471
2.91459
2.27733
1.62189
0.947203
0.252263
-0.463941
-1.20232
-1.96376
-2.74903
-3.55883
-4.3937
-5.2541
-6.1403
-7.05244
-7.99046
-8.95412
-9.94297
-10.9563
-11.9932
-13.0526
-14.1329
-15.2324
-16.3492
-17.4811
-18.6255
-19.7797
-20.941
-22.1061
-23.272
-24.4355
-25.5934
-26.7427
-27.8803
-29.0036
-30.11
-31.1971
-32.2631
-33.3062
-34.3251
-35.3185
-36.2856
-37.2258
-38.1386
-39.024
-39.8817
-40.712
-41.515
-42.2912
-43.0409
-43.7646
-44.4629
-45.1363
-45.7856
-46.4113
-47.0142
-47.5949
-48.1541
-48.6926
-49.211
-49.7099
-50.1902
-50.6523
-51.0971
-51.5251
-51.9368
-52.3331
-52.7143
-53.0811
-53.4341
-53.7737
-54.1005
-54.415
-54.7176
-55.0088
-55.2891
-55.5589
-55.8185
-56.0685
-56.3091
-56.5408
-56.7639
-56.9787
-57.1855
-57.3847
-57.5766
-57.7614
-57.9395
-58.1111
-58.2763
-58.4356
-58.5891
-58.7371
-58.8797
-59.0171
-59.1496
-59.2774
-59.4006
-59.5194
-59.634
-59.7444
-59.851
-59.9538
-60.053
-60.1487
-60.241
-60.3301
-60.416
-60.4989
-60.579
-60.6562
-60.7308
-60.8027
-60.8722
-60.9393
-61.004
-61.0665
-61.1268
-61.185
-61.2412
-61.2955
-61.3479
-61.3985
-61.4474
-61.4945
-61.54
-61.584
-61.6264
-61.6674
-61.707
-61.7452
-61.782
-61.8176
-61.852
-61.8851
-61.9171
-61.948
-61.9778
-62.0066
-62.0343
-62.0611
-62.087
-62.1119
-62.1359
-62.1591
-62.1815
-62.203
-62.2238
-62.2438
-62.2631
-62.2818
-62.2997
-62.3169
-62.3336
-62.3496
-62.365
-62.3798
-62.3941
-62.4078
-62.421
-62.4337
-62.4459
-62.4576
-62.4688
-62.4796
-62.4899
-62.4999
-62.5093
-62.5184
-62.5271
-62.5355
-62.5434
-62.551
-62.5582
-62.5651
-62.5717
-62.5779
-62.5838
-62.5894
-62.5947
-62.5998
-62.6045
-62.609
-62.6131
-62.6171
-62.6207
-62.6241
-62.6273
-62.6302
-62.6329
-62.6354
-62.6376
-62.6396
-62.6414
-62.643
-62.6444
-62.6456
-62.6466
-62.6474
-62.648
-62.6484
-62.6486
-62.6487
-62.6486
-62.6483
-62.6478
-62.6472
-62.6464
-62.6454
-62.6443
-62.6431
-62.6416
-62.6401
-62.6384
-62.6365
-62.6345
-62.6324
-62.6301
-62.6277
-62.6252
-62.6225
-62.6197
-62.6168
-62.6137
-62.6106
-62.6073
-62.6039
-62.6004
-62.5967
-62.593
-62.5891
-62.5852
-62.5811
-62.5769
-62.5726
-62.5682
-62.5638
-62.5592
-62.5545
-62.5497
-62.5448
-62.5399
-62.5348
-62.5297
-62.5244
-62.5191
-62.5137
-62.5082
-62.5026
-62.4969
-62.4912
-62.4854
-62.4795
-62.4735
-62.4674
-62.4613
-62.4551
-62.4488
-62.4424
-62.436
-62.4295
-62.4229
-62.4163
-62.4096
-62.4028
-62.396
-62.3891
-62.3821
-62.3751
-62.368
-62.3609
-62.3537
-62.3464
-62.3391
-62.3317
-62.3243
-62.3168
-62.3092
-62.3016
-62.294
-62.2863
-62.2785
-62.2707
-62.2629
-62.255
-62.247
-62.239
-62.231
-62.2229
-62.2148
-62.2066
-62.1984
-62.1901
-62.1818
-62.1735
-62.1651
-62.1567
-62.1482
-62.1397
-62.1312
-62.1226
-62.114
-62.1053
-62.0966
-62.0879
-62.0791
-62.0703
-62.0615
-62.0527
-62.0438
-62.0348
-62.0259
-62.0169
-62.0079
-61.9988
-61.9898
-61.9807
-61.9715
-61.9624
-61.9532
-61.944
-61.9347
-61.9255
-61.9162
-61.9069
-61.8975
-61.8882
-61.8788
-61.8694
-61.8599
-61.8505
-61.841
-61.8315
-61.822
-61.8125
-61.8029
-61.7933
-61.7837
-61.7741
-61.7645
-61.7548
-61.7452
-61.7355
-61.7258
-61.716
-61.7063
-61.6965
-61.6868
-61.677
-61.6672
-61.6574
-61.6475
-61.6377
-61.6278
-61.618
-61.6081
-61.5982
-61.5883
-61.5783
-61.5684
-61.5585
-61.5485
-61.5385
-61.5285
-61.5186
-61.5085
-61.4985
-61.4885
-61.4785
-61.4684
-61.4584
-61.4483
-61.4383
-61.4282
-61.4181
-61.408
-61.3979
-61.3878
-61.3777
-61.3676
-61.3574
-61.3473
-61.3371
-61.327
-61.3168
-61.3067
-61.2965
-61.2863
-61.2762
-61.266
-61.2558
-61.2456
-61.2354
-61.2252
-61.215
-61.2048
-61.1946
-61.1844
-61.1742
-61.1639
-61.1537
-61.1435
-61.1333
-61.123
-61.1128
-61.1026
-61.0923
-61.0821
-61.0719
-61.0616
-61.0514
-61.0411
-61.0309
-61.0206
-61.0104
-61.0001
-60.9899
-60.9796
-60.9694
-60.9591
-60.9489
-60.9386
-60.9284
-60.9181
-60.9079
-60.8977
-60.8874
-60.8772
-60.8669
-60.8567
-60.8464
-60.8362
-60.8259
-60.8157
-60.8055
-60.7952
-60.785
-60.7748
-60.7645
-60.7543
-60.7441
-60.7339
-60.7236
-60.7134
-60.7032
-60.693
-60.6828
-60.6726
-60.6624
-60.6522
-60.642
-60.6318
-60.6216
-60.6114
-60.6012
-60.591
-60.5809
-60.5707
-60.5605
-60.5504
-60.5402
-60.53
-60.5199
-60.5097
-60.4996
-60.4894
-60.4793
-60.4692
-60.459
-60.4489
-60.4388
-60.4287
-60.4185
-60.4084
-60.3983
-60.3882
-60.3781
-60.368
-60.358
-60.3479
-60.3378
-60.3277
-60.3177
-60.3076
-60.2975
-60.2875
-60.2774
-60.2674
-60.2574
-60.2473
-60.2373
-60.2273
-60.2173
-60.2073
-60.1973
-60.1873
-60.1773
-60.1673
-60.1573
-60.1474
-60.1374
-60.1274
-60.1175
-60.1075
-60.0976
-60.0876
-60.0777
-60.0678
-60.0579
-60.048
-60.0381
-60.0282
-60.0183
-60.0084
-59.9985
-59.9886
-59.9788
-59.9689
-59.959
-59.9492
-59.9394
-59.9295
-59.9197
-59.9099
-59.9001
-59.8902
-59.8804
-59.8706
-59.8609
-59.8511
-59.8413
-59.8315
-59.8218
-59.812
-59.8023
-59.7925
-59.7828
-59.7731
-59.7633
-59.7536
-59.7439
-59.7342
-59.7245
-59.7148
-59.7052
-59.6955
-59.6858
-59.6762
-59.6665
-59.6569
-59.6473
-59.6376
-59.628
-59.6184
-59.6088
-59.5992
-59.5896
-59.58
-59.5705
-59.5609
-59.5513
-59.5418
-59.5322
-59.5227
-59.5132
-59.5036
-59.4941
-59.4846
-59.4751
-59.4656
-59.4561
-59.4467
-59.4372
-59.4277
-59.4182
-59.4088
-59.3994
-59.3899
-59.3805
-59.3711
-59.3616
-59.3522
-59.3428
-59.3334
-59.324
-59.3147
-59.3053
-59.2959
-59.2866
-59.2772
-59.2679
-59.2585
-59.2492
-59.2399
-59.2306
-59.2212
-59.2119
-59.2027
-59.1934
-59.1841
-59.1748
-59.1656
-59.1563
-59.1471
-59.1378
-59.1286
-59.1194
-59.1101
-59.1009
-59.0917
-59.0825
-59.0733
-59.0642
-59.055
-59.0458
-59.0367
-59.0275
-59.0184
-59.0092
-59.0001
-58.991
-58.9819
-58.9728
-58.9637
-58.9546
-58.9455
-58.9364
-58.9273
-58.9183
-58.9092
-58.9002
-58.8911
-58.8821
-58.8731
-58.8641
-58.855
-58.846
-58.837
-58.8281
-58.8191
-58.8101
-58.8011
-58.7922
-58.7832
-58.7743
-58.7653
-58.7564
-58.7475
-58.7386
-58.7297
-58.7208
-58.7119
-58.703
-58.6941
-58.6852
-58.6764
-58.6675
-58.6587
-58.6498
-58.641
-58.6322
-58.6234
-58.6145
-58.6057
-58.597
-58.5882
-58.5794
-58.5706
-58.5619
-58.5531
-58.5443
-58.5356
-58.5269
-58.5181
-58.5094
-58.5007
-58.492
-58.4833
-58.4746
-58.4659
-58.4573
-58.4486
-58.4399
-58.4313
-58.4226
-58.414
-58.4054
-58.3967
-58.3881
-58.3795
-58.3709
-58.3623
-58.3537
-58.3451
-58.3365
-58.328
-58.3194
-58.3108
-58.3023
-58.2938
-58.2852
-58.2767
-58.2682
-58.2596
-58.2511
-58.2426
-58.2341
-58.2256
-58.2172
-58.2087
-58.2002
-58.1918
-58.1833
-58.1749
-58.1664
-58.158
-58.1496
-58.1411
-58.1327
-58.1243
-58.1159
-58.1075
-58.0991
-58.0908
-58.0824
-58.074
-58.0657
-58.0573
-58.049
-58.0406
-58.0323
-58.024
-58.0157
-58.0074
-57.9991
-57.9908
-57.9825
-57.9742
-57.9659
-57.9577
-57.9494
-57.9411
-57.9329
-57.9246
-57.9164
-57.9082
-57.9
-57.8917
-57.8835
-57.8753
-57.8671
-57.8589
-57.8507
-57.8426
-57.8344
-57.8262
-57.8181
-57.8099
-57.8018
-57.7936
-57.7855
-57.7774
-57.7693
-57.7612
-57.7531
-57.745
-57.7369
-57.7288
-57.7207
-57.7126
-57.7046
-57.6965
-57.6885
-57.6804
-57.6724
-57.6643
-57.6563
-57.6483
-57.6403
-57.6323
-57.6243
-57.6163
-57.6083
-57.6003
-57.5924
-57.5844
-57.5765
-57.5685
-57.5606
-57.5526
-57.5447
-57.5368
-57.5289
-57.5209
-57.513
-57.5051
-57.4973
-57.4894
-57.4815
-57.4736
-57.4658
-57.4579
-57.4501
-57.4422
-57.4344
-57.4265
-57.4187
-57.4109
-57.4031
-57.3953
-57.3875
-57.3797
-57.3719
-57.3641
-57.3563
-57.3486
-57.3408
-57.333
-57.3253
-57.3175
-57.3098
-57.3021
-57.2943
-57.2866
-57.2789
-57.2712
-57.2635
-57.2558
-57.2481
-57.2404
-57.2328
-57.2251
-57.2174
-57.2098
-57.2021
-57.1945
-57.1868
-57.1792
-57.1715
-57.1639
-57.1563
-57.1487
-57.1411
-57.1335
-57.1259
-57.1183
-57.1107
-57.1032
-57.0956
-57.088
-57.0805
-57.0729
-57.0654
-57.0578
-57.0503
-57.0428
-57.0353
-57.0277
-57.0202
-57.0127
-57.0052
-56.9977
-56.9903
-56.9828
-56.9753
-56.9678
-56.9604
-56.9529
-56.9455
-56.938
-56.9306
-56.9232
-56.9157
-56.9083
-56.9009
-56.8935
-56.8861
-56.8787
-56.8713
-56.8639
-56.8565
-56.8491
-56.8418
-56.8344
-56.827
-56.8197
-56.8123
-56.805
-56.7977
-56.7903
-56.783
-56.7757
-56.7684
-56.7611
-56.7538
-56.7465
-56.7392
-56.7319
-56.7246
-56.7173
-56.7101
-56.7028
-56.6956
-56.6883
-56.6811
-56.6738
-56.6666
-56.6594
-56.6522
-56.6449
-56.6377
-56.6305
-56.6233
-56.6162
-56.609
-56.6018
-56.5946
-56.5875
-56.5803
-56.5731
-56.566
-56.5589
-56.5517
-56.5446
-56.5375
-56.5304
-56.5232
-56.5161
-56.509
-56.5019
-56.4949
-56.4878
-56.4807
-56.4736
-56.4666
-56.4595
-56.4525
-56.4454
-56.4384
-56.4313
-56.4243
-56.4173
-56.4103
-56.4032
-56.3962
-56.3892
-56.3822
-56.3752
-56.3683
-56.3613
-56.3543
-56.3473
-56.3404
-56.3334
-56.3265
-56.3195
-56.3126
-56.3057
-56.2987
-56.2918
-56.2849
-56.278
-56.2711
-56.2642
-56.2573
-56.2504
-56.2435
-56.2366
-56.2298
-56.2229
-56.216
-56.2092
-56.2024
-56.1955
-56.1887
-56.1818
-56.175
-56.1682
-56.1614
-56.1546
-56.1478
-56.141
-56.1342
-56.1274
-56.1206
-56.1139
-56.1071
-56.1003
-56.0936
-56.0868
-56.0801
-56.0733
-56.0666
-56.0599
-56.0531
-56.0464
-56.0397
-56.033
-56.0263
-56.0196
-56.0129
-56.0062
-55.9996
-55.9929
-55.9862
-55.9796
-55.9729
-55.9662
-55.9596
-55.953
-55.9463
-55.9397
-55.9331
-55.9264
-55.9198
-55.9132
-55.9066
-55.9
-55.8934
-55.8868
-55.8802
-55.8737
-55.8671
-55.8605
-55.8539
-55.8474
-55.8408
-55.8343
-55.8277
-55.8212
-55.8147
-55.8081
-55.8016
-55.7951
-55.7886
-55.7821
-55.7756
-55.7691
-55.7626
-55.7561
-55.7497
-55.7432
-55.7367
-55.7303
-55.7238
-55.7174
-55.7109
-55.7045
-55.698
-55.6916
-55.6852
-55.6788
-55.6724
-55.666
-55.6596
-55.6532
-55.6468
-55.6404
-55.634
-55.6277
-55.6213
-55.615
-55.6086
-55.6023
-55.5959
-55.5896
-55.5833
-55.5769
-55.5706
-55.5643
-55.558
-55.5517
-55.5454
-55.5391
-55.5328
-55.5266
-55.5203
-55.514
-55.5078
-55.5015
-55.4953
-55.489
-55.4828
-55.4766
-55.4703
-55.4641
-55.4579
-55.4517
-55.4455
-55.4393
-55.4331
-55.4269
-55.4208
-55.4146
-55.4084
-55.4022
-55.3961
-55.3899
-55.3838
-55.3776
-55.3715
-55.3654
-55.3593
-55.3531
-55.347
-55.3409
-55.3348
-55.3287
-55.3226
-55.3166
-55.3105
-55.3044
-55.2983
-55.2923
-55.2862
-55.2802
-55.2741
-55.2681
-55.2621
-55.256
-55.25
-55.244
-55.238
-55.232
-55.226
-55.22
-55.214
-55.2081
-55.2021
-55.1961
-55.1902
-55.1842
-55.1783
-55.1723
-55.1664
-55.1605
-55.1546
-55.1487
-55.1427
-55.1368
-55.1309
-55.1251
-55.1192
-55.1133
-55.1074
-55.1016
-55.0957
-55.0899
-55.084
-55.0782
-55.0723
-55.0665
-55.0607
-55.0549
-55.049
-55.0432
-55.0374
-55.0317
-55.0259
-55.0201
-55.0143
-55.0085
-55.0028
-54.997
-54.9913
-54.9855
-54.9798
-54.974
-54.9683
-54.9626
-54.9569
-54.9511
-54.9454
-54.9397
-54.934
-54.9283
-54.9227
-54.917
-54.9113
-54.9056
-54.9
-54.8943
-54.8887
-54.883
-54.8774
-54.8717
-54.8661
-54.8605
-54.8549
-54.8493
-54.8437
-54.8381
-54.8325
-54.8269
-54.8213
-54.8157
-54.8101
-54.8046
-54.799
-54.7935
-54.7879
-54.7824
-54.7768
-54.7713
-54.7658
-54.7603
-54.7548
-54.7493
-54.7438
-54.7383
-54.7328
-54.7273
-54.7218
-54.7164
-54.7109
-54.7055
-54.7
-54.6946
-54.6891
-54.6837
-54.6783
-54.6729
-54.6674
-54.662
-54.6566
-54.6513
-54.6459
-54.6405
-54.6351
-54.6298
-54.6244
-54.619
-54.6137
-54.6084
-54.603
-54.5977
-54.5924
-54.5871
-54.5818
-54.5765
-54.5712
-54.5659
-54.5606
-54.5553
-54.5501
-54.5448
-54.5395
-54.5343
-54.5291
-54.5238
-54.5186
-54.5134
-54.5082
-54.503
-54.4978
-54.4926
-54.4874
-54.4822
-54.477
-54.4719
-54.4667
-54.4616
-54.4564
-54.4513
-54.4461
-54.441
-54.4359
-54.4308
-54.4256
-54.4205
-54.4154
-54.4104
-54.4053
-54.4002
-54.3951
-54.3901
-54.385
-54.38
-54.3749
-54.3699
-54.3649
-54.3598
-54.3548
-54.3498
-54.3448
-54.3398
-54.3348
-54.3298
-54.3249
-54.3199
-54.3149
-54.31
-54.305
-54.3001
-54.2952
-54.2902
-54.2853
-54.2804
-54.2755
-54.2706
-54.2657
-54.2608
-54.2559
-54.2511
-54.2462
-54.2414
-54.2365
-54.2317
-54.2268
-54.222
-54.2172
-54.2124
-54.2076
-54.2028
-54.198
-54.1932
-54.1884
-54.1837
-54.1789
-54.1742
-54.1694
-54.1647
-54.1599
-54.1552
-54.1505
-54.1458
-54.1411
-54.1364
-54.1317
-54.1271
-54.1224
-54.1177
-54.1131
-54.1084
-54.1038
-54.0992
-54.0945
-54.0899
-54.0853
-54.0807
-54.0761
-54.0715
-54.067
-54.0624
-54.0578
-54.0533
-54.0488
-54.0442
-54.0397
-54.0352
-54.0307
-54.0262
-54.0217
-54.0172
-54.0127
-54.0082
-54.0038
-53.9993
-53.9949
-53.9904
-53.986
-53.9816
-53.9771
-53.9727
-53.9683
-53.9639
-53.9595
-53.9552
-53.9508
-53.9464
-53.9421
-53.9377
-53.9334
-53.929
-53.9247
-53.9204
-53.916
-53.9117
-53.9074
-53.9031
-53.8989
-53.8946
-53.8903
-53.8861
-53.8818
-53.8775
-53.8733
-53.8691
-53.8649
-53.8606
-53.8564
-53.8522
-53.848
-53.8438
-53.8397
-53.8355
-53.8313
-53.8272
-53.823
-53.8189
-53.8148
-53.8107
-53.8065
-53.8024
-53.7983
-53.7942
-53.7902
-53.7861
-53.782
-53.778
-53.7739
-53.7699
-53.7658
-53.7618
-53.7578
-53.7538
-53.7498
-53.7458
-53.7418
-53.7378
-53.7339
-53.7299
-53.726
-53.722
-53.7181
-53.7142
-53.7103
-53.7064
-53.7025
-53.6986
-53.6947
-53.6908
-53.6869
-53.6831
-53.6792
-53.6754
-53.6716
-53.6678
-53.6639
-53.6601
-53.6563
-53.6526
-53.6488
-53.645
-53.6412
-53.6375
-53.6338
-53.63
-53.6263
-53.6226
-53.6189
-53.6152
-53.6115
-53.6078
-53.6041
-53.6005
-53.5968
-53.5932
-53.5895
-53.5859
-53.5823
-53.5787
-53.5751
-53.5715
-53.5679
-53.5644
-53.5608
-53.5572
-53.5537
-53.5502
-53.5466
-53.5431
-53.5396
-53.5361
-53.5326
-53.5292
-53.5257
-53.5222
-53.5188
-53.5154
-53.5119
-53.5085
-53.5051
-53.5017
-53.4983
-53.4949
-53.4915
-53.4882
-53.4848
-53.4815
-53.4781
-53.4748
-53.4715
-53.4682
-53.4649
-53.4616
-53.4583
-53.455
-53.4518
-53.4485
-53.4453
-53.442
-53.4388
-53.4356
-53.4324
-53.4292
-53.426
-53.4228
-53.4197
-53.4165
-53.4134
-53.4102
-53.4071
-53.404
-53.4009
-53.3978
-53.3947
-53.3916
-53.3885
-53.3855
-53.3824
-53.3794
-53.3763
-53.3733
-53.3703
-53.3673
-53.3643
-53.3613
-53.3584
-53.3554
-53.3525
-53.3495
-53.3466
-53.3437
-53.3407
-53.3378
-53.335
-53.3321
-53.3292
-53.3263
-53.3235
-53.3207
-53.3178
-53.315
-53.3122
-53.3094
-53.3066
-53.3038
-53.3011
-53.2983
-53.2956
-53.2928
-53.2901
-53.2874
-53.2847
-53.282
-53.2793
-53.2766
-53.274
-53.2713
-53.2687
-53.266
-53.2634
-53.2608
-53.2582
-53.2556
-53.253
-53.2505
-53.2479
-53.2454
-53.2428
-53.2403
-53.2378
-53.2353
-53.2328
-53.2303
-53.2279
-53.2254
-53.2229
-53.2205
-53.2181
-53.2157
-53.2133
-53.2109
-53.2085
-53.2061
-53.2038
-53.2014
-53.1991
-53.1967
-53.1944
-53.1921
-53.1898
-53.1875
-53.1853
-53.183
-53.1808
-53.1785
-53.1763
-53.1741
-53.1719
-53.1697
-53.1675
-53.1653
-53.1632
-53.161
-53.1589
-53.1568
-53.1547
-53.1526
-53.1505
-53.1484
-53.1463
-53.1443
-53.1422
-53.1402
-53.1382
-53.1362
-53.1342
-53.1322
-53.1302
-53.1283
-53.1263
-53.1244
-53.1224
-53.1205
-53.1186
-53.1167
-53.1149
-53.113
-53.1111
-53.1093
-53.1074
-53.1056
-53.1038
-53.102
-53.1002
-53.0985
-53.0967
-53.0949
-53.0932
-53.0915
-53.0898
-53.0881
-53.0864
-53.0847
-53.083
-53.0814
-53.0797
-53.0781
-53.0765
-53.0749
-53.0733
-53.0717
-53.0701
-53.0686
-53.067
-53.0655
-53.064
-53.0625
-53.061
-53.0595
-53.058
-53.0566
-53.0551
-53.0537
-53.0522
-53.0508
-53.0494
-53.0481
-53.0467
-53.0453
-53.044
-53.0426
-53.0413
-53.04
-53.0387
-53.0374
-53.0361
-53.0349
-53.0336
-53.0324
-53.0312
-53.0299
-53.0287
-53.0275
-53.0264
-53.0252
-53.0241
-53.0229
-53.0218
-53.0207
-53.0196
-53.0185
-53.0174
-53.0164
-53.0153
-53.0143
-53.0132
-53.0122
-53.0112
-53.0102
-53.0093
-53.0083
-53.0073
-53.0064
-53.0055
-53.0046
-53.0037
-53.0028
-53.0019
-62.6487

