-60
-59.9999
-59.9999
-59.9998
-59.9997
-59.9997
-59.9996
-59.9995
-59.9995
-59.9994
-59.9993
-59.9993
-59.9992
-59.9991
-59.9991
-59.999
-59.999
-59.9989
-59.9988
-59.9988
-59.9987
-59.9986
-59.9986
-59.9985
-59.9984
-59.9984
-59.9983
-59.9982
-59.9982
-59.9981
-59.998
-59.998
-59.9979
-59.9979
-59.9978
-59.9977
-59.9977
-59.9976
-59.9975
-59.9975
-59.9974
-59.9973
-59.9973
-59.9972
-59.9972
-59.9971
-59.997
-59.997
-59.9969
-59.9968
-59.9968
-59.9967
-59.9966
-59.9966
-59.9965
-59.9965
-59.9964
-59.9963
-59.9963
-59.9962
-59.9961
-59.9961
-59.996
-59.996
-59.9959
-59.9958
-59.9958
-59.9957
-59.9957
-59.9956
-59.9955
-59.9955
-59.9954
-59.9953
-59.9953
-59.9952
-59.9952
-59.9951
-59.995
-59.995
-59.9949
-59.9949
-59.9948
-59.9947
-59.9947
-59.9946
-59.9945
-59.9945
-59.9944
-59.9944
-59.9943
-59.9942
-59.9942
-59.9941
-59.9941
-59.994
-59.9939
-59.9939
-59.9938
-59.9938
-59.9937
-59.9936
-59.9936
-59.9935
-59.9935
-59.9934
-59.9933
-59.9933
-59.9932
-59.9932
-59.9931
-59.993
-59.993
-59.9929
-59.9929
-59.9928
-59.9927
-59.9927
-59.9926
-59.9926
-59.9925
-59.9925
-59.9924
-59.9923
-59.9923
-59.9922
-59.9922
-59.9921
-59.992
-59.992
-59.9919
-59.9919
-59.9918
-59.9918
-59.9917
-59.9916
-59.9916
-59.9915
-59.9915
-59.9914
-59.9913
-59.9913
-59.9912
-59.9912
-59.9911
-59.9911
-59.991
-59.9909
-59.9909
-59.9908
-59.9908
-59.9907
-59.9907
-59.9906
-59.9905
-59.9905
-59.9904
-59.9904
-59.9903
-59.9903
-59.9902
-59.9901
-59.9901
-59.99
-59.99
-59.9899
-59.9899
-59.9898
-59.9898
-59.9897
-59.9896
-59.9896
-59.9895
-59.9895
-59.9894
-59.9894
-59.9893
-59.9892
-59.9892
-59.9891
-59.9891
-59.989
-59.989
-59.9889
-59.9889
-59.9888
-59.9887
-59.9887
-59.9886
-59.9886
-59.9885
-59.9885
-59.9884
-59.9884
-59.9883
-59.9882
-59.9882
-59.9881
-59.9881
-59.988
-59.988
-59.9879
-59.9879
-59.9878
-59.9877
-59.9877
-59.9876
-59.9876
-59.9875
-59.9875
-59.9874
-59.9874
-59.9873
-59.9872
-59.9872
-59.9871
-59.9871
-59.987
-59.987
-59.9869
-59.9868
-59.9868
-59.9867
-59.9867
-59.9866
-59.9865
-59.9865
-59.9864
-59.9863
-59.9863
-59.9862
-59.9861
-59.9861
-59.986
-59.9859
-59.9859
-59.9858
-59.9857
-59.9856
-59.9855
-59.9855
-59.9854
-59.9853
-59.9852
-59.9851
-59.985
-59.9849
-59.9847
-59.9846
-59.9845
-59.9844
-59.9842
-59.9841
-59.9839
-59.9837
-59.9835
-59.9833
-59.9831
-59.9829
-59.9826
-59.9824
-59.9821
-59.9818
-59.9815
-59.9811
-59.9807
-59.9803
-59.9798
-59.9793
-59.9788
-59.9782
-59.9776
-59.9769
-59.9761
-59.9753
-59.9744
-59.9734
-59.9724
-59.9712
-59.9699
-59.9686
-59.967
-59.9654
-59.9636
-59.9616
-59.9594
-59.9571
-59.9545
-59.9517
-59.9486
-59.9452
-59.9414
-59.9374
-59.9329
-59.9281
-59.9227
-59.9169
-59.9105
-59.9035
-59.8958
-59.8874
-59.8782
-59.8681
-59.857
-59.8449
-59.8316
-59.8171
-59.8011
-59.7837
-59.7645
-59.7436
-59.7206
-59.6954
-59.6678
-59.6376
-59.6044
-59.5681
-59.5283
-59.4847
-59.4369
-59.3845
-59.3271
-59.2641
-59.1951
-59.1195
-59.0367
-58.9459
-58.8464
-58.7373
-58.6177
-58.4867
-58.3431
-58.1857
-58.0132
-57.8241
-57.6168
-57.3897
-57.1408
-56.8679
-56.5689
-56.2411
-55.8819
-55.4882
-55.0567
-54.5838
-54.0654
-53.4974
-52.8748
-52.1926
-51.4449
-50.6255
-49.7277
-48.744
-47.6662
-46.4855
-45.1925
-43.7769
-42.2277
-40.5336
-38.6829
-36.6643
-34.468
-32.0866
-29.5175
-26.7655
-23.8452
-20.7834
-17.6201
-14.4071
-11.205
-8.07686
-5.0811
-2.26555
0.336158
2.7049
4.83405
6.72635
8.39063
9.8391
11.0853
12.1427
13.0242
13.7414
14.3047
14.7233
15.0056
15.159
15.1906
15.1068
14.914
14.6183
14.2258
13.7426
13.1749
12.5287
11.8102
11.0252
10.1796
9.27926
8.32955
7.33583
6.30313
5.23625
4.13967
3.01761
1.87401
0.712515
-0.463512
-1.65096
-2.84698
-4.04895
-5.2545
-6.46143
-7.66779
-8.87176
-10.0717
-11.2662
-12.4539
-13.6336
-14.8043
-15.9649
-17.1146
-18.2528
-19.3786
-20.4916
-21.5912
-22.677
-23.7486
-24.8057
-25.848
-26.8754
-27.8876
-28.8845
-29.866
-30.832
-31.7824
-32.7171
-33.6362
-34.5394
-35.4268
-36.2982
-37.1536
-37.9928
-38.8158
-39.6223
-40.4123
-41.1855
-41.942
-42.6814
-43.4038
-44.1089
-44.7968
-45.4672
-46.1202
-46.7558
-47.3739
-47.9745
-48.5578
-49.1238
-49.6727
-50.2044
-50.7193
-51.2174
-51.6991
-52.1644
-52.6136
-53.0471
-53.4649
-53.8675
-54.2552
-54.6281
-54.9868
-55.3313
-55.6622
-55.9798
-56.2843
-56.5762
-56.8557
-57.1233
-57.3794
-57.6242
-57.8582
-58.0816
-58.295
-58.4985
-58.6926
-58.8776
-59.0538
-59.2217
-59.3814
-59.5334
-59.6779
-59.8153
-59.9459
-60.0699
-60.1876
-60.2994
-60.4054
-60.506
-60.6013
-60.6917
-60.7774
-60.8585
-60.9353
-61.008
-61.0768
-61.142
-61.2035
-61.2618
-61.3168
-61.3689
-61.418
-61.4645
-61.5083
-61.5497
-61.5887
-61.6256
-61.6604
-61.6931
-61.724
-61.7531
-61.7806
-61.8064
-61.8307
-61.8536
-61.8751
-61.8954
-61.9144
-61.9323
-61.949
-61.9648
-61.9796
-61.9935
-62.0064
-62.0186
-62.03
-62.0406
-62.0506
-62.0599
-62.0686
-62.0766
-62.0842
-62.0912
-62.0977
-62.1037
-62.1093
-62.1144
-62.1192
-62.1236
-62.1276
-62.1313
-62.1347
-62.1378
-62.1405
-62.1431
-62.1454
-62.1474
-62.1492
-62.1508
-62.1522
-62.1534
-62.1544
-62.1553
-62.156
-62.1565
-62.1569
-62.1571
-62.1573
-62.1573
-62.1572
-62.157
-62.1567
-62.1562
-62.1557
-62.1551
-62.1545
-62.1537
-62.1529
-62.152
-62.1511
-62.15
-62.149
-62.1478
-62.1467
-62.1454
-62.1442
-62.1428
-62.1415
-62.1401
-62.1387
-62.1372
-62.1357
-62.1342
-62.1326
-62.131
-62.1294
-62.1278
-62.1261
-62.1244
-62.1227
-62.121
-62.1193
-62.1175
-62.1157
-62.1139
-62.1121
-62.1103
-62.1085
-62.1067
-62.1048
-62.1029
-62.1011
-62.0992
-62.0973
-62.0954
-62.0935
-62.0916
-62.0897
-62.0878
-62.0858
-62.0839
-62.082
-62.08
-62.0781
-62.0761
-62.0742
-62.0722
-62.0702
-62.0683
-62.0663
-62.0643
-62.0624
-62.0604
-62.0584
-62.0565
-62.0545
-62.0525
-62.0505
-62.0485
-62.0466
-62.0446
-62.0426
-62.0406
-62.0386
-62.0366
-62.0347
-62.0327
-62.0307
-62.0287
-62.0267
-62.0248
-62.0228
-62.0208
-62.0188
-62.0168
-62.0149
-62.0129
-62.0109
-62.0089
-62.0069
-62.005
-62.003
-62.001
-61.9991
-61.9971
-61.9951
-61.9931
-61.9912
-61.9892
-61.9872
-61.9853
-61.9833
-61.9814
-61.9794
-61.9774
-61.9755
-61.9735
-61.9716
-61.9696
-61.9677
-61.9657
-61.9638
-61.9618
-61.9599
-61.958
-61.956
-61.9541
-61.9521
-61.9502
-61.9483
-61.9463
-61.9444
-61.9425
-61.9405
-61.9386
-61.9367
-61.9348
-61.9329
-61.9309
-61.929
-61.9271
-61.9252
-61.9233
-61.9214
-61.9195
-61.9176
-61.9156
-61.9137
-61.9118
-61.9099
-61.908
-61.9061
-61.9042
-61.9024
-61.9005
-61.8986
-61.8967
-61.8948
-61.8929
-61.891
-61.8892
-61.8873
-61.8854
-61.8835
-61.8816
-61.8798
-61.8779
-61.876
-61.8742
-61.8723
-61.8704
-61.8686
-61.8667
-61.8649
-61.863
-61.8611
-61.8593
-61.8574
-61.8556
-61.8537
-61.8519
-61.8501
-61.8482
-61.8464
-61.8445
-61.8427
-61.8409
-61.839
-61.8372
-61.8354
-61.8335
-61.8317
-61.8299
-61.8281
-61.8262
-61.8244
-61.8226
-61.8208
-61.819
-61.8172
-61.8154
-61.8135
-61.8117
-61.8099
-61.8081
-61.8063
-61.8045
-61.8027
-61.8009
-61.7991
-61.7973
-61.7955
-61.7938
-61.792
-61.7902
-61.7884
-61.7866
-61.7848
-61.7831
-61.7813
-61.7795
-61.7777
-61.776
-61.7742
-61.7724
-61.7706
-61.7689
-61.7671
-61.7654
-61.7636
-61.7618
-61.7601
-61.7583
-61.7566
-61.7548
-61.7531
-61.7513
-61.7496
-61.7478
-61.7461
-61.7443
-61.7426
-61.7409
-61.7391
-61.7374
-61.7356
-61.7339
-61.7322
-61.7305
-61.7287
-61.727
-61.7253
-61.7236
-61.7218
-61.7201
-61.7184
-61.7167
-61.715
-61.7133
-61.7115
-61.7098
-61.7081
-61.7064
-61.7047
-61.703
-61.7013
-61.6996
-61.6979
-61.6962
-61.6945
-61.6928
-61.6912
-61.6895
-61.6878
-61.6861
-61.6844
-61.6827
-61.681
-61.6794
-61.6777
-61.676
-61.6743
-61.6727
-61.671
-61.6693
-61.6677
-61.666
-61.6643
-61.6627
-61.661
-61.6593
-61.6577
-61.656
-61.6544
-61.6527
-61.6511
-61.6494
-61.6478
-61.6461
-61.6445
-61.6428
-61.6412
-61.6395
-61.6379
-61.6363
-61.6346
-61.633
-61.6314
-61.6297
-61.6281
-61.6265
-61.6248
-61.6232
-61.6216
-61.62
-61.6184
-61.6167
-61.6151
-61.6135
-61.6119
-61.6103
-61.6087
-61.6071
-61.6055
-61.6038
-61.6022
-61.6006
-61.599
-61.5974
-61.5958
-61.5942
-61.5926
-61.5911
-61.5895
-61.5879
-61.5863
-61.5847
-61.5831
-61.5815
-61.5799
-61.5784
-61.5768
-61.5752
-61.5736
-61.572
-61.5705
-61.5689
-61.5673
-61.5658
-61.5642
-61.5626
-61.5611
-61.5595
-61.5579
-61.5564
-61.5548
-61.5533
-61.5517
-61.5502
-61.5486
-61.5471
-61.5455
-61.544
-61.5424
-61.5409
-61.5393
-61.5378
-61.5362
-61.5347
-61.5332
-61.5316
-61.5301
-61.5286
-61.527
-61.5255
-61.524
-61.5224
-61.5209
-61.5194
-61.5179
-61.5164
-61.5148
-61.5133
-61.5118
-61.5103
-61.5088
-61.5073
-61.5057
-61.5042
-61.5027
-61.5012
-61.4997
-61.4982
-61.4967
-61.4952
-61.4937
-61.4922
-61.4907
-61.4892
-61.4877
-61.4862
-61.4847
-61.4833
-61.4818
-61.4803
-61.4788
-61.4773
-61.4758
-61.4744
-61.4729
-61.4714
-61.4699
-61.4685
-61.467
-61.4655
-61.464
-61.4626
-61.4611
-61.4596
-61.4582
-61.4567
-61.4553
-61.4538
-61.4523
-61.4509
-61.4494
-61.448
-61.4465
-61.4451
-61.4436
-61.4422
-61.4407
-61.4393
-61.4378
-61.4364
-61.4349
-61.4335
-61.4321
-61.4306
-61.4292
-61.4278
-61.4263
-61.4249
-61.4235
-61.422
-61.4206
-61.4192
-61.4178
-61.4163
-61.4149
-61.4135
-61.4121
-61.4107
-61.4092
-61.4078
-61.4064
-61.405
-61.4036
-61.4022
-61.4008
-61.3994
-61.398
-61.3966
-61.3952
-61.3938
-61.3924
-61.391
-61.3896
-61.3882
-61.3868
-61.3854
-61.384
-61.3826
-61.3812
-61.3799
-61.3785
-61.3771
-61.3757
-61.3743
-61.3729
-61.3716
-61.3702
-61.3688
-61.3674
-61.3661
-61.3647
-61.3633
-61.362
-61.3606
-61.3592
-61.3579
-61.3565
-61.3552
-61.3538
-61.3524
-61.3511
-61.3497
-61.3484
-61.347
-61.3457
-61.3443
-61.343
-61.3416
-61.3403
-61.3389
-61.3376
-61.3363
-61.3349
-61.3336
-61.3322
-61.3309
-61.3296
-61.3282
-61.3269
-61.3256
-61.3243
-61.3229
-61.3216
-61.3203
-61.319
-61.3176
-61.3163
-61.315
-61.3137
-61.3124
-61.3111
-61.3097
-61.3084
-61.3071
-61.3058
-61.3045
-61.3032
-61.3019
-61.3006
-61.2993
-61.298
-61.2967
-61.2954
-61.2941
-61.2928
-61.2915
-61.2902
-61.2889
-61.2877
-61.2864
-61.2851
-61.2838
-61.2825
-61.2812
-61.2799
-61.2787
-61.2774
-61.2761
-61.2748
-61.2736
-61.2723
-61.271
-61.2698
-61.2685
-61.2672
-61.266
-61.2647
-61.2634
-61.2622
-61.2609
-61.2597
-61.2584
-61.2571
-61.2559
-61.2546
-61.2534
-61.2521
-61.2509
-61.2496
-61.2484
-61.2472
-61.2459
-61.2447
-61.2434
-61.2422
-61.241
-61.2397
-61.2385
-61.2373
-61.236
-61.2348
-61.2336
-61.2323
-61.2311
-61.2299
-61.2287
-61.2274
-61.2262
-61.225
-61.2238
-61.2226
-61.2214
-61.2201
-61.2189
-61.2177
-61.2165
-61.2153
-61.2141
-61.2129
-61.2117
-61.2105
-61.2093
-61.2081
-61.2069
-61.2057
-61.2045
-61.2033
-61.2021
-61.2009
-61.1997
-61.1985
-61.1973
-61.1962
-61.195
-61.1938
-61.1926
-61.1914
-61.1902
-61.1891
-61.1879
-61.1867
-61.1855
-61.1844
-61.1832
-61.182
-61.1809
-61.1797
-61.1785
-61.1774
-61.1762
-61.175
-61.1739
-61.1727
-61.1716
-61.1704
-61.1692
-61.1681
-61.1669
-61.1658
-61.1646
-61.1635
-61.1623
-61.1612
-61.16
-61.1589
-61.1578
-61.1566
-61.1555
-61.1543
-61.1532
-61.1521
-61.1509
-61.1498
-61.1487
-61.1475
-61.1464
-61.1453
-61.1442
-61.143
-61.1419
-61.1408
-61.1397
-61.1385
-61.1374
-61.1363
-61.1352
-61.1341
-61.133
-61.1319
-61.1307
-61.1296
-61.1285
-61.1274
-61.1263
-61.1252
-61.1241
-61.123
-61.1219
-61.1208
-61.1197
-61.1186
-61.1175
-61.1164
-61.1153
-61.1142
-61.1131
-61.1121
-61.111
-61.1099
-61.1088
-61.1077
-61.1066
-61.1055
-61.1045
-61.1034
-61.1023
-61.1012
-61.1002
-61.0991
-61.098
-61.0969
-61.0959
-61.0948
-61.0937
-61.0927
-61.0916
-61.0905
-61.0895
-61.0884
-61.0873
-61.0863
-61.0852
-61.0842
-61.0831
-61.0821
-61.081
-61.08
-61.0789
-61.0779
-61.0768
-61.0758
-61.0747
-61.0737
-61.0726
-61.0716
-61.0705
-61.0695
-61.0685
-61.0674
-61.0664
-61.0654
-61.0643
-61.0633
-61.0623
-61.0612
-61.0602
-61.0592
-61.0581
-61.0571
-61.0561
-61.0551
-61.054
-61.053
-61.052
-61.051
-61.05
-61.049
-61.0479
-61.0469
-61.0459
-61.0449
-61.0439
-61.0429
-61.0419
-61.0409
-61.0399
-61.0389
-61.0379
-61.0368
-61.0358
-61.0348
-61.0338
-61.0329
-61.0319
-61.0309
-61.0299
-61.0289
-61.0279
-61.0269
-61.0259
-61.0249
-61.0239
-61.0229
-61.0219
-61.021
-61.02
-61.019
-61.018
-61.017
-61.0161
-61.0151
-61.0141
-61.0131
-61.0122
-61.0112
-61.0102
-61.0092
-61.0083
-61.0073
-61.0063
-61.0054
-61.0044
-61.0034
-61.0025
-61.0015
-61.0005
-60.9996
-60.9986
-60.9977
-60.9967
-60.9958
-60.9948
-60.9938
-60.9929
-60.9919
-60.991
-60.99
-60.9891
-60.9881
-60.9872
-60.9863
-60.9853
-60.9844
-60.9834
-60.9825
-60.9815
-60.9806
-60.9797
-60.9787
-60.9778
-60.9769
-60.9759
-60.975
-60.9741
-60.9731
-60.9722
-60.9713
-60.9703
-60.9694
-60.9685
-60.9676
-60.9666
-60.9657
-60.9648
-60.9639
-60.963
-60.962
-60.9611
-60.9602
-60.9593
-60.9584
-60.9575
-60.9566
-60.9556
-60.9547
-60.9538
-60.9529
-60.952
-60.9511
-60.9502
-60.9493
-60.9484
-60.9475
-60.9466
-60.9457
-60.9448
-60.9439
-60.943
-60.9421
-60.9412
-60.9403
-60.9394
-60.9385
-60.9376
-60.9367
-60.9358
-60.9349
-60.9341
-60.9332
-60.9323
-60.9314
-60.9305
-60.9296
-60.9287
-60.9279
-60.927
-60.9261
-60.9252
-60.9243
-60.9235
-60.9226
-60.9217
-60.9208
-60.92
-60.9191
-60.9182
-60.9174
-60.9165
-60.9156
-60.9148
-60.9139
-60.913
-60.9122
-60.9113
-60.9104
-60.9096
-60.9087
-60.9078
-60.907
-60.9061
-60.9053
-60.9044
-60.9036
-60.9027
-60.9019
-60.901
-60.9001
-60.8993
-60.8984
-60.8976
-60.8967
-60.8959
-60.8951
-60.8942
-60.8934
-60.8925
-60.8917
-60.8908
-60.89
-60.8891
-60.8883
-60.8875
-60.8866
-60.8858
-60.885
-60.8841
-60.8833
-60.8825
-60.8816
-60.8808
-60.88
-60.8791
-60.8783
-60.8775
-60.8766
-60.8758
-60.875
-60.8742
-60.8733
-60.8725
-60.8717
-60.8709
-60.8701
-60.8692
-60.8684
-60.8676
-60.8668
-60.866
-60.8651
-60.8643
-60.8635
-60.8627
-60.8619
-60.8611
-60.8603
-60.8595
-60.8586
-60.8578
-60.857
-60.8562
-60.8554
-60.8546
-60.8538
-60.853
-60.8522
-60.8514
-60.8506
-60.8498
-60.849
-60.8482
-60.8474
-60.8466
-60.8458
-60.845
-60.8442
-60.8434
-60.8426
-60.8418
-60.841
-60.8403
-60.8395
-60.8387
-60.8379
-60.8371
-60.8363
-60.8355
-60.8347
-60.834
-60.8332
-60.8324
-60.8316
-60.8308
-60.83
-60.8293
-60.8285
-60.8277
-60.8269
-60.8261
-60.8254
-60.8246
-60.8238
-60.823
-60.8223
-60.8215
-60.8207
-60.82
-60.8192
-60.8184
-60.8177
-60.8169
-60.8161
-60.8153
-60.8146
-60.8138
-60.8131
-60.8123
-60.8115
-60.8108
-60.81
-60.8092
-60.8085
-60.8077
-60.807
-60.8062
-60.8055
-60.8047
-60.8039
-60.8032
-60.8024
-60.8017
-60.8009
-60.8002
-60.7994
-60.7987
-60.7979
-60.7972
-60.7964
-60.7957
-60.7949
-60.7942
-60.7934
-60.7927
-60.792
-60.7912
-60.7905
-60.7897
-60.789
-60.7882
-60.7875
-60.7868
-60.786
-60.7853
-60.7846
-60.7838
-60.7831
-60.7823
-60.7816
-60.7809
-60.7801
-60.7794
-60.7787
-60.7779
-60.7772
-60.7765
-60.7758
-60.775
-60.7743
-60.7736
-60.7729
-60.7721
-60.7714
-60.7707
-60.77
-60.7692
-60.7685
-60.7678
-60.7671
-60.7664
-60.7656
-60.7649
-60.7642
-60.7635
-60.7628
-60.762
-60.7613
-60.7606
-60.7599
-60.7592
-60.7585
-60.7578
-60.7571
-60.7563
-60.7556
-60.7549
-60.7542
-60.7535
-60.7528
-60.7521
-60.7514
-60.7507
-60.75
-60.7493
-60.7486
-60.7479
-60.7472
-60.7465
-60.7458
-60.7451
-60.7444
-60.7437
-60.743
-60.7423
-60.7416
-60.7409
-60.7402
-60.7395
-60.7388
-60.7381
-60.7374
-60.7367
-60.736
-60.7353
-60.7346
-60.7339
-60.7333
-60.7326
-60.7319
-60.7312
-60.7305
-60.7298
-60.7291
-60.7284
-60.7278
-60.7271
-60.7264
-60.7257
-60.725
-60.7243
-60.7237
-60.723
-60.7223
-60.7216
-60.721
-60.7203
-60.7196
-60.7189
-60.7182
-60.7176
-60.7169
-60.7162
-60.7155
-60.7149
-60.7142
-60.7135
-60.7129
-60.7122
-60.7115
-60.7108
-60.7102
-60.7095
-60.7088
-60.7082
-60.7075
-60.7068
-60.7062
-60.7055
-60.7049
-60.7042
-60.7035
-60.7029
-60.7022
-60.7015
-60.7009
-60.7002
-60.6996
-60.6989
-60.6982
-60.6976
-60.6969
-60.6963
-60.6956
-60.695
-60.6943
-60.6937
-60.693
-60.6923
-60.6917
-60.691
-60.6904
-60.6897
-60.6891
-60.6884
-60.6878
-60.6871
-60.6865
-60.6858
-60.6852
-60.6846
-60.6839
-60.6833
-60.6826
-60.682
-60.6813
-60.6807
-60.68
-60.6794
-60.6788
-60.6781
-60.6775
-60.6768
-60.6762
-60.6756
-60.6749
-60.6743
-60.6737
-60.673
-60.6724
-60.6717
-60.6711
-60.6705
-60.6698
-60.6692
-60.6686
-60.6679
-60.6673
-60.6667
-60.6661
-60.6654
-60.6648
-60.6642
-60.6635
-60.6629
-60.6623
-60.6617
-60.661
-60.6604
-60.6598
-60.6592
-60.6585
-60.6579
-60.6573
-60.6567
-60.656
-60.6554
-60.6548
-60.6542
-60.6536
-60.6529
-60.6523
-60.6517
-60.6511
-60.6505
-60.6499
-60.6492
-60.6486
-60.648
-60.6474
-60.6468
-60.6462
-60.6456
-60.645
-60.6443
-60.6437
-60.6431
-60.6425
-60.6419
-60.6413
-60.6407
-60.6401
-60.6395
-60.6389
-60.6383
-60.6376
-60.637
-60.6364
-60.6358
-60.6352
-60.6346
-60.634
-60.6334
-60.6328
-60.6322
-60.6316
-60.631
-60.6304
-60.6298
-60.6292
-60.6286
-60.628
-60.6274
-60.6268
-60.6262
-60.6256
-60.625
-60.6244
-60.6239
-60.6233
-60.6227
-60.6221
-60.6215
-60.6209
-60.6203
-60.6197
-60.6191
-60.6185
-60.6179
-60.6174
-60.6168
-60.6162
-60.6156
-60.615
-60.6144
-60.6138
-60.6132
-60.6127
-60.6121
-60.6115
-60.6109
-60.6103
-60.6097
-60.6092
-60.6086
-60.608
-60.6074
-60.6068
-60.6063
-60.6057
-60.6051
-60.6045
-60.6039
-60.6034
-60.6028
-60.6022
-60.6016
-60.6011
-60.6005
-60.5999
-60.5993
-60.5988
-60.5982
-60.5976
-60.5971
-60.5965
-60.5959
-60.5953
-60.5948
-60.5942
-60.5936
-60.5931
-60.5925
-60.5919
-60.5914
-60.5908
-60.5902
-60.5897
-60.5891
-60.5885
-60.588
-60.5874
-60.5868
-60.5863
-60.5857
-60.5852
-60.5846
-60.584
-60.5835
-60.5829
-60.5824
-60.5818
-60.5812
-60.5807
-60.5801
-60.5796
-60.579
-60.5785
-60.5779
-60.5773
-60.5768
-60.5762
-60.5757
-60.5751
-60.5746
-60.574
-60.5735
-60.5729
-60.5724
-60.5718
-60.5713
-60.5707
-60.5702
-60.5696
-60.5691
-60.5685
-60.568
-60.5674
-60.5669
-60.5663
-60.5658
-60.5652
-60.5647
-60.5641
-60.5636
-60.5631
-60.5625
-60.562
-60.5614
-60.5609
-60.5603
-60.5598
-60.5593
-60.5587
-60.5582
-60.5576
-60.5571
-60.5566
-60.556
-60.5555
-60.555
-60.5544
-60.5539
-60.5534
-60.5528
-60.5523
-60.5517
-60.5512
-60.5507
-60.5501
-60.5496
-60.5491
-60.5485
-60.548
-60.5475
-60.547
-60.5464
-60.5459
-62.1573

